{
  "name": "+4 Armour Special Abilities",
  "description": "",
  "results": [
    {
      "_id": "0pbolioCQQ6sJqXR",
      "flags": {},
      "type": 0,
      "text": "Harmonizing",
      "weight": 16,
      "range": [1, 16],
      "drawn": false,
      "img": null,
      "documentCollection": "",
      "documentId": null
    },
    {
      "_id": "Ak8lLB5HsMxN1gBU",
      "flags": {},
      "type": 0,
      "text": "Improved Shadow",
      "weight": 17,
      "range": [17, 33],
      "drawn": false,
      "img": null,
      "documentCollection": "",
      "documentId": null
    },
    {
      "_id": "bNIuHGFrvaUr2k0S",
      "flags": {},
      "type": 0,
      "text": "Improved Slick",
      "weight": 17,
      "range": [34, 50],
      "drawn": false,
      "img": null,
      "documentCollection": "",
      "documentId": null
    },
    {
      "_id": "QCFQkI2rb4nttgr9",
      "flags": {},
      "type": 0,
      "text": "Energy resistance",
      "weight": 17,
      "range": [51, 67],
      "drawn": false,
      "img": null,
      "documentCollection": "",
      "documentId": null
    },
    {
      "_id": "oB8wXvHZUZRUDHGu",
      "flags": {},
      "type": 0,
      "text": "Martyring",
      "weight": 16,
      "range": [68, 83],
      "drawn": false,
      "img": null,
      "documentCollection": "",
      "documentId": null
    },
    {
      "_id": "XoAUKMgPNZ0Jzwh2",
      "flags": {},
      "type": 0,
      "text": "Spell resistance (17)",
      "weight": 17,
      "range": [84, 100],
      "drawn": false,
      "img": null,
      "documentCollection": "",
      "documentId": null
    }
  ],
  "formula": "1d100",
  "replacement": true,
  "displayRoll": true,
  "_id": "yE5XhRARt8pSu1cr",
  "img": "icons/svg/d20-grey.svg",
  "sort": 0
}
