{
  "_id": "epzojqBeYIGA9ZkT",
  "name": "Armour Type",
  "description": "",
  "results": [
    {
      "_id": "e9pVp9pDW2m70Tko",
      "flags": {},
      "type": 2,
      "text": "Light Armours",
      "img": "icons/svg/d20-black.svg",
      "weight": 1,
      "range": [1, 25],
      "drawn": false,
      "documentCollection": "pf1.ultimate-equipment",
      "documentId": "mEokGwFWW4lqg8MG"
    },
    {
      "_id": "kDvWAatUntbxcgOS",
      "flags": {},
      "type": 2,
      "text": "Medium Armours",
      "img": "icons/svg/d20-black.svg",
      "weight": 1,
      "range": [26, 50],
      "drawn": false,
      "documentCollection": "pf1.ultimate-equipment",
      "documentId": "TpPETWczOodgPRXE"
    },
    {
      "_id": "nOiToXw9KSMgLKcU",
      "flags": {},
      "type": 2,
      "text": "Heavy Armours",
      "img": "icons/svg/d20-black.svg",
      "weight": 1,
      "range": [51, 75],
      "drawn": false,
      "documentCollection": "pf1.ultimate-equipment",
      "documentId": "9n9o2113Ew6lCHiI"
    },
    {
      "_id": "qKL8nLICdIqtkQP8",
      "flags": {},
      "type": 2,
      "text": "Armour and Shield Addons",
      "img": "icons/svg/d20-black.svg",
      "weight": 1,
      "range": [96, 100],
      "drawn": false,
      "documentCollection": "pf1.ultimate-equipment",
      "documentId": "BXxZdNZVUmDAAU2D"
    }
  ],
  "formula": "1d100",
  "replacement": true,
  "displayRoll": true,
  "img": "icons/svg/d20-grey.svg",
  "sort": 0
}
