{
  "name": "Common Level 1 Arcane Scrolls",
  "description": "",
  "results": [
    {
      "_id": "zz6BCWWhlcnPoTHv",
      "flags": {},
      "type": 0,
      "text": "Scroll of Burning Hands",
      "img": "icons/svg/d20-black.svg",
      "weight": 5,
      "range": [1, 5],
      "drawn": false,
      "documentId": null,
      "documentCollection": ""
    },
    {
      "_id": "nZF2F7ppQ6fszMqN",
      "flags": {},
      "type": 0,
      "text": "Scroll of Cause Fear",
      "img": "icons/svg/d20-black.svg",
      "weight": 4,
      "range": [6, 9],
      "drawn": false,
      "documentId": null,
      "documentCollection": ""
    },
    {
      "_id": "oS1wnHqFwGRMPpn0",
      "flags": {},
      "type": 0,
      "text": "Scroll of Charm Person",
      "img": "icons/svg/d20-black.svg",
      "weight": 5,
      "range": [10, 14],
      "drawn": false,
      "documentId": null,
      "documentCollection": ""
    },
    {
      "_id": "fKzVnM7tF8TQnI8o",
      "flags": {},
      "type": 0,
      "text": "Scroll of Chill Touch",
      "img": "icons/svg/d20-black.svg",
      "weight": 3,
      "range": [15, 17],
      "drawn": false,
      "documentId": null,
      "documentCollection": ""
    },
    {
      "_id": "qAvn48IyANwqZiW8",
      "flags": {},
      "type": 0,
      "text": "Scroll of Disguise Self",
      "img": "icons/svg/d20-black.svg",
      "weight": 4,
      "range": [18, 21],
      "drawn": false,
      "documentId": null,
      "documentCollection": ""
    },
    {
      "_id": "u5icJwGd7WbNZoSm",
      "flags": {},
      "type": 0,
      "text": "Scroll of Endure Elements",
      "img": "icons/svg/d20-black.svg",
      "weight": 3,
      "range": [22, 24],
      "drawn": false,
      "documentId": null,
      "documentCollection": ""
    },
    {
      "_id": "OgNVpP6Xl9zzt9Kr",
      "flags": {},
      "type": 0,
      "text": "Scroll of Enlarge Person",
      "img": "icons/svg/d20-black.svg",
      "weight": 4,
      "range": [25, 28],
      "drawn": false,
      "documentId": null,
      "documentCollection": ""
    },
    {
      "_id": "lSgWNMo3K7cDWyZ9",
      "flags": {},
      "type": 0,
      "text": "Scroll of Expeditious Retreat",
      "img": "icons/svg/d20-black.svg",
      "weight": 4,
      "range": [29, 32],
      "drawn": false,
      "documentId": null,
      "documentCollection": ""
    },
    {
      "_id": "BWyUB931VxVqevmi",
      "flags": {},
      "type": 0,
      "text": "Scroll of Grease",
      "img": "icons/svg/d20-black.svg",
      "weight": 4,
      "range": [33, 36],
      "drawn": false,
      "documentId": null,
      "documentCollection": ""
    },
    {
      "_id": "muJC0ARaY3V9JV9T",
      "flags": {},
      "type": 0,
      "text": "Scroll of Hypnotism",
      "img": "icons/svg/d20-black.svg",
      "weight": 3,
      "range": [37, 39],
      "drawn": false,
      "documentId": null,
      "documentCollection": ""
    },
    {
      "_id": "ecHFzPtWbkMg3zfL",
      "flags": {},
      "type": 0,
      "text": "Scroll of Identify",
      "img": "icons/svg/d20-black.svg",
      "weight": 3,
      "range": [40, 42],
      "drawn": false,
      "documentId": null,
      "documentCollection": ""
    },
    {
      "_id": "fcWbqJvpznAIzgIa",
      "flags": {},
      "type": 0,
      "text": "Scroll of Mage Armor",
      "img": "icons/svg/d20-black.svg",
      "weight": 6,
      "range": [43, 48],
      "drawn": false,
      "documentId": null,
      "documentCollection": ""
    },
    {
      "_id": "9ImoNLGw01pfsWxa",
      "flags": {},
      "type": 0,
      "text": "Scroll of Magic Missile",
      "img": "icons/svg/d20-black.svg",
      "weight": 6,
      "range": [49, 54],
      "drawn": false,
      "documentId": null,
      "documentCollection": ""
    },
    {
      "_id": "CfEt7dH0EOMSg5vD",
      "flags": {},
      "type": 0,
      "text": "Scroll of Magic Weapon",
      "img": "icons/svg/d20-black.svg",
      "weight": 4,
      "range": [55, 58],
      "drawn": false,
      "documentId": null,
      "documentCollection": ""
    },
    {
      "_id": "Zn7dX3uUAAljCK3C",
      "flags": {},
      "type": 0,
      "text": "Scroll of Obscuring Mist",
      "img": "icons/svg/d20-black.svg",
      "weight": 4,
      "range": [59, 62],
      "drawn": false,
      "documentId": null,
      "documentCollection": ""
    },
    {
      "_id": "o0NhlBNCm6gAtcbG",
      "flags": {},
      "type": 0,
      "text": "Scroll of Protection From Chaos",
      "img": "icons/svg/d20-black.svg",
      "weight": 2,
      "range": [63, 64],
      "drawn": false,
      "documentId": null,
      "documentCollection": ""
    },
    {
      "_id": "T3xcwvnZM2M3crch",
      "flags": {},
      "type": 0,
      "text": "Scroll of Protection From Evil",
      "img": "icons/svg/d20-black.svg",
      "weight": 3,
      "range": [65, 67],
      "drawn": false,
      "documentId": null,
      "documentCollection": ""
    },
    {
      "_id": "SlgIOMrWZ168Z88K",
      "flags": {},
      "type": 0,
      "text": "Scroll of Protection From Good",
      "img": "icons/svg/d20-black.svg",
      "weight": 2,
      "range": [68, 69],
      "drawn": false,
      "documentId": null,
      "documentCollection": ""
    },
    {
      "_id": "59b5yRY7VgTmTcY0",
      "flags": {},
      "type": 0,
      "text": "Scroll of Protection From Law",
      "img": "icons/svg/d20-black.svg",
      "weight": 2,
      "range": [70, 71],
      "drawn": false,
      "documentId": null,
      "documentCollection": ""
    },
    {
      "_id": "2PGTXxGrUfOjo0EA",
      "flags": {},
      "type": 0,
      "text": "Scroll of Ray of Enfeeblement",
      "img": "icons/svg/d20-black.svg",
      "weight": 4,
      "range": [72, 75],
      "drawn": false,
      "documentId": null,
      "documentCollection": ""
    },
    {
      "_id": "yAuDGeFfGwmzjUfM",
      "flags": {},
      "type": 0,
      "text": "Scroll of Shield",
      "img": "icons/svg/d20-black.svg",
      "weight": 5,
      "range": [76, 80],
      "drawn": false,
      "documentId": null,
      "documentCollection": ""
    },
    {
      "_id": "jp26GxzxmfQENUG5",
      "flags": {},
      "type": 0,
      "text": "Scroll of Shocking Grasp",
      "img": "icons/svg/d20-black.svg",
      "weight": 4,
      "range": [81, 84],
      "drawn": false,
      "documentId": null,
      "documentCollection": ""
    },
    {
      "_id": "SKBhpUUK9UvlajAN",
      "flags": {},
      "type": 0,
      "text": "Scroll of Silent Image",
      "img": "icons/svg/d20-black.svg",
      "weight": 4,
      "range": [85, 88],
      "drawn": false,
      "documentId": null,
      "documentCollection": ""
    },
    {
      "_id": "GKotiHssu08rTqRI",
      "flags": {},
      "type": 0,
      "text": "Scroll of Sleep",
      "img": "icons/svg/d20-black.svg",
      "weight": 5,
      "range": [89, 93],
      "drawn": false,
      "documentId": null,
      "documentCollection": ""
    },
    {
      "_id": "QT3pzxlMw5FhxAYs",
      "flags": {},
      "type": 0,
      "text": "Scroll of Summon Monster I",
      "img": "icons/svg/d20-black.svg",
      "weight": 3,
      "range": [94, 96],
      "drawn": false,
      "documentId": null,
      "documentCollection": ""
    },
    {
      "_id": "Lof17eQsRKDX3Imc",
      "flags": {},
      "type": 0,
      "text": "Scroll of True Strike",
      "img": "icons/svg/d20-black.svg",
      "weight": 4,
      "range": [97, 100],
      "drawn": false,
      "documentId": null,
      "documentCollection": ""
    }
  ],
  "formula": "1d100",
  "replacement": true,
  "displayRoll": true,
  "_id": "BeXyappIVJF0Elj1",
  "img": "icons/svg/d20-grey.svg",
  "sort": 0
}
