{
  "name": "Greater Major Specific Shields",
  "description": "",
  "results": [
    {
      "_id": "VXCSKYJma9X11io4",
      "flags": {},
      "type": 0,
      "text": "Spell Ward Tower Shield",
      "weight": 20,
      "range": [1, 20],
      "drawn": false,
      "img": null,
      "documentCollection": "",
      "documentId": null
    },
    {
      "_id": "Rh5vOIqvHu1k6Bjn",
      "flags": {},
      "type": 0,
      "text": "Quick Block Buckler",
      "weight": 15,
      "range": [21, 35],
      "drawn": false,
      "img": null,
      "documentCollection": "",
      "documentId": null
    },
    {
      "_id": "IJmtMTKWEhMZFt5T",
      "flags": {},
      "type": 0,
      "text": "Belligerent Shield",
      "weight": 15,
      "range": [36, 50],
      "drawn": false,
      "img": null,
      "documentCollection": "",
      "documentId": null
    },
    {
      "_id": "OlOgK1a5p0L3chJR",
      "flags": {},
      "type": 0,
      "text": "Force Tower",
      "weight": 15,
      "range": [51, 65],
      "drawn": false,
      "img": null,
      "documentCollection": "",
      "documentId": null
    },
    {
      "_id": "RjpZXAJ4mSWrGhYY",
      "flags": {},
      "type": 0,
      "text": "Absorbing Shield",
      "weight": 20,
      "range": [66, 85],
      "drawn": false,
      "img": null,
      "documentCollection": "",
      "documentId": null
    },
    {
      "_id": "bZDF7zPbLk0OUvJq",
      "flags": {},
      "type": 0,
      "text": "Elysian Shield",
      "weight": 15,
      "range": [86, 100],
      "drawn": false,
      "img": null,
      "documentCollection": "",
      "documentId": null
    }
  ],
  "formula": "1d100",
  "replacement": true,
  "displayRoll": true,
  "_id": "CaQhCWev7u0Ba4eb",
  "img": "icons/svg/d20-grey.svg",
  "sort": 0
}
