{
  "name": "Greater Medium Feet",
  "description": "",
  "results": [
    {
      "_id": "0YTKDoExCTF7TuQO",
      "flags": {},
      "type": 0,
      "text": "Shoes of the Firewalker",
      "weight": 38,
      "range": [1, 38],
      "drawn": false,
      "img": null,
      "documentCollection": "",
      "documentId": null
    },
    {
      "_id": "kV9u9Zf6SEUq3AUN",
      "flags": {},
      "type": 0,
      "text": "Dryad Sandals",
      "weight": 34,
      "range": [39, 72],
      "drawn": false,
      "img": null,
      "documentCollection": "",
      "documentId": null
    },
    {
      "_id": "iMaljBZPEfotraRV",
      "flags": {},
      "type": 0,
      "text": "Horseshoes of the Mist",
      "weight": 28,
      "range": [73, 100],
      "drawn": false,
      "img": null,
      "documentCollection": "",
      "documentId": null
    }
  ],
  "formula": "1d100",
  "replacement": true,
  "displayRoll": true,
  "_id": "ugUepReDkcqrlpI8",
  "img": "icons/svg/d20-grey.svg",
  "sort": 0
}
