{
  "name": "Greater Medium Slotless",
  "description": "",
  "results": [
    {
      "_id": "t7Z54aALxDZNWWM3",
      "flags": {},
      "type": 0,
      "text": "Ioun Stone (Iridescent Spindle)",
      "weight": 3,
      "range": [1, 3],
      "drawn": false,
      "img": null,
      "documentCollection": "",
      "documentId": null
    },
    {
      "_id": "qarOhH3dDYH6kFrB",
      "flags": {},
      "type": 0,
      "text": "Orb of Foul Abaddon",
      "weight": 1,
      "range": [4, 4],
      "drawn": false,
      "img": null,
      "documentCollection": "",
      "documentId": null
    },
    {
      "_id": "Qx5frG27UIcstlzo",
      "flags": {},
      "type": 0,
      "text": "Carpet of Flying (5 ft. By 5 ft.)",
      "weight": 4,
      "range": [5, 8],
      "drawn": false,
      "img": null,
      "documentCollection": "",
      "documentId": null
    },
    {
      "_id": "BkxPiYLH3jw3VE5f",
      "flags": {},
      "type": 0,
      "text": "Horn of Antagonism",
      "weight": 1,
      "range": [9, 9],
      "drawn": false,
      "img": null,
      "documentCollection": "",
      "documentId": null
    },
    {
      "_id": "b6bkns7SHA0iCL2u",
      "flags": {},
      "type": 0,
      "text": "Horn of Blasting",
      "weight": 4,
      "range": [10, 13],
      "drawn": false,
      "img": null,
      "documentCollection": "",
      "documentId": null
    },
    {
      "_id": "NqCJSiBJeLfFHuWC",
      "flags": {},
      "type": 0,
      "text": "Ioun Stone (Pale Lavender Ellipsoid)",
      "weight": 4,
      "range": [14, 17],
      "drawn": false,
      "img": null,
      "documentCollection": "",
      "documentId": null
    },
    {
      "_id": "aBm95Pa30zUQ5AXw",
      "flags": {},
      "type": 0,
      "text": "Ioun Stone (Pearly White Spindle)",
      "weight": 4,
      "range": [18, 21],
      "drawn": false,
      "img": null,
      "documentCollection": "",
      "documentId": null
    },
    {
      "_id": "MrSPB8p29DLGV8z7",
      "flags": {},
      "type": 0,
      "text": "Master's Perfect Golden Bell",
      "weight": 3,
      "range": [22, 24],
      "drawn": false,
      "img": null,
      "documentCollection": "",
      "documentId": null
    },
    {
      "_id": "lqNkbmBsl9KmJlZm",
      "flags": {},
      "type": 0,
      "text": "Necromancer's Athame",
      "weight": 3,
      "range": [25, 27],
      "drawn": false,
      "img": null,
      "documentCollection": "",
      "documentId": null
    },
    {
      "_id": "9fTum7uQBO9aa0i7",
      "flags": {},
      "type": 0,
      "text": "Portable Hole",
      "weight": 4,
      "range": [28, 31],
      "drawn": false,
      "img": null,
      "documentCollection": "",
      "documentId": null
    },
    {
      "_id": "f7f7DZBG5V5jQH1O",
      "flags": {},
      "type": 0,
      "text": "Stone of Good Luck",
      "weight": 4,
      "range": [32, 35],
      "drawn": false,
      "img": null,
      "documentCollection": "",
      "documentId": null
    },
    {
      "_id": "MApJbId53WSPkhGg",
      "flags": {},
      "type": 0,
      "text": "Figurine of Wondrous Power (Ivory Goats)",
      "weight": 2,
      "range": [36, 37],
      "drawn": false,
      "img": null,
      "documentCollection": "",
      "documentId": null
    },
    {
      "_id": "pZqFPPaTi9u81f3w",
      "flags": {},
      "type": 0,
      "text": "Rope of Entanglement",
      "weight": 3,
      "range": [38, 40],
      "drawn": false,
      "img": null,
      "documentCollection": "",
      "documentId": null
    },
    {
      "_id": "32VH9btb0uGXs2hJ",
      "flags": {},
      "type": 0,
      "text": "Golem Manual (Stone)",
      "weight": 2,
      "range": [41, 42],
      "drawn": false,
      "img": null,
      "documentCollection": "",
      "documentId": null
    },
    {
      "_id": "cVldt4U8yqTcxBOm",
      "flags": {},
      "type": 0,
      "text": "Orb of Golden Heaven",
      "weight": 1,
      "range": [43, 43],
      "drawn": false,
      "img": null,
      "documentCollection": "",
      "documentId": null
    },
    {
      "_id": "c7TMRex3cpeSkeYe",
      "flags": {},
      "type": 0,
      "text": "Mattock of the Titans",
      "weight": 2,
      "range": [44, 45],
      "drawn": false,
      "img": null,
      "documentCollection": "",
      "documentId": null
    },
    {
      "_id": "rMfFFQNzfYFME9r3",
      "flags": {},
      "type": 0,
      "text": "Drinking Horn of Bottomless Valor",
      "weight": 3,
      "range": [46, 48],
      "drawn": false,
      "img": null,
      "documentCollection": "",
      "documentId": null
    },
    {
      "_id": "2Ctjm8PSJIp0iIlV",
      "flags": {},
      "type": 0,
      "text": "Boro Bead (5th)",
      "weight": 3,
      "range": [49, 51],
      "drawn": false,
      "img": null,
      "documentCollection": "",
      "documentId": null
    },
    {
      "_id": "NVIXifQzh3XWKcY5",
      "flags": {},
      "type": 0,
      "text": "Chaos Emerald",
      "weight": 2,
      "range": [52, 53],
      "drawn": false,
      "img": null,
      "documentCollection": "",
      "documentId": null
    },
    {
      "_id": "l6ZH4d4iDyTlmjaS",
      "flags": {},
      "type": 0,
      "text": "Page of Spell Knowledge (5th)",
      "weight": 4,
      "range": [54, 57],
      "drawn": false,
      "img": null,
      "documentCollection": "",
      "documentId": null
    },
    {
      "_id": "OQGPvef8CTTco3f5",
      "flags": {},
      "type": 0,
      "text": "Pearl of Power (5th)",
      "weight": 7,
      "range": [58, 64],
      "drawn": false,
      "img": null,
      "documentCollection": "",
      "documentId": null
    },
    {
      "_id": "mrlrOHhT9aX9Ws5p",
      "flags": {},
      "type": 0,
      "text": "Preserving Flask (5th)",
      "weight": 3,
      "range": [65, 67],
      "drawn": false,
      "img": null,
      "documentCollection": "",
      "documentId": null
    },
    {
      "_id": "st6OWgrwLgHK8TIN",
      "flags": {},
      "type": 0,
      "text": "Maul of the Titans",
      "weight": 2,
      "range": [68, 69],
      "drawn": false,
      "img": null,
      "documentCollection": "",
      "documentId": null
    },
    {
      "_id": "EbiDtGQhIXIJaUFw",
      "flags": {},
      "type": 0,
      "text": "Iron Bands of Binding",
      "weight": 4,
      "range": [70, 73],
      "drawn": false,
      "img": null,
      "documentCollection": "",
      "documentId": null
    },
    {
      "_id": "bFc0690pH4ijfCG2",
      "flags": {},
      "type": 0,
      "text": "Cube of Frost Resistance",
      "weight": 3,
      "range": [74, 76],
      "drawn": false,
      "img": null,
      "documentCollection": "",
      "documentId": null
    },
    {
      "_id": "hLT7oB8mf9WkPgcT",
      "flags": {},
      "type": 0,
      "text": "Manual of Bodily Health +1",
      "weight": 4,
      "range": [77, 80],
      "drawn": false,
      "img": null,
      "documentCollection": "",
      "documentId": null
    },
    {
      "_id": "MBeBpEoWVWqOR4R2",
      "flags": {},
      "type": 0,
      "text": "Manual of Gainful Exercise +1",
      "weight": 4,
      "range": [81, 84],
      "drawn": false,
      "img": null,
      "documentCollection": "",
      "documentId": null
    },
    {
      "_id": "gc19lprW4Oq9Q5R7",
      "flags": {},
      "type": 0,
      "text": "Manual of Quickness of Action +1",
      "weight": 4,
      "range": [85, 88],
      "drawn": false,
      "img": null,
      "documentCollection": "",
      "documentId": null
    },
    {
      "_id": "8Bt9kF4hi3f1UOVS",
      "flags": {},
      "type": 0,
      "text": "Tome of Clear Thought +1",
      "weight": 4,
      "range": [89, 92],
      "drawn": false,
      "img": null,
      "documentCollection": "",
      "documentId": null
    },
    {
      "_id": "BCjJrORqLDcxNMeN",
      "flags": {},
      "type": 0,
      "text": "Tome of Leadership and Influence +1",
      "weight": 4,
      "range": [93, 96],
      "drawn": false,
      "img": null,
      "documentCollection": "",
      "documentId": null
    },
    {
      "_id": "74BLLmTZmfkLgixI",
      "flags": {},
      "type": 0,
      "text": "Tome of Understanding +1",
      "weight": 4,
      "range": [97, 100],
      "drawn": false,
      "img": null,
      "documentCollection": "",
      "documentId": null
    }
  ],
  "formula": "1d100",
  "replacement": true,
  "displayRoll": true,
  "_id": "Q5GC7sPGTSV48YVq",
  "img": "icons/svg/d20-grey.svg",
  "sort": 0
}
