{
  "name": "Greater Major Head",
  "description": "",
  "results": [
    {
      "_id": "Wam8DMzUrtTrZUAr",
      "flags": {},
      "type": 0,
      "text": "Judge's Wig",
      "weight": 14,
      "range": [1, 14],
      "drawn": false,
      "img": null,
      "documentCollection": "",
      "documentId": null
    },
    {
      "_id": "ndJjNqHbMV5Txhpt",
      "flags": {},
      "type": 0,
      "text": "Helm of Teleportation",
      "weight": 25,
      "range": [15, 39],
      "drawn": false,
      "img": null,
      "documentCollection": "",
      "documentId": null
    },
    {
      "_id": "FXVl8zl8zJUPEYMy",
      "flags": {},
      "type": 0,
      "text": "Halo of Menace",
      "weight": 16,
      "range": [40, 55],
      "drawn": false,
      "img": null,
      "documentCollection": "",
      "documentId": null
    },
    {
      "_id": "YsHJRqWY1Z2mzPd1",
      "flags": {},
      "type": 0,
      "text": "Mask of Giants, Greater",
      "weight": 13,
      "range": [56, 68],
      "drawn": false,
      "img": null,
      "documentCollection": "",
      "documentId": null
    },
    {
      "_id": "de4zhgWkqQWe9WyO",
      "flags": {},
      "type": 0,
      "text": "Helm of Brilliance",
      "weight": 15,
      "range": [69, 83],
      "drawn": false,
      "img": null,
      "documentCollection": "",
      "documentId": null
    },
    {
      "_id": "LNIAPNqz8YDCU68G",
      "flags": {},
      "type": 0,
      "text": "Helm of Electric Radiance",
      "weight": 9,
      "range": [84, 92],
      "drawn": false,
      "img": null,
      "documentCollection": "",
      "documentId": null
    },
    {
      "_id": "Linb5mykMaqM7oQV",
      "flags": {},
      "type": 0,
      "text": "Crown of Heaven",
      "weight": 8,
      "range": [93, 100],
      "drawn": false,
      "img": null,
      "documentCollection": "",
      "documentId": null
    }
  ],
  "formula": "1d100",
  "replacement": true,
  "displayRoll": true,
  "_id": "zD0zVduye6VFx39b",
  "img": "icons/svg/d20-grey.svg",
  "sort": 0
}
