{
  "name": "Greater Minor Hand",
  "description": "",
  "results": [
    {
      "_id": "hfDten0z1V1UgqiQ",
      "flags": {},
      "type": 0,
      "text": "Gauntlets of the Skilled Maneuver",
      "weight": 12,
      "range": [1, 12],
      "drawn": false,
      "img": null,
      "documentCollection": "",
      "documentId": null
    },
    {
      "_id": "IrbMtPAFcca4pW30",
      "flags": {},
      "type": 0,
      "text": "Ghostvision Gloves",
      "weight": 9,
      "range": [13, 21],
      "drawn": false,
      "img": null,
      "documentCollection": "",
      "documentId": null
    },
    {
      "_id": "vO9zLJfl6uMl4vjY",
      "flags": {},
      "type": 0,
      "text": "Gloves of Arrow Snaring",
      "weight": 12,
      "range": [22, 33],
      "drawn": false,
      "img": null,
      "documentCollection": "",
      "documentId": null
    },
    {
      "_id": "bDE2deoa0MUf6uLS",
      "flags": {},
      "type": 0,
      "text": "Trapspringer's Gloves",
      "weight": 10,
      "range": [34, 43],
      "drawn": false,
      "img": null,
      "documentCollection": "",
      "documentId": null
    },
    {
      "_id": "W0SrVMqI2TI3qZuA",
      "flags": {},
      "type": 0,
      "text": "Gloves of Arcane Striking",
      "weight": 12,
      "range": [44, 55],
      "drawn": false,
      "img": null,
      "documentCollection": "",
      "documentId": null
    },
    {
      "_id": "hyaBnmZlTMkRTVYb",
      "flags": {},
      "type": 0,
      "text": "Poisoner's Gloves",
      "weight": 10,
      "range": [56, 65],
      "drawn": false,
      "img": null,
      "documentCollection": "",
      "documentId": null
    },
    {
      "_id": "btyKmVXZsEEDkGEg",
      "flags": {},
      "type": 0,
      "text": "Magnetist's Gloves",
      "weight": 10,
      "range": [66, 75],
      "drawn": false,
      "img": null,
      "documentCollection": "",
      "documentId": null
    },
    {
      "_id": "d1dR14VPlKfi2hNY",
      "flags": {},
      "type": 0,
      "text": "Gloves of Swimming and Climbing",
      "weight": 25,
      "range": [76, 100],
      "drawn": false,
      "img": null,
      "documentCollection": "",
      "documentId": null
    }
  ],
  "formula": "1d100",
  "replacement": true,
  "displayRoll": true,
  "_id": "KFxU1FjEQjFgGUTk",
  "img": "icons/svg/d20-grey.svg",
  "sort": 0
}
