{
  "name": "Greater Minor Feet",
  "description": "",
  "results": [
    {
      "_id": "9A3yu0gWZZIqujwC",
      "flags": {},
      "type": 0,
      "text": "Burglar Boots, Minor",
      "weight": 7,
      "range": [1, 7],
      "drawn": false,
      "img": null,
      "documentCollection": "",
      "documentId": null
    },
    {
      "_id": "NHtpi8nrbmxgFBVj",
      "flags": {},
      "type": 0,
      "text": "Horseshoes of Crushing Blows +1",
      "weight": 6,
      "range": [8, 13],
      "drawn": false,
      "img": null,
      "documentCollection": "",
      "documentId": null
    },
    {
      "_id": "0u2scM0qsvm6rJF3",
      "flags": {},
      "type": 0,
      "text": "Sandals of Quick Reaction",
      "weight": 6,
      "range": [14, 19],
      "drawn": false,
      "img": null,
      "documentCollection": "",
      "documentId": null
    },
    {
      "_id": "2p9GDyEUYEjiwIAR",
      "flags": {},
      "type": 0,
      "text": "Slippers of Cloudwalking",
      "weight": 7,
      "range": [20, 26],
      "drawn": false,
      "img": null,
      "documentCollection": "",
      "documentId": null
    },
    {
      "_id": "GLmwQlTqWIlBH3H0",
      "flags": {},
      "type": 0,
      "text": "Slippers of Spider Climbing",
      "weight": 14,
      "range": [27, 40],
      "drawn": false,
      "img": null,
      "documentCollection": "",
      "documentId": null
    },
    {
      "_id": "MqTGPxT8hCZXxQXS",
      "flags": {},
      "type": 0,
      "text": "Sandals of the Lightest Step",
      "weight": 6,
      "range": [41, 46],
      "drawn": false,
      "img": null,
      "documentCollection": "",
      "documentId": null
    },
    {
      "_id": "C9sWGfWKpaye80Mk",
      "flags": {},
      "type": 0,
      "text": "Boots of Striding and Springing",
      "weight": 14,
      "range": [47, 60],
      "drawn": false,
      "img": null,
      "documentCollection": "",
      "documentId": null
    },
    {
      "_id": "pJg1pkBP6e7Kr4Oj",
      "flags": {},
      "type": 0,
      "text": "Horseshoes of a Zephyr",
      "weight": 8,
      "range": [61, 68],
      "drawn": false,
      "img": null,
      "documentCollection": "",
      "documentId": null
    },
    {
      "_id": "YLirM6bwQahKRkA2",
      "flags": {},
      "type": 0,
      "text": "Haunted Shoes",
      "weight": 7,
      "range": [69, 75],
      "drawn": false,
      "img": null,
      "documentCollection": "",
      "documentId": null
    },
    {
      "_id": "FRTZ7CPCSwfw16bv",
      "flags": {},
      "type": 0,
      "text": "Jaunt Boots",
      "weight": 7,
      "range": [76, 82],
      "drawn": false,
      "img": null,
      "documentCollection": "",
      "documentId": null
    },
    {
      "_id": "QRhnVh2K9qBag92v",
      "flags": {},
      "type": 0,
      "text": "Boots of Levitation",
      "weight": 18,
      "range": [83, 100],
      "drawn": false,
      "img": null,
      "documentCollection": "",
      "documentId": null
    }
  ],
  "formula": "1d100",
  "replacement": true,
  "displayRoll": true,
  "_id": "AxbS1s7S4L2yk8we",
  "img": "icons/svg/d20-grey.svg",
  "sort": 0
}
