{
  "name": "Lesser Major Hand",
  "description": "",
  "results": [
    {
      "_id": "ENjzSHOTpCHMSDP1",
      "flags": {},
      "type": 0,
      "text": "Gloves of the Commanding Conjurer",
      "weight": 40,
      "range": [1, 40],
      "drawn": false,
      "img": null,
      "documentCollection": "",
      "documentId": null
    },
    {
      "_id": "FDKBPv9WXoSpdvRQ",
      "flags": {},
      "type": 0,
      "text": "Gauntlet of Rust, Greater",
      "weight": 60,
      "range": [41, 100],
      "drawn": false,
      "img": null,
      "documentCollection": "",
      "documentId": null
    }
  ],
  "formula": "1d100",
  "replacement": true,
  "displayRoll": true,
  "_id": "1GT0e5OB1sL2C1i6",
  "img": "icons/svg/d20-grey.svg",
  "sort": 0
}
