{
  "name": "Metamagic Rods +1 Level",
  "description": "",
  "results": [
    {
      "_id": "5C9vtQFqmFyvKeBG",
      "flags": {},
      "type": 0,
      "text": "Metamagic Rod of Bouncing",
      "img": "icons/svg/d20-black.svg",
      "weight": 4,
      "range": [1, 4],
      "drawn": false,
      "documentId": null,
      "documentCollection": ""
    },
    {
      "_id": "DmhC9OQNigylc6Je",
      "flags": {},
      "type": 0,
      "text": "Metamagic Rod of Disruptive",
      "img": "icons/svg/d20-black.svg",
      "weight": 5,
      "range": [5, 9],
      "drawn": false,
      "documentId": null,
      "documentCollection": ""
    },
    {
      "_id": "LJum9vFP4p7K0Bjq",
      "flags": {},
      "type": 0,
      "text": "Metamagic Rod of Ectoplasmic",
      "img": "icons/svg/d20-black.svg",
      "weight": 5,
      "range": [10, 14],
      "drawn": false,
      "documentId": null,
      "documentCollection": ""
    },
    {
      "_id": "jJ0IXDrMsgh8tH3G",
      "flags": {},
      "type": 0,
      "text": "Metamagic Rod of Elemental (Electricity)",
      "img": "icons/svg/d20-black.svg",
      "weight": 5,
      "range": [15, 19],
      "drawn": false,
      "documentId": null,
      "documentCollection": ""
    },
    {
      "_id": "9dcGJhnbK5Oz1LZs",
      "flags": {},
      "type": 0,
      "text": "Metamagic Rod of Enlarge",
      "img": "icons/svg/d20-black.svg",
      "weight": 12,
      "range": [20, 31],
      "drawn": false,
      "documentId": null,
      "documentCollection": ""
    },
    {
      "_id": "hto7WbwMNqEwfUQU",
      "flags": {},
      "type": 0,
      "text": "Metamagic Rod of Extend",
      "img": "icons/svg/d20-black.svg",
      "weight": 12,
      "range": [32, 43],
      "drawn": false,
      "documentId": null,
      "documentCollection": ""
    },
    {
      "_id": "QSu1liVNpUZvkb1Q",
      "flags": {},
      "type": 0,
      "text": "Metamagic Rod of Flaring",
      "img": "icons/svg/d20-black.svg",
      "weight": 5,
      "range": [44, 48],
      "drawn": false,
      "documentId": null,
      "documentCollection": ""
    },
    {
      "_id": "1mF5KOruq211vN9v",
      "flags": {},
      "type": 0,
      "text": "Metamagic Rod of Focused",
      "img": "icons/svg/d20-black.svg",
      "weight": 5,
      "range": [49, 53],
      "drawn": false,
      "documentId": null,
      "documentCollection": ""
    },
    {
      "_id": "mmxPzZd0mi9b6vbP",
      "flags": {},
      "type": 0,
      "text": "Metamagic Rod of Intensified",
      "img": "icons/svg/d20-black.svg",
      "weight": 5,
      "range": [54, 58],
      "drawn": false,
      "documentId": null,
      "documentCollection": ""
    },
    {
      "_id": "jlLoicWdmEIfTzOv",
      "flags": {},
      "type": 0,
      "text": "Metamagic Rod of Lingering",
      "img": "icons/svg/d20-black.svg",
      "weight": 5,
      "range": [59, 63],
      "drawn": false,
      "documentId": null,
      "documentCollection": ""
    },
    {
      "_id": "bHAC5rOh7nqC3l5l",
      "flags": {},
      "type": 0,
      "text": "Metamagic Rod of Piercing",
      "img": "icons/svg/d20-black.svg",
      "weight": 5,
      "range": [64, 68],
      "drawn": false,
      "documentId": null,
      "documentCollection": ""
    },
    {
      "_id": "uAynK2fXc3dsB9sl",
      "flags": {},
      "type": 0,
      "text": "Metamagic Rod of Reach",
      "img": "icons/svg/d20-black.svg",
      "weight": 5,
      "range": [69, 73],
      "drawn": false,
      "documentId": null,
      "documentCollection": ""
    },
    {
      "_id": "SJh5bgtg5WDsDQts",
      "flags": {},
      "type": 0,
      "text": "Metamagic Rod of Rime",
      "img": "icons/svg/d20-black.svg",
      "weight": 5,
      "range": [74, 78],
      "drawn": false,
      "documentId": null,
      "documentCollection": ""
    },
    {
      "_id": "xAantpJEEzsAdX05",
      "flags": {},
      "type": 0,
      "text": "Metamagic Rod of Selective",
      "img": "icons/svg/d20-black.svg",
      "weight": 5,
      "range": [79, 83],
      "drawn": false,
      "documentId": null,
      "documentCollection": ""
    },
    {
      "_id": "4vMHncL4deQqOrs1",
      "flags": {},
      "type": 0,
      "text": "Metamagic Rod of Silent",
      "img": "icons/svg/d20-black.svg",
      "weight": 12,
      "range": [84, 95],
      "drawn": false,
      "documentId": null,
      "documentCollection": ""
    },
    {
      "_id": "t4WWgXk8JodBvEzx",
      "flags": {},
      "type": 0,
      "text": "Metamagic Rod of Toppling",
      "img": "icons/svg/d20-black.svg",
      "weight": 5,
      "range": [96, 100],
      "drawn": false,
      "documentId": null,
      "documentCollection": ""
    }
  ],
  "formula": "1d100",
  "replacement": true,
  "displayRoll": true,
  "_id": "h9UWUgzqrUn5XTMO",
  "img": "icons/svg/d20-grey.svg",
  "sort": 0
}
