{
  "name": "Uncommon Level 8 Divine Scrolls",
  "description": "",
  "results": [
    {
      "_id": "m7Lh8O6TjaAbEGOT",
      "flags": {},
      "type": 0,
      "text": "Scroll of Animal Shapes",
      "img": "icons/svg/d20-black.svg",
      "weight": 7,
      "range": [1, 7],
      "drawn": false,
      "documentId": null,
      "documentCollection": ""
    },
    {
      "_id": "501nKL2UarpnDRB8",
      "flags": {},
      "type": 0,
      "text": "Scroll of Blood Mist",
      "img": "icons/svg/d20-black.svg",
      "weight": 6,
      "range": [8, 13],
      "drawn": false,
      "documentId": null,
      "documentCollection": ""
    },
    {
      "_id": "6ABrPAYaOOknCF37",
      "flags": {},
      "type": 0,
      "text": "Scroll of Control Plants",
      "img": "icons/svg/d20-black.svg",
      "weight": 5,
      "range": [14, 18],
      "drawn": false,
      "documentId": null,
      "documentCollection": ""
    },
    {
      "_id": "wht8OCoropA3aU1d",
      "flags": {},
      "type": 0,
      "text": "Scroll of Create Demiplane",
      "img": "icons/svg/d20-black.svg",
      "weight": 6,
      "range": [19, 24],
      "drawn": false,
      "documentId": null,
      "documentCollection": ""
    },
    {
      "_id": "Fi1eO0yTlrYrGb4O",
      "flags": {},
      "type": 0,
      "text": "Scroll of Dimensional Lock",
      "img": "icons/svg/d20-black.svg",
      "weight": 7,
      "range": [25, 31],
      "drawn": false,
      "documentId": null,
      "documentCollection": ""
    },
    {
      "_id": "hUI9YKEhtngkHb9k",
      "flags": {},
      "type": 0,
      "text": "Scroll of Discern Location",
      "img": "icons/svg/d20-black.svg",
      "weight": 6,
      "range": [32, 37],
      "drawn": false,
      "documentId": null,
      "documentCollection": ""
    },
    {
      "_id": "3lxMF4LeS8UgnS7o",
      "flags": {},
      "type": 0,
      "text": "Scroll of Euphoric Tranquility",
      "img": "icons/svg/d20-black.svg",
      "weight": 5,
      "range": [38, 42],
      "drawn": false,
      "documentId": null,
      "documentCollection": ""
    },
    {
      "_id": "l2wF4btQ8SAjOklo",
      "flags": {},
      "type": 0,
      "text": "Scroll of Frightful Aspect",
      "img": "icons/svg/d20-black.svg",
      "weight": 7,
      "range": [43, 49],
      "drawn": false,
      "documentId": null,
      "documentCollection": ""
    },
    {
      "_id": "xPSXK7gEfL2BDrj2",
      "flags": {},
      "type": 0,
      "text": "Scroll of Orb of the Void",
      "img": "icons/svg/d20-black.svg",
      "weight": 7,
      "range": [50, 56],
      "drawn": false,
      "documentId": null,
      "documentCollection": ""
    },
    {
      "_id": "TvHadlF1pUMwLeH2",
      "flags": {},
      "type": 0,
      "text": "Scroll of Repel Metal Or Stone",
      "img": "icons/svg/d20-black.svg",
      "weight": 5,
      "range": [57, 61],
      "drawn": false,
      "documentId": null,
      "documentCollection": ""
    },
    {
      "_id": "uwKlBAXWGQZ4BRsM",
      "flags": {},
      "type": 0,
      "text": "Scroll of Seamantle",
      "img": "icons/svg/d20-black.svg",
      "weight": 7,
      "range": [62, 68],
      "drawn": false,
      "documentId": null,
      "documentCollection": ""
    },
    {
      "_id": "0urFDmrf6OGdhQRR",
      "flags": {},
      "type": 0,
      "text": "Scroll of Storm Bolts",
      "img": "icons/svg/d20-black.svg",
      "weight": 7,
      "range": [69, 75],
      "drawn": false,
      "documentId": null,
      "documentCollection": ""
    },
    {
      "_id": "O40r129YOG37n2zr",
      "flags": {},
      "type": 0,
      "text": "Scroll of Whirlwind",
      "img": "icons/svg/d20-black.svg",
      "weight": 8,
      "range": [76, 83],
      "drawn": false,
      "documentId": null,
      "documentCollection": ""
    },
    {
      "_id": "0bO8D2ul38c5BhMB",
      "flags": {},
      "type": 0,
      "text": "Scroll of Create Greater Undead",
      "img": "icons/svg/d20-black.svg",
      "weight": 5,
      "range": [84, 88],
      "drawn": false,
      "documentId": null,
      "documentCollection": ""
    },
    {
      "_id": "SzFLhSXBTEDWEKZE",
      "flags": {},
      "type": 0,
      "text": "Scroll of Symbol of Death",
      "img": "icons/svg/d20-black.svg",
      "weight": 7,
      "range": [89, 95],
      "drawn": false,
      "documentId": null,
      "documentCollection": ""
    },
    {
      "_id": "nlZiKmJDd7HSqxvM",
      "flags": {},
      "type": 0,
      "text": "Scroll of Symbol of Insanity",
      "img": "icons/svg/d20-black.svg",
      "weight": 5,
      "range": [96, 100],
      "drawn": false,
      "documentId": null,
      "documentCollection": ""
    }
  ],
  "formula": "1d100",
  "replacement": true,
  "displayRoll": true,
  "_id": "eFfS7VTnbmSRl9n2",
  "img": "icons/svg/d20-grey.svg",
  "sort": 0
}
