{
  "_id": "D990b7fgSno1y1sA",
  "name": "Hellbound Creature (Rebuild)",
  "type": "feat",
  "img": "systems/pf1/icons/skills/violet_07.jpg",
  "system": {
    "description": {
      "value": "<p><b>Acquired/Inherited Template</b> Acquired<br><b>Simple Template</b> Yes<br><b>Usable with Summons</b> No<p>Hellbound creatures have consigned their souls to Hell in exchange for infernal power. A hellbound creature’s Hit Dice determine what type of devil it can summon with its summon spell-like ability and the summon ability’s spell level. It can instead choose to summon 1d3 devils of the next weaker category, or 1d4+1 devils of two categories weaker.<p><b>Quick Rules:</b> Darkvision; see in darkness; +1 to AC; +1 on rolls based on Str and Cha; contract bound*; gore attack that deals 1d4 points of damage (for Medium creatures); summon (see table; 100%).<p><b>Rebuild Rules:</b> Senses darkvision, see in darkness; AC natural armor bonus increases by 1; Weaknesses contract bound*; Melee gore attack that deals 1d4 points of damage (for Medium creatures); Spell-like Abilities summon (see table; 100%); Ability Scores +2 Str, +2 Cha.</p>\n<p><b>Hellbound Summon</b></p>\n<hr>\n<table>\n<tbody>\n<tr>\n<td><b>Hellbound Creature HD</b></td>\n<td><b>Devil</b></td>\n<td><b>Spell Level</b></td>\n</tr>\n<tr>\n<td>8 or fewer</td>\n<td>Lemure</td>\n<td>2nd</td>\n</tr>\n<tr>\n<td>9-10</td>\n<td>Bearded devil</td>\n<td>5th</td>\n</tr>\n<tr>\n<td>11-12</td>\n<td>Erinyes</td>\n<td>6th</td>\n</tr>\n<tr>\n<td>13-14</td>\n<td>Bone devil</td>\n<td>7th</td>\n</tr>\n<tr>\n<td>15-16</td>\n<td>Barbed devil</td>\n<td>8th</td>\n</tr>\n<tr>\n<td>17 or more</td>\n<td>Ice devil</td>\n<td>9th</td>\n</tr>\n</tbody>\n</table>"
    },
    "changes": [
      {
        "_id": "vy9udlz7",
        "formula": "1",
        "subTarget": "nac",
        "modifier": "untyped"
      },
      {
        "_id": "vs6nfscc",
        "formula": "2",
        "subTarget": "str",
        "modifier": "untyped"
      },
      {
        "_id": "d0ua6web",
        "formula": "2",
        "subTarget": "cha",
        "modifier": "untyped"
      }
    ],
    "subType": "template",
    "crOffset": "1"
  }
}
