{
  "_id": "77gXSucrxfrE9yWk",
  "name": "Empower Spell",
  "type": "feat",
  "img": "systems/pf1/icons/feats/empower-spell.jpg",
  "system": {
    "description": {
      "value": "<i>You can increase the power of your spells, causing them to deal more damage.</i>\n<p><b>Benefits</b></p>\n<p>All variable, numeric effects of an empowered spell are increased by half, including bonuses to those dice rolls.</p><p>Saving throws and opposed rolls are not affected, nor are spells without random variables. An empowered spell uses up a spell slot two levels higher than the spell’s actual level.</p>"
    },
    "tags": ["Metamagic", "Magic"],
    "tag": "feat_empowerSpell",
    "useCustomTag": true
  }
}
