{
  "_id": "HMCAM3Zyo77kG8Yg",
  "name": "Far Shot",
  "type": "feat",
  "img": "systems/pf1/icons/feats/far-shot.jpg",
  "system": {
    "description": {
      "value": "<p><em>You are more accurate at longer ranges.</em><p><b>Prerequisites</b><br>Point-Blank Shot.<p><b>Benefits</b><br>You only suffer a -1 penalty per full range increment between you and your target when using a ranged weapon.<p><b>Normal</b><br>You suffer a -2 penalty per full range increment between you and your target.<p><b>Combat Trick</b><br>When making a single ranged attack as a standard action, you can spend 5 stamina points to ignore all range penalties on that attack.</p>\n<p>Usage: apply</p>"
    },
    "tags": ["PFS", "Combat"],
    "contextNotes": [
      {
        "subTarget": "rangedWeapon",
        "text": "Far Shot: decrease ranged penalties by half."
      }
    ],
    "tag": "feat_farShot",
    "useCustomTag": true
  }
}
