{
  "_id": "2aTFNMs3pW6nUBlr",
  "name": "Improved Unarmed Strike",
  "type": "feat",
  "img": "systems/pf1/icons/feats/improved-unarmed-strike.jpg",
  "system": {
    "description": {
      "value": "<i>You are skilled at fighting while unarmed.</i>\n<p><b>Benefits</b></p>\n<p>You are considered to be armed even when unarmed — you do not provoke attacks of opportunity when you attack foes while unarmed. Your unarmed strikes can deal lethal or nonlethal damage, at your choice.</p>\n<p><b>Normal</b></p>\n<p>Without this feat, you are considered unarmed when attacking with an unarmed strike, and you can deal only nonlethal damage with such an attack.</p>"
    },
    "tags": ["Combat", "Unarmed", "Offensive"],
    "tag": "feat_improvedUnarmedStrike",
    "useCustomTag": true
  }
}
