{
  "_id": "TbOPtIL8Fv8obXtP",
  "name": "Improved Critical",
  "type": "feat",
  "img": "systems/pf1/icons/feats/improved-critical.jpg",
  "system": {
    "description": {
      "value": "<i>Attacks made with your chosen weapon are quite deadly.</i>\n<p><b>Prerequisites</b></p>\n<p>Proficient with weapon, base attack bonus +8.</p>\n<p><b>Benefits</b></p>\n<p>When using the weapon you selected, your threat range is doubled.</p>\n<p><b>Special</b></p>\n<p>You can gain Improved Critical multiple times. The effects do not stack. Each time you take the feat, it applies to a new type of weapon.</p><p>This effect doesn't stack with any other effect that expands the threat range of a weapon.</p>"
    },
    "tags": ["Combat", "Critical", "Offensive"],
    "tag": "feat_improvedCritical",
    "useCustomTag": true
  }
}
