{
  "_id": "bXeW4kLCErPBFpNB",
  "name": "Run",
  "type": "feat",
  "img": "systems/pf1/icons/feats/run.jpg",
  "system": {
    "description": {
      "value": "<p><em>You are swift of foot.</em><p><b>Benefits</b><br>When running, you move five times your normal speed (if wearing medium, light, or no armor and carrying no more than a medium load) or four times your speed (if wearing heavy armor or carrying a heavy load). If you make a jump after a running start (see the Acrobatics skill description), you gain a +4 bonus on your Acrobatics check. While running, you retain your Dexterity bonus to your Armor Class.<p><b>Normal</b><br>You move four times your speed while running (if wearing medium, light, or no armor and carrying no more than a medium load) or three times your speed (if wearing heavy armor or carrying a heavy load), and you lose your Dexterity bonus to AC.</p>"
    },
    "tags": ["PFS", "General"],
    "contextNotes": [
      {
        "subTarget": "skill.acr",
        "text": "+[[4]] to jump after a running start"
      }
    ],
    "tag": "feat_run",
    "useCustomTag": true
  }
}
