{
  "_id": "yB4JlE2GC1MYlweS",
  "name": "Shield Master",
  "type": "feat",
  "img": "systems/pf1/icons/feats/shield-master.jpg",
  "system": {
    "description": {
      "value": "<i>Your mastery of the shield allows you to fight with it without hindrance.</i>\n<p><b>Prerequisites</b></p>\n<p>Improved Shield Bash, Shield Proficiency, Shield Slam, Two-Weapon Fighting, base attack bonus +11.</p>\n<p><b>Benefits</b></p>\n<p>You do not suffer any penalties on attack rolls made with a shield while you are wielding another weapon. Add your shield's enhancement bonus to attacks and damage rolls made with the shield as if it was a weapon enhancement bonus.</p>"
    },
    "tags": ["Combat", "Shield", "Offensive"],
    "tag": "feat_shieldMaster",
    "useCustomTag": true
  }
}
