{
  "_id": "WZj7zDvuelEoeXWX",
  "name": "Shield Proficiency",
  "type": "feat",
  "img": "systems/pf1/icons/items/armor/shield-light-metal.png",
  "system": {
    "description": {
      "value": "<em>You are trained in how to properly use a shield.</em><p><b>Benefits</b><br>When you use a shield (except a tower shield), the shield's armor check penalty only applies to Strength- and Dexterity-based skills.<p><b>Normal</b><br>When you are using a shield with which you are not proficient, you take the shield's armor check penalty on attack rolls and on all skill checks that involve moving.<p><b>Special</b><br>Barbarians, bards, clerics, druids, fighters, paladins, and rangers all automatically have Shield Proficiency as a bonus feat. They need not select it."
    },
    "tags": ["PFS", "Combat"],
    "tag": "feat_shieldProficiency",
    "useCustomTag": true,
    "armorProf": {
      "value": ["shl"]
    }
  }
}
