{
  "_id": "ugQyUpqPBDsqLyra",
  "name": "Spring Attack",
  "type": "feat",
  "img": "systems/pf1/icons/feats/spring-attack.jpg",
  "system": {
    "description": {
      "value": "<i>You can deftly move up to a foe, strike, and withdraw before he can react.</i>\n<p><b>Prerequisites</b></p>\n<p>Dex 13, Dodge, Mobility, base attack bonus +4.</p>\n<p><b>Benefits</b></p>\n<p>As a full-round action, you can move up to your speed and make a single melee attack without provoking any attacks of opportunity from the target of your attack. You can move both before and after the attack, but you must move at least 10 feet before the attack and the total distance that you move cannot be greater than your speed. You cannot use this ability to attack a foe that is adjacent to you at the start of your turn.</p>\n<p><b>Normal</b></p>\n<p>You cannot move before and after an attack.</p>"
    },
    "tags": ["Combat", "Offensive", "Movement"],
    "tag": "feat_springAttack",
    "useCustomTag": true
  }
}
