{
  "_id": "f5FPqAYWlKj3zCIY",
  "name": "Stealthy",
  "type": "feat",
  "img": "systems/pf1/icons/feats/stealthy.jpg",
  "system": {
    "description": {
      "value": "<i>You are good at avoiding unwanted attention and slipping out of bonds.</i>\n<p><b>Benefits</b></p>\n<p>You get a +2 bonus on all Escape Artist and Stealth skill checks. If you have 10 or more ranks in one of these skills, the bonus increases to +4 for that skill.</p>"
    },
    "tags": ["General", "Skill"],
    "changes": [
      {
        "_id": "sij49210",
        "formula": "@skills.ste.rank>=10?4:2",
        "subTarget": "skill.ste",
        "modifier": "untyped"
      },
      {
        "_id": "r8iwxuq0",
        "formula": "@skills.esc.rank>=10?4:2",
        "subTarget": "skill.esc",
        "modifier": "untyped"
      }
    ],
    "tag": "feat_stealthy",
    "useCustomTag": true
  }
}
