{
  "_id": "UnmST9BvRhxT4vq3",
  "name": "Whirlwind Attack",
  "type": "feat",
  "img": "systems/pf1/icons/feats/whirlwind-attack.jpg",
  "system": {
    "description": {
      "value": "<i>You can strike out at every foe within reach.</i>\n<p><b>Prerequisites</b></p>\n<p>Dex 13, Int 13, Combat Expertise, Dodge, Mobility, Spring Attack, base attack bonus +4.</p>\n<p><b>Benefits</b></p>\n<p>When you use the full-attack action, you can give up your regular attacks and instead make one melee attack at your highest base attack bonus against each opponent within reach. You must make a separate attack roll against each opponent.</p><p>When you use the Whirlwind Attack feat, you also forfeit any bonus or extra attacks granted by other feats, spells, or abilities.</p>"
    },
    "tags": ["Combat", "Offensive"],
    "tag": "feat_whirlwindAttack",
    "useCustomTag": true
  }
}
