{
  "_id": "ZnRc2qF1ZfpajxEe",
  "name": "Rougarou",
  "type": "race",
  "img": "systems/pf1/icons/races/creature-types/animal.png",
  "system": {
    "description": {
      "value": "<h2>Standard Racial Traits</h2><ul><li><strong>Ability Score Modifiers</strong>: +2 <em>Strength</em>, +2 <em>Wisdom</em>, –2 <em>Intelligence</em>. Rougarous are strong and alert, but simplistic.</li><li><strong>Type</strong>: Rougarou are <em>humanoids</em> with the <em>shapechanger</em> subtype.</li><li><strong>Size</strong>: Medium. Rougarous are Medium creatures.</li><li><strong>Base Speed</strong>: Rougarous have a base speed of 30 feet.</li><li><strong>Languages</strong>: Rougarous speak Common and their own racial language of Rougarou. Rougarous with high <em>Intelligence</em> scores can choose from these bonus languages: Aklo, Elven, Gnoll, Gnome, Goblin, or Sylvan.</li></ul><h3>Offensive Racial Traits</h3><ul><li><strong>Natural Weapon</strong>: Rougarous have a bite attack that deals 1d4 points of damage. This is a secondary attack if a rougarou wields a manufactured weapon.</li></ul><h3>Senses Racial Traits</h3><ul><li><strong>Senses</strong>: Rougarous have <em>low-light vision</em> and the <em>scent</em> special ability.</li></ul><h3>Other Racial Traits</h3><ul><li><strong>Change Shape (Su)</strong>: A rougarou can change shape once per day into a <em>wolf</em> as a <em>standard action</em>, as @Compendium[pf1.spells.tjdfluulncmqacc3]{beast shape I}. A rougarou can revert to its true form as a <em>swift action</em>.</li></ul>"
    },
    "tags": ["Bestiary"],
    "changes": [
      {
        "_id": "wcea60lv",
        "formula": "2",
        "subTarget": "str",
        "modifier": "racial"
      },
      {
        "_id": "8pbmvp3a",
        "formula": "2",
        "subTarget": "wis",
        "modifier": "racial"
      },
      {
        "_id": "ls8q001j",
        "formula": "-2",
        "subTarget": "int",
        "modifier": "racial"
      }
    ],
    "languages": {
      "value": ["common"],
      "custom": "Rougarou"
    },
    "subTypes": ["Shapechanger"]
  }
}
