{
  "_id": "vSOtYBySOG2Gt4Sb",
  "name": "Air Reservoir",
  "type": "loot",
  "img": "icons/containers/bags/coinpouch-leather-grey.webp",
  "system": {
    "description": {
      "value": "<p><b>Source</b> <em>Heroes of Golarion pg. 18</em></p><h3>Statistics</h3><p><b>Cost</b> 6 gp <b>Weight</b> -</p><p><b>Category</b> Ammunition; <b>Proficiency</b> Exotic</p><h3>Description</h3><p>A spare reservoir of compressed air comes with 6 pieces of ammunition to be used with an air repeater.</p>"
    },
    "price": 6,
    "equipped": false,
    "hp": {
      "max": 1,
      "value": 1
    },
    "hardness": 5,
    "tag": "airReservoir",
    "subType": "ammo",
    "extraType": "gunBullet"
  }
}
