{
  "_id": "QiOSpaHKL8KMYmvK",
  "name": "Blast Shot (Siege)",
  "type": "loot",
  "img": "icons/weapons/ammunition/shot-round-blue.webp",
  "system": {
    "description": {
      "value": "<p><b>Source</b> <em>Ultimate Combat pg. 164</em></p>\n<h3>Statistics</h3>\n<p><b>Cost</b> 30 gp <b>Weight</b> 25 lbs.</p>\n<p><b>Category</b> Ammunition; <b>Proficiency</b> Siege Engine</p>\n<h3>Description</h3>\n<p>Instead of a single hard ball, this ammunition is a bundle of large pellets, balls, or pieces of scrap metal, propelled a short distance by black powder and attacking all creatures and objects within an area. Both cannons and fiend's mouth cannons can fire this kind of ammunition.</p>\n<p>When such a siege engine fires this ammunition, it hits every creature and object within a <b>30-foot-cone burst</b>. The siege engine makes attack rolls against each creature and unattended object in the burst.</p>\n<h3>Mishap</h3>\n<p>It must miss every creature or target to misfire, and a misfire generates the normal effect. It deals its normal damage on a hit, but does not ignore the hardness of objects.</p>"
    },
    "weight": {
      "value": 25
    },
    "price": 30,
    "equipped": false,
    "hp": {
      "max": 1,
      "value": 1
    },
    "hardness": 5,
    "tag": "blastShotSiege",
    "subType": "ammo"
  }
}
