{
  "_id": "GbstglnVnDh9wzuA",
  "name": "Butterfly Sword",
  "type": "weapon",
  "img": "systems/pf1/icons/items/weapons/butterfly-knife.PNG",
  "system": {
    "description": {
      "value": "<p><b>Source</b> <em>Ultimate Equipment pg. 18</em>, <em>Ultimate Combat pg. 130</em></p><h3><span title=\"PFS Legal\">[PFS]</span> Statistics</h3><p><b>Cost</b> 20 gp <b>Weight</b> 1 lb.</p><p><b>Damage</b> 1d3 (small), 1d4 (medium); <b>Critical</b> 19-20/x2; <b>Range</b> -; <b>Type</b> S; <b>Special</b> monk</p><p><b>Category</b> Light; <b>Proficiency</b> Martial</p><p><b>Weapon Groups</b> Blades, Light; Monk</p><h3>Description</h3><p>These short matching swords come in pairs, cleverly nested together to appear as a single blade. Both weapons can be drawn at the same time, and they can be separated as a free action and wielded in both hands to make wickedly effective chops and slashes. Their thin, broad blades extend just 1 foot in length. A butterfly sword has a hardwood grip covered with braided cord, and a metal D-shaped guard to protect the wielder's hand. The listed price is for a pair of butterfly swords. Masterwork butterfly swords cost 320 gp for the pair. If you add magical enhancement bonuses or properties to a butterfly sword, treat each sword in the pair as a separate weapon (for example, adding a +1 magical enhancement bonus to a pair of masterwork butterfly swords costs 4,000 gp).</p>"
    },
    "tags": ["Butterfly Sword"],
    "weight": {
      "value": 1
    },
    "price": 20,
    "hp": {
      "max": 2,
      "value": 2
    },
    "hardness": 10,
    "actions": [
      {
        "_id": "8qarf2fjk64qo2q1",
        "name": "Attack",
        "img": "systems/pf1/icons/items/weapons/butterfly-knife.PNG",
        "activation": {
          "type": "attack"
        },
        "duration": {
          "units": "inst"
        },
        "range": {
          "value": "0",
          "units": "melee"
        },
        "actionType": "mwak",
        "damage": {
          "parts": [
            {
              "formula": "sizeRoll(1, 4, @size)",
              "type": {
                "values": ["slashing"],
                "custom": ""
              }
            }
          ]
        },
        "formulaicAttacks": {
          "count": {
            "formula": "min(3, ceil(@attributes.bab.total / 5) - 1)"
          },
          "bonus": {
            "formula": "@formulaicAttack * -5"
          }
        },
        "ability": {
          "attack": "str",
          "damage": "str",
          "critRange": 19
        }
      }
    ],
    "tag": "butterflySword",
    "weaponGroups": {
      "value": ["bladesLight", "monk"]
    },
    "subType": "martial",
    "properties": {
      "mnk": true
    }
  }
}
