{
  "_id": "GlbFk7TosnBKkr8d",
  "name": "Coat Pistol",
  "type": "weapon",
  "img": "icons/weapons/guns/gun-pistol-wood.webp",
  "system": {
    "description": {
      "value": "<p><b>Source</b> <em>Ultimate Equipment pg. 43</em>, <em>Ultimate Combat pg. 139</em></p>\n<h3><span class=\"pfs-conditional\" title=\"No character may purchase a firearm unless she possesses the Gunsmithing feat and firearms are never considered Always Available\">[PFS]</span> Statistics</h3>\n<p><b>Cost</b> 750 gp <b>Weight</b> 1 lb.</p>\n<p><b>Damage</b> 1d3 (small), 1d4 (medium); <b>Critical</b> x3; <b>Range</b> 10 ft.; <b>Type</b> B and P; <b>Special</b> -</p>\n<p><b>Misfire</b> 1 (5 ft.); <b>Capacity</b> 1</p>\n<p><b>Category</b> One-Handed; <b>Proficiency</b> Exotic</p>\n<h3>Description</h3>\n<p>Though less powerful than other, larger firearms, this pistol is small enough to be easily concealed in a jacket or coat. You get a +2 bonus on Sleight of Hand checks made to conceal a coat pistol on your body. A coat pistol uses either a bullet and 1 dose of black powder or a single alchemical cartridge as ammunition.</p>\n<p><b>This is an early firearm.</b></p>"
    },
    "tags": ["Coat Pistol"],
    "weight": {
      "value": 1
    },
    "price": 750,
    "hardness": 10,
    "actions": [
      {
        "_id": "koiicsqypkk1l4zr",
        "name": "Attack",
        "img": "icons/weapons/guns/gun-pistol-wood.webp",
        "activation": {
          "type": "attack"
        },
        "duration": {
          "units": "inst"
        },
        "range": {
          "value": "10",
          "units": "ft",
          "maxIncrements": 10
        },
        "actionType": "rwak",
        "damage": {
          "parts": [
            {
              "formula": "sizeRoll(1, 4, @size)",
              "type": {
                "values": ["bludgeoning", "piercing"],
                "custom": ""
              }
            }
          ]
        },
        "formulaicAttacks": {
          "count": {
            "formula": "min(3, ceil(@attributes.bab.total / 5) - 1)"
          },
          "bonus": {
            "formula": "@formulaicAttack * -5"
          },
          "label": ""
        },
        "ability": {
          "attack": "dex",
          "critMult": 3
        },
        "usesAmmo": true
      }
    ],
    "tag": "coatPistol",
    "weaponGroups": {
      "value": ["firearms"]
    },
    "subType": "exotic",
    "weaponSubtype": "ranged",
    "ammoType": "gunBullet"
  }
}
