{
  "_id": "ZGnp5XXy2PPIW3GS",
  "name": "Collapsible Kumade",
  "type": "weapon",
  "img": "systems/pf1/icons/items/weapons/kumade.png",
  "system": {
    "description": {
      "value": "<p><b>Source</b> <em>Melee Tactics Toolbox pg. 19</em></p><h3><span title=\"PFS Legal\">[PFS]</span> Statistics</h3><p><b>Cost</b> 10 gp <b>Weight</b> 4 lbs.</p><p><b>Damage</b> 1d4 (small), 1d6 (medium); <b>Critical</b> x3; <b>Range</b> -; <b>Type</b> P; <b>Special</b> grapple</p><p><b>Category</b> Two-Handed; <b>Proficiency</b> Simple</p><p><b>Weapon Groups</b> Axes</p><h3>Description</h3><p>This weapon acts as a kumade, but the handle consists of bamboo sections held together by a taut rope running through the center. Releasing the rope is a standard action that provokes attacks of opportunity and causes the weapon to collapse into a bundle that fits into a backpack. Reassembling the collapsible kumade requires a full-round action that provokes attacks of opportunity.</p>"
    },
    "tags": ["Collapsible Kumade"],
    "weight": {
      "value": 4
    },
    "price": 10,
    "hardness": 10,
    "actions": [
      {
        "_id": "512witdsr2tbbs3k",
        "name": "Attack",
        "img": "systems/pf1/icons/items/weapons/kumade.png",
        "activation": {
          "type": "attack"
        },
        "duration": {
          "units": "inst"
        },
        "range": {
          "value": "0",
          "units": "melee"
        },
        "actionType": "mwak",
        "damage": {
          "parts": [
            {
              "formula": "sizeRoll(1, 6, @size)",
              "type": {
                "values": ["piercing"],
                "custom": ""
              }
            }
          ]
        },
        "formulaicAttacks": {
          "count": {
            "formula": "min(3, ceil(@attributes.bab.total / 5) - 1)"
          },
          "bonus": {
            "formula": "@formulaicAttack * -5"
          }
        },
        "ability": {
          "attack": "str",
          "damage": "str",
          "damageMult": 1.5,
          "critMult": 3
        }
      }
    ],
    "tag": "collapsibleKumade",
    "held": "2h",
    "weaponGroups": {
      "value": ["axes"]
    },
    "weaponSubtype": "2h",
    "properties": {
      "grp": true
    }
  }
}
