{
  "_id": "P2YUScSoUD60dab5",
  "name": "Deer Horn Knife",
  "type": "weapon",
  "img": "systems/pf1/icons/items/weapons/knife-deer-horn.png",
  "system": {
    "description": {
      "value": "<p><b>Source</b> <em>Melee Tactics Toolbox pg. 19</em></p><h3><span title=\"PFS Legal\">[PFS]</span> Statistics</h3><p><b>Cost</b> 10 gp <b>Weight</b> 3 lbs.</p><p><b>Damage</b> 1d3 (small), 1d4 (medium); <b>Critical</b> x3; <b>Range</b> 20 ft.; <b>Type</b> P; <b>Special</b> blocking, monk</p><p><b>Category</b> Light; <b>Proficiency</b> Exotic</p><p><b>Weapon Groups</b> Blades, Light; Monk; Thrown</p><h3>Description</h3><p>This flat, metal weapon consists of two joined crescent-shaped blades overlapping to form a hollow center with four projecting points. The blades can differ in length. One side of the center is wrapped to serve as a grip while the other acts as a guard. Deer horn knives are traditionally used in pairs.</p>"
    },
    "tags": ["Deer Horn Knife"],
    "weight": {
      "value": 3
    },
    "price": 10,
    "hp": {
      "max": 2,
      "value": 2
    },
    "hardness": 10,
    "actions": [
      {
        "_id": "gqi658oq20oqhfus",
        "name": "Attack",
        "img": "systems/pf1/icons/items/weapons/knife-deer-horn.png",
        "activation": {
          "type": "attack"
        },
        "duration": {
          "units": "inst"
        },
        "range": {
          "value": "20",
          "units": "melee"
        },
        "actionType": "mwak",
        "damage": {
          "parts": [
            {
              "formula": "sizeRoll(1, 4, @size)",
              "type": {
                "values": ["piercing"],
                "custom": ""
              }
            }
          ]
        },
        "formulaicAttacks": {
          "count": {
            "formula": "min(3, ceil(@attributes.bab.total / 5) - 1)"
          },
          "bonus": {
            "formula": "@formulaicAttack * -5"
          }
        },
        "ability": {
          "attack": "str",
          "damage": "str",
          "critRange": null,
          "critMult": 3
        }
      }
    ],
    "tag": "deerHornKnife",
    "weaponGroups": {
      "value": ["bladesLight", "monk", "thrown"]
    },
    "subType": "exotic",
    "properties": {
      "blc": true,
      "mnk": true
    }
  }
}
