{
  "_id": "igwRYyXsVoDgIPSi",
  "name": "Dogslicer",
  "type": "weapon",
  "img": "systems/pf1/icons/items/weapons/dogslicer.png",
  "system": {
    "description": {
      "value": "<p><b>Source</b> <em>Ultimate Equipment pg. 18</em>, <em>Rise of the Runelords Player's Guide pg. 11</em>, <em>Pathfinder Campaign Setting pg. 209</em>, <em>Inner Sea World Guide pg. 290</em>, <em>Adventurer's Armory pg. 0</em>, <em>Advanced Race Guide pg. 117</em></p><h3><span title=\"PFS Legal\">[PFS]</span> Statistics</h3><p><b>Cost</b> 8 gp <b>Weight</b> 1 lb.</p><p><b>Damage</b> 1d4 (small), 1d6 (medium); <b>Critical</b> 19-20/x2; <b>Range</b> -; <b>Type</b> S; <b>Special</b> fragile</p><p><b>Category</b> Light; <b>Proficiency</b> Martial</p><p><b>Weapon Groups</b> Blades, Light</p><h3>Description</h3><p>This short, curved blade was created by goblins, who often drill numerous holes into it in an attempt to reduce its weight. Most dogslicers are sized for Small creatures.</p>"
    },
    "tags": ["Dogslicer"],
    "weight": {
      "value": 1
    },
    "price": 8,
    "hp": {
      "max": 2,
      "value": 2
    },
    "hardness": 10,
    "actions": [
      {
        "_id": "jg4rm349amg6h79w",
        "name": "Attack",
        "img": "systems/pf1/icons/items/weapons/dogslicer.png",
        "activation": {
          "type": "attack"
        },
        "duration": {
          "units": "inst"
        },
        "range": {
          "value": "0",
          "units": "melee"
        },
        "actionType": "mwak",
        "damage": {
          "parts": [
            {
              "formula": "sizeRoll(1, 6, @size)",
              "type": {
                "values": ["slashing"],
                "custom": ""
              }
            }
          ]
        },
        "formulaicAttacks": {
          "count": {
            "formula": "min(3, ceil(@attributes.bab.total / 5) - 1)"
          },
          "bonus": {
            "formula": "@formulaicAttack * -5"
          }
        },
        "ability": {
          "attack": "str",
          "damage": "str",
          "critRange": 19
        }
      }
    ],
    "tag": "dogslicer",
    "weaponGroups": {
      "value": ["bladesLight"]
    },
    "subType": "martial",
    "properties": {
      "frg": true
    }
  }
}
