{
  "_id": "KAKysOTelOMG5c7U",
  "name": "Dwarven Light Pelletbow",
  "type": "weapon",
  "img": "systems/pf1/icons/items/weapons/dwarven-pelletbow.PNG",
  "system": {
    "description": {
      "value": "<p><b>Source</b> <em>Heroes from the Fringe pg. 8</em></p><h3>Statistics</h3><p><b>Cost</b> 50 gp <b>Weight</b> 4 lbs.</p><p><b>Damage</b> 1d3 (small), 1d4 (medium); <b>Critical</b> 19-20/x3; <b>Range</b> 40 ft.; <b>Type</b> B; <b>Special</b> -</p><p><b>Category</b> Ranged; <b>Proficiency</b> Exotic</p><p><b>Weapon Groups</b> Crossbows</p><h3>Description</h3><p>The dwarven pelletbow is a crossbowlike weapon that is loaded with and fires sling bullets rather than bolts. A dwarven heavy pelletbow takes the same amount of time and effort to load as a light crossbow (normally a move action), and a dwarven light pelletbow can be reloaded as a free action (allowing characters to attack with it multiple times in a round). Normally a pelletbow takes two hands to operate, but you can shoot (but not load) a pelletbow with one hand by taking a -2 penalty on attack rolls. You can shoot one pelletbow with each hand, but you take a penalty on attack rolls for attacking with two weapons (treating the heavy pelletbow as a one-handed weapon and the light pelletbow as a light weapon).</p><p>Feats and special abilities that don't involve proficiency (that don't depend on dealing piercing damage or firing bolts) that apply to a heavy crossbow also apply to a dwarven heavy pelletbow, and those that apply to a light crossbow also apply to a dwarven light pelletbow.</p>"
    },
    "tags": ["Dwarven Light Pelletbow", "Dwarven", "Light Crossbow"],
    "weight": {
      "value": 4
    },
    "price": 50,
    "hp": {
      "max": 5,
      "value": 5
    },
    "hardness": 5,
    "actions": [
      {
        "_id": "w5dw08jiqrpnw47q",
        "name": "Attack",
        "img": "systems/pf1/icons/items/weapons/dwarven-pelletbow.PNG",
        "activation": {
          "type": "attack"
        },
        "duration": {
          "units": "inst"
        },
        "range": {
          "value": "40",
          "units": "ft"
        },
        "actionType": "rwak",
        "damage": {
          "parts": [
            {
              "formula": "sizeRoll(1, 4, @size)",
              "type": {
                "values": ["bludgeoning"],
                "custom": ""
              }
            }
          ]
        },
        "formulaicAttacks": {
          "count": {
            "formula": "min(3, ceil(@attributes.bab.total / 5) - 1)"
          },
          "bonus": {
            "formula": "@formulaicAttack * -5"
          },
          "label": ""
        },
        "ability": {
          "attack": "dex",
          "critRange": 19,
          "critMult": 3
        },
        "usesAmmo": true
      }
    ],
    "tag": "dwarvenLightPelletbow",
    "weaponGroups": {
      "value": ["crossbows"]
    },
    "subType": "exotic",
    "weaponSubtype": "ranged",
    "ammoType": "slingBullet"
  }
}
