{
  "_id": "ZDzIeyL6Zc9M6xq5",
  "name": "Dwarven Maulaxe",
  "type": "weapon",
  "img": "systems/pf1/icons/items/weapons/maulaxe-dwarven.png",
  "system": {
    "description": {
      "value": "<p><b>Source</b> <em>Adventurer's Armory pg. 3</em>, <em>Pathfinder Campaign Setting pg. 209</em></p><h3><span title=\"PFS Legal\">[PFS]</span> Statistics</h3><p><b>Cost</b> 25 gp <b>Weight</b> 5 lbs.</p><p><b>Damage</b> 1d4 (small), 1d6 (medium); <b>Critical</b> x3; <b>Range</b> 10 ft.; <b>Type</b> B or S; <b>Special</b> -</p><p><b>Category</b> Light; <b>Proficiency</b> Exotic</p><h3>Description</h3><p>This versatile weapon looks like a heavy-headed axe, but a proficient wielder can use the blunt back of the head to deal bludgeoning damage.</p>"
    },
    "tags": ["Dwarven Maulaxe", "Dwarven"],
    "weight": {
      "value": 5
    },
    "price": 25,
    "hp": {
      "max": 2,
      "value": 2
    },
    "hardness": 10,
    "actions": [
      {
        "_id": "s8q5zoaruakbioe4",
        "name": "Attack",
        "img": "systems/pf1/icons/items/weapons/maulaxe-dwarven.png",
        "activation": {
          "type": "attack"
        },
        "duration": {
          "units": "inst"
        },
        "range": {
          "value": "10",
          "units": "melee"
        },
        "actionType": "mwak",
        "damage": {
          "parts": [
            {
              "formula": "sizeRoll(1, 6, @size)",
              "type": {
                "values": ["bludgeoning", "slashing"],
                "custom": ""
              }
            }
          ]
        },
        "formulaicAttacks": {
          "count": {
            "formula": "min(3, ceil(@attributes.bab.total / 5) - 1)"
          },
          "bonus": {
            "formula": "@formulaicAttack * -5"
          }
        },
        "ability": {
          "attack": "str",
          "damage": "str",
          "critMult": 3
        }
      }
    ],
    "tag": "dwarvenMaulaxe",
    "weaponGroups": {
      "value": ["axes", "hammers"]
    },
    "subType": "exotic"
  }
}
