{
  "_id": "cfxzk6zSmOMMVoOo",
  "name": "Flask Pike",
  "type": "weapon",
  "img": "systems/pf1/icons/items/weapons/boarding-pike.png",
  "system": {
    "description": {
      "value": "<p><b>Source</b> <em>Giant Hunter's Handbook pg. 24</em></p><h3><span title=\"PFS Legal\">[PFS]</span> Statistics</h3><p><b>Cost</b> 30 gp <b>Weight</b> 9 lbs.</p><p><b>Damage</b> 1d6 (small), 1d8 (medium); <b>Critical</b> x3; <b>Range</b> -; <b>Type</b> P; <b>Special</b> reach, see text</p><p><b>Category</b> Two-Handed; <b>Proficiency</b> Exotic</p><h3>Description</h3><p>This pike has a hollow spot near its tip into which a flask can be strapped. If the flask is filled with an alchemical splash weapon and you hit a creature with the pike, the target is also hit with the splash weapon. This uses up the contents of the flask. Because of the added weight of a flask, attacks with the flask pike take a -2 penalty when it's loaded with one. Reloading the flask pike is a full-round action that provokes attacks of opportunity.</p>"
    },
    "tags": ["Flask Pike"],
    "weight": {
      "value": 9
    },
    "price": 30,
    "hardness": 10,
    "actions": [
      {
        "_id": "p1ft7jzcgoiknmmw",
        "name": "Attack",
        "img": "systems/pf1/icons/items/weapons/boarding-pike.png",
        "activation": {
          "type": "attack"
        },
        "duration": {
          "units": "inst"
        },
        "range": {
          "value": "0",
          "units": "melee"
        },
        "actionType": "mwak",
        "damage": {
          "parts": [
            {
              "formula": "sizeRoll(1, 8, @size)",
              "type": {
                "values": ["piercing"],
                "custom": ""
              }
            }
          ]
        },
        "formulaicAttacks": {
          "count": {
            "formula": "min(3, ceil(@attributes.bab.total / 5) - 1)"
          },
          "bonus": {
            "formula": "@formulaicAttack * -5"
          }
        },
        "ability": {
          "attack": "str",
          "damage": "str",
          "damageMult": 1.5,
          "critMult": 3
        }
      }
    ],
    "tag": "flaskPike",
    "held": "2h",
    "weaponGroups": {
      "value": ["spears"]
    },
    "subType": "exotic",
    "weaponSubtype": "2h",
    "properties": {
      "rch": true,
      "spc": true
    }
  }
}
