{
  "_id": "fENJ0EkHVeYGWOji",
  "name": "Flindbar",
  "type": "weapon",
  "img": "systems/pf1/icons/items/weapons/flindbar.png",
  "system": {
    "description": {
      "value": "<p><b>Source</b> <em>Monster Codex pg. 93</em>, <em>Classic Monsters Revisited pg. 14</em></p><h3>Statistics</h3><p><b>Cost</b> 9 gp <b>Weight</b> 6 lbs.</p><p><b>Damage</b> 1d6 (small), 1d8 (medium); <b>Critical</b> x2; <b>Range</b> -; <b>Type</b> B and P; <b>Special</b> disarm, trip</p><p><b>Category</b> One-Handed; <b>Proficiency</b> Exotic</p><h3>Description</h3><p>This one-handed weapon is similar to a nunchaku in that it consists of a pair of bars linked with heavy chain. However, a flindbar's bars are made of iron and are capped with a ring of spikes or studs. Since it's much heaver than a nunchaku, it is not a light weapon.</p>"
    },
    "tags": ["Flindbar"],
    "weight": {
      "value": 6
    },
    "price": 9,
    "hp": {
      "max": 5,
      "value": 5
    },
    "hardness": 10,
    "actions": [
      {
        "_id": "pnsr228xbyahnzrb",
        "name": "Attack",
        "img": "systems/pf1/icons/items/weapons/flindbar.png",
        "activation": {
          "type": "attack"
        },
        "duration": {
          "units": "inst"
        },
        "range": {
          "value": "0",
          "units": "melee"
        },
        "actionType": "mwak",
        "damage": {
          "parts": [
            {
              "formula": "sizeRoll(1, 8, @size)",
              "type": {
                "values": ["bludgeoning", "piercing"],
                "custom": ""
              }
            }
          ]
        },
        "formulaicAttacks": {
          "count": {
            "formula": "min(3, ceil(@attributes.bab.total / 5) - 1)"
          },
          "bonus": {
            "formula": "@formulaicAttack * -5"
          }
        },
        "ability": {
          "attack": "str",
          "damage": "str"
        }
      }
    ],
    "tag": "flindbar",
    "weaponGroups": {
      "value": ["flails"]
    },
    "subType": "exotic",
    "weaponSubtype": "1h",
    "properties": {
      "dis": true,
      "trp": true
    }
  }
}
