{
  "_id": "K7RqtYrhq2iAlgP0",
  "name": "Gandasa",
  "type": "weapon",
  "img": "systems/pf1/icons/items/weapons/gandasa.png",
  "system": {
    "description": {
      "value": "<p><b>Source</b> <em>Melee Tactics Toolbox pg. 19</em></p><h3><span title=\"PFS Legal\">[PFS]</span> Statistics</h3><p><b>Cost</b> 15 gp <b>Weight</b> 4 lbs.</p><p><b>Damage</b> 1d6 (small), 2d4 (medium); <b>Critical</b> x3; <b>Range</b> -; <b>Type</b> S; <b>Special</b> -</p><p><b>Category</b> One-Handed; <b>Proficiency</b> Martial</p><p><b>Weapon Groups</b> Axes</p><h3>Description</h3><p>A gandasa is a wide, single-edged dagger on a 2-foot handle and is wielded in combat like an axe. This weapon is also known as an elephant knife because the connection between the blade and the handle is often decorated to resemble a stylized elephant head.</p>"
    },
    "tags": ["Gandasa"],
    "weight": {
      "value": 4
    },
    "price": 15,
    "hp": {
      "max": 5,
      "value": 5
    },
    "hardness": 10,
    "actions": [
      {
        "_id": "ddbio7lardqpxo96",
        "name": "Attack",
        "img": "systems/pf1/icons/items/weapons/gandasa.png",
        "activation": {
          "type": "attack"
        },
        "duration": {
          "units": "inst"
        },
        "range": {
          "value": "0",
          "units": "melee"
        },
        "actionType": "mwak",
        "damage": {
          "parts": [
            {
              "formula": "sizeRoll(2, 4, @size)",
              "type": {
                "values": ["slashing"],
                "custom": ""
              }
            }
          ]
        },
        "formulaicAttacks": {
          "count": {
            "formula": "min(3, ceil(@attributes.bab.total / 5) - 1)"
          },
          "bonus": {
            "formula": "@formulaicAttack * -5"
          }
        },
        "ability": {
          "attack": "str",
          "damage": "str",
          "critMult": 3
        }
      }
    ],
    "tag": "gandasa",
    "weaponGroups": {
      "value": ["axes"]
    },
    "subType": "martial",
    "weaponSubtype": "1h"
  }
}
