{
  "_id": "5qS9De0NqbisLTCS",
  "name": "Great Terbutje",
  "type": "weapon",
  "img": "icons/weapons/clubs/club-barbed-square-black.webp",
  "system": {
    "description": {
      "value": "<p><b>Source</b> <em>Ultimate Equipment pg. 20</em></p><h3><span title=\"PFS Legal\">[PFS]</span> Statistics</h3><p><b>Cost</b> 12 gp <b>Weight</b> 4 lbs.</p><p><b>Damage</b> 1d8 (small), 1d10 (medium); <b>Critical</b> 19-20/x2; <b>Range</b> -; <b>Type</b> S; <b>Special</b> fragile</p><p><b>Category</b> One-Handed; <b>Proficiency</b> Exotic</p><p><b>Weapon Groups</b> Blades, Heavy</p><h3>Description</h3><p>This Stone Age weapon is a 4-foot-long version of the terbutje. It is too large to use in one hand without special training; thus, it is an exotic weapon. You can use a great terbutje twohanded as a martial weapon.</p>"
    },
    "tags": ["Great Terbutje"],
    "weight": {
      "value": 4
    },
    "price": 12,
    "hp": {
      "max": 5,
      "value": 5
    },
    "hardness": 10,
    "actions": [
      {
        "_id": "vhsdbegmzggjt4sh",
        "name": "Attack",
        "img": "icons/weapons/clubs/club-barbed-square-black.webp",
        "activation": {
          "type": "attack"
        },
        "duration": {
          "units": "inst"
        },
        "range": {
          "value": "0",
          "units": "melee"
        },
        "actionType": "mwak",
        "damage": {
          "parts": [
            {
              "formula": "sizeRoll(1, 10, @size)",
              "type": {
                "values": ["slashing"],
                "custom": ""
              }
            }
          ]
        },
        "formulaicAttacks": {
          "count": {
            "formula": "min(3, ceil(@attributes.bab.total / 5) - 1)"
          },
          "bonus": {
            "formula": "@formulaicAttack * -5"
          }
        },
        "ability": {
          "attack": "str",
          "damage": "str",
          "critRange": 19
        }
      }
    ],
    "tag": "greatTerbutje",
    "weaponGroups": {
      "value": ["bladesHeavy"]
    },
    "subType": "exotic",
    "weaponSubtype": "1h",
    "properties": {
      "frg": true
    }
  }
}
