{
  "_id": "A5vVmquTp0vGXWlA",
  "name": "Groaning Bullet",
  "type": "loot",
  "img": "icons/weapons/ammunition/shot-round-blue.webp",
  "system": {
    "description": {
      "value": "<p><b>Source</b> <em>Adventurer's Armory pg. 3</em></p>\n<h3><span title=\"PFS Legal\">[PFS]</span> Statistics</h3>\n<p><b>Cost</b> 2 gp <b>Weight</b> 5 lbs.</p>\n<p><b>Category</b> Ammunition; <b>Proficiency</b> Ammunition</p>\n<h3>Description</h3>\n<p>These sling bullets are honeycombed with overlapping perforations that cause them to emit an eerie moan audible within 500 feet of their flight path.</p>"
    },
    "quantity": 10,
    "weight": {
      "value": 0.5
    },
    "price": 0.2,
    "equipped": false,
    "hp": {
      "max": 1,
      "value": 1
    },
    "hardness": 5,
    "tag": "groaningBullets10",
    "subType": "ammo",
    "extraType": "slingBullet"
  }
}
