{
  "_id": "vqF4kshibBDN624D",
  "name": "Heavy Crossbow",
  "type": "weapon",
  "img": "systems/pf1/icons/items/weapons/crossbow-heavy.PNG",
  "system": {
    "description": {
      "value": "<p><b>Source</b> <em>Ranged Tactics Toolbox pg. 0</em>, <em>PRPG Core Rulebook pg. 142</em>, <em>Ultimate Equipment pg. 17</em></p><h3><span title=\"PFS Legal\">[PFS]</span> Statistics</h3><p><b>Cost</b> 50 gp <b>Weight</b> 8 lbs.</p><p><b>Damage</b> 1d8 (small), 1d10 (medium); <b>Critical</b> 19-20/x2; <b>Range</b> 120 ft.; <b>Type</b> P; <b>Special</b> -</p><p><b>Category</b> Ranged; <b>Proficiency</b> Simple</p><p><b>Weapon Groups</b> Crossbows</p><h3>Description</h3><p>You draw a heavy crossbow back by turning a small winch. Loading a heavy crossbow is a full-round action that provokes attacks of opportunity. A heavy crossbow fires crossbow bolts.</p><p>Normally, operating a heavy crossbow requires two hands. However, you can shoot, but not load, a heavy crossbow with one hand at a -4 penalty on attack rolls. You can shoot a heavy crossbow with each hand, but you take a penalty on attack rolls as if attacking with two one-handed weapons. This penalty is cumulative with the penalty for one-handed firing.</p>"
    },
    "tags": ["Heavy Crossbow"],
    "weight": {
      "value": 8
    },
    "price": 50,
    "hp": {
      "max": 5,
      "value": 5
    },
    "hardness": 5,
    "actions": [
      {
        "_id": "of1tefbsu4rw5zgh",
        "name": "Attack",
        "img": "systems/pf1/icons/items/weapons/crossbow-heavy.PNG",
        "activation": {
          "type": "attack"
        },
        "duration": {
          "units": "inst"
        },
        "range": {
          "value": "120",
          "units": "ft"
        },
        "actionType": "rwak",
        "damage": {
          "parts": [
            {
              "formula": "sizeRoll(1, 10, @size)",
              "type": {
                "values": ["piercing"],
                "custom": ""
              }
            }
          ]
        },
        "formulaicAttacks": {
          "count": {
            "formula": "min(3, ceil(@attributes.bab.total / 5) - 1)"
          },
          "bonus": {
            "formula": "@formulaicAttack * -5"
          },
          "label": ""
        },
        "ability": {
          "attack": "dex",
          "critRange": 19
        },
        "usesAmmo": true
      }
    ],
    "tag": "heavyCrossbow",
    "weaponGroups": {
      "value": ["crossbows"]
    },
    "weaponSubtype": "ranged",
    "ammoType": "bolt"
  }
}
