{
  "_id": "Vh5O2NapyCHRzosU",
  "name": "Heavy Pick",
  "type": "weapon",
  "img": "systems/pf1/icons/items/weapons/pick-heavy.png",
  "system": {
    "description": {
      "value": "<p><b>Source</b> <em>Ultimate Equipment pg. 18</em>, <em>PRPG Core Rulebook pg. 142</em></p><h3><span title=\"PFS Legal\">[PFS]</span> Statistics</h3><p><b>Cost</b> 8 gp <b>Weight</b> 6 lbs.</p><p><b>Damage</b> 1d4 (small), 1d6 (medium); <b>Critical</b> x4; <b>Range</b> -; <b>Type</b> P; <b>Special</b> -</p><p><b>Category</b> One-Handed; <b>Proficiency</b> Martial</p><p><b>Weapon Groups</b> Axes</p><h3>Description</h3><p>This variant of the light pick has a longer handle and can be used with one or two hands. It is a common, inexpensive weapon for mounted soldiers since it can be used effectively from horseback.</p>"
    },
    "tags": ["Heavy Pick"],
    "weight": {
      "value": 6
    },
    "price": 8,
    "hp": {
      "max": 5,
      "value": 5
    },
    "hardness": 10,
    "actions": [
      {
        "_id": "ilxdvt30dnsa4n07",
        "name": "Attack",
        "img": "systems/pf1/icons/items/weapons/pick-heavy.png",
        "activation": {
          "type": "attack"
        },
        "duration": {
          "units": "inst"
        },
        "range": {
          "value": "0",
          "units": "melee"
        },
        "actionType": "mwak",
        "damage": {
          "parts": [
            {
              "formula": "sizeRoll(1, 6, @size)",
              "type": {
                "values": ["piercing"],
                "custom": ""
              }
            }
          ]
        },
        "formulaicAttacks": {
          "count": {
            "formula": "min(3, ceil(@attributes.bab.total / 5) - 1)"
          },
          "bonus": {
            "formula": "@formulaicAttack * -5"
          }
        },
        "ability": {
          "attack": "str",
          "damage": "str",
          "critMult": 4
        }
      }
    ],
    "tag": "heavyPick",
    "weaponGroups": {
      "value": ["axes"]
    },
    "subType": "martial",
    "weaponSubtype": "1h"
  }
}
