{
  "_id": "XkWvIAhFMzakFssS",
  "name": "Kasatha Spinal Sword",
  "type": "weapon",
  "img": "icons/weapons/swords/sword-guard-flanged.webp",
  "system": {
    "description": {
      "value": "<p><b>Source</b> <em>People of the Stars pg. 9</em></p><h3>Statistics</h3><p><b>Cost</b> 50 gp <b>Weight</b> 3 lbs.</p><p><b>Damage</b> 1d4 (small), 1d6 (medium); <b>Critical</b> x3; <b>Range</b> -; <b>Type</b> P or S; <b>Special</b> fragile</p><p><b>Category</b> Light; <b>Proficiency</b> Exotic</p><h3>Description</h3><p>This light one-handed sword is covered in bony spines that make it easier to poison opponents. The save DC of a nonmagical injury poison applied to a kasatha spinal sword increases by 2. Kasathas treat kasatha spinal swords as martial weapons.</p>"
    },
    "tags": ["Kasatha Spinal Sword"],
    "weight": {
      "value": 3
    },
    "price": 50,
    "hp": {
      "max": 2,
      "value": 2
    },
    "hardness": 10,
    "actions": [
      {
        "_id": "nfeansb2ns1citoh",
        "name": "Attack",
        "img": "icons/weapons/swords/sword-guard-flanged.webp",
        "activation": {
          "type": "attack"
        },
        "duration": {
          "units": "inst"
        },
        "range": {
          "value": "0",
          "units": "melee"
        },
        "actionType": "mwak",
        "damage": {
          "parts": [
            {
              "formula": "sizeRoll(1, 6, @size)",
              "type": {
                "values": ["piercing", "slashing"],
                "custom": ""
              }
            }
          ]
        },
        "formulaicAttacks": {
          "count": {
            "formula": "min(3, ceil(@attributes.bab.total / 5) - 1)"
          },
          "bonus": {
            "formula": "@formulaicAttack * -5"
          }
        },
        "ability": {
          "attack": "str",
          "damage": "str",
          "critMult": 3
        }
      }
    ],
    "tag": "kasathaSpinalSword",
    "subType": "exotic",
    "properties": {
      "frg": true
    }
  }
}
