{
  "_id": "abv8SSqPMJW1jrIM",
  "name": "Knuckle Axe",
  "type": "weapon",
  "img": "systems/pf1/icons/items/weapons/axe-knuckle.PNG",
  "system": {
    "description": {
      "value": "<p><b>Source</b> <em>Ultimate Equipment pg. 20</em>, <em>Ultimate Combat pg. 144</em></p><h3><span title=\"PFS Legal\">[PFS]</span> Statistics</h3><p><b>Cost</b> 9 gp <b>Weight</b> 2 lbs.</p><p><b>Damage</b> 1d4 (small), 1d6 (medium); <b>Critical</b> x3; <b>Range</b> -; <b>Type</b> S; <b>Special</b> monk, performance</p><p><b>Category</b> Light; <b>Proficiency</b> Exotic</p><p><b>Weapon Groups</b> Axes</p><h3>Description</h3><p>Knuckle axes, usually used in pairs, resemble axe blades mounted on brass knuckles. You may hold, but not wield, a weapon or other object in a hand wearing a knuckle axe. Unlike when wearing brass knuckles, you cannot use a hand wearing a knuckle axe for spellcasting.</p>"
    },
    "tags": ["Knuckle Axe"],
    "weight": {
      "value": 2
    },
    "price": 9,
    "hp": {
      "max": 2,
      "value": 2
    },
    "hardness": 10,
    "actions": [
      {
        "_id": "ls5y9q8cwrl525kx",
        "name": "Attack",
        "img": "systems/pf1/icons/items/weapons/axe-knuckle.PNG",
        "activation": {
          "type": "attack"
        },
        "duration": {
          "units": "inst"
        },
        "range": {
          "value": "0",
          "units": "melee"
        },
        "actionType": "mwak",
        "damage": {
          "parts": [
            {
              "formula": "sizeRoll(1, 6, @size)",
              "type": {
                "values": ["slashing"],
                "custom": ""
              }
            }
          ]
        },
        "formulaicAttacks": {
          "count": {
            "formula": "min(3, ceil(@attributes.bab.total / 5) - 1)"
          },
          "bonus": {
            "formula": "@formulaicAttack * -5"
          }
        },
        "ability": {
          "attack": "str",
          "damage": "str",
          "critMult": 3
        }
      }
    ],
    "tag": "knuckleAxe",
    "weaponGroups": {
      "value": ["axes"]
    },
    "subType": "exotic",
    "properties": {
      "mnk": true,
      "prf": true
    }
  }
}
