{
  "_id": "hk5OdTCMKyImK8Qm",
  "name": "Kyoketsu Shoge",
  "type": "weapon",
  "img": "systems/pf1/icons/items/weapons/ankus.png",
  "system": {
    "description": {
      "value": "<p><b>Source</b> <em>Ultimate Equipment pg. 21</em>, <em>Ultimate Combat pg. 132</em></p><h3><span title=\"PFS Legal\">[PFS]</span> Statistics</h3><p><b>Cost</b> 6 gp <b>Weight</b> 1 lb.</p><p><b>Damage</b> 1d3 (small), 1d4 (medium); <b>Critical</b> x2; <b>Range</b> 20 ft.; <b>Type</b> S or P; <b>Special</b> disarm, grapple, monk, reach</p><p><b>Category</b> Two-Handed; <b>Proficiency</b> Exotic</p><p><b>Weapon Groups</b> Flails; Monk</p><h3>Description</h3><p>This weapon consists of a foot-long double-edged blade, with another smaller, curved hook-blade sticking out the side like a rooster's spur. The blade is strung to a large iron hoop with a 10-foot length of rope. The blade can be used as an off-handed melee weapon or thrown like a dagger, while the rope and circlet can be whipped around and swung at opponents as a bludgeoning reach weapon.</p>"
    },
    "tags": ["Kyoketsu Shoge"],
    "weight": {
      "value": 1
    },
    "price": 6,
    "hardness": 10,
    "actions": [
      {
        "_id": "yjeovdnai58wb79i",
        "name": "Attack",
        "img": "systems/pf1/icons/items/weapons/ankus.png",
        "activation": {
          "type": "attack"
        },
        "duration": {
          "units": "inst"
        },
        "range": {
          "value": "20",
          "units": "reach"
        },
        "actionType": "mwak",
        "damage": {
          "parts": [
            {
              "formula": "sizeRoll(1, 4, @size)",
              "type": {
                "values": ["piercing", "slashing"],
                "custom": ""
              }
            }
          ]
        },
        "formulaicAttacks": {
          "count": {
            "formula": "min(3, ceil(@attributes.bab.total / 5) - 1)"
          },
          "bonus": {
            "formula": "@formulaicAttack * -5"
          }
        },
        "ability": {
          "attack": "str",
          "damage": "str",
          "damageMult": 1.5
        }
      }
    ],
    "tag": "kyoketsuShoge",
    "held": "2h",
    "weaponGroups": {
      "value": ["flails", "monk"]
    },
    "subType": "exotic",
    "weaponSubtype": "2h",
    "properties": {
      "dis": true,
      "grp": true,
      "mnk": true,
      "rch": true
    }
  }
}
