{
  "_id": "dSvOrS64ClyN9isO",
  "name": "Light Pick",
  "type": "weapon",
  "img": "systems/pf1/icons/items/weapons/pick-light.PNG",
  "system": {
    "description": {
      "value": "<p><b>Source</b> <em>Ultimate Equipment pg. 18</em>, <em>PRPG Core Rulebook pg. 142</em></p><h3><span title=\"PFS Legal\">[PFS]</span> Statistics</h3><p><b>Cost</b> 4 gp <b>Weight</b> 3 lbs.</p><p><b>Damage</b> 1d3 (small), 1d4 (medium); <b>Critical</b> x4; <b>Range</b> -; <b>Type</b> P; <b>Special</b> -</p><p><b>Category</b> Light; <b>Proficiency</b> Martial</p><p><b>Weapon Groups</b> Axes</p><h3>Description</h3><p>This weapon, adapted from the pickaxe tool, has a head with a slightly curved, armorpiercing spike and a hammerlike counterweight.</p>"
    },
    "tags": ["Light Pick"],
    "weight": {
      "value": 3
    },
    "price": 4,
    "hp": {
      "max": 2,
      "value": 2
    },
    "hardness": 10,
    "actions": [
      {
        "_id": "xh6r1n6a2f0h92cx",
        "name": "Attack",
        "img": "systems/pf1/icons/items/weapons/pick-light.PNG",
        "activation": {
          "type": "attack"
        },
        "duration": {
          "units": "inst"
        },
        "range": {
          "value": "0",
          "units": "melee"
        },
        "actionType": "mwak",
        "damage": {
          "parts": [
            {
              "formula": "sizeRoll(1, 4, @size)",
              "type": {
                "values": ["piercing"],
                "custom": ""
              }
            }
          ]
        },
        "formulaicAttacks": {
          "count": {
            "formula": "min(3, ceil(@attributes.bab.total / 5) - 1)"
          },
          "bonus": {
            "formula": "@formulaicAttack * -5"
          }
        },
        "ability": {
          "attack": "str",
          "damage": "str",
          "critMult": 4
        }
      }
    ],
    "tag": "lightPick",
    "weaponGroups": {
      "value": ["axes"]
    },
    "subType": "martial"
  }
}
