{
  "_id": "chRnSkihSh4stCRq",
  "name": "Lungchuan Tamo",
  "type": "weapon",
  "img": "icons/weapons/thrown/dagger-simple.webp",
  "system": {
    "description": {
      "value": "<p><b>Source</b> <em>Ultimate Equipment pg. 18</em>, <em>Ultimate Combat pg. 133</em></p><h3><span title=\"PFS Legal\">[PFS]</span> Statistics</h3><p><b>Cost</b> 5 gp <b>Weight</b> 1 lb.</p><p><b>Damage</b> 1d3 (small), 1d4 (medium); <b>Critical</b> x2; <b>Range</b> 10 ft.; <b>Type</b> P or S; <b>Special</b> monk</p><p><b>Category</b> Light; <b>Proficiency</b> Martial</p><h3>Description</h3><p>What seems to be an ordinary baton sheaths a pair of matching slender-bladed daggers-perfectly balanced throwing blades.</p>"
    },
    "tags": ["Lungchuan Tamo"],
    "weight": {
      "value": 1
    },
    "price": 5,
    "hp": {
      "max": 2,
      "value": 2
    },
    "hardness": 10,
    "actions": [
      {
        "_id": "s51yfrw3xzdlsdew",
        "name": "Attack",
        "img": "icons/weapons/thrown/dagger-simple.webp",
        "activation": {
          "type": "attack"
        },
        "duration": {
          "units": "inst"
        },
        "range": {
          "value": "10",
          "units": "melee"
        },
        "actionType": "mwak",
        "damage": {
          "parts": [
            {
              "formula": "sizeRoll(1, 4, @size)",
              "type": {
                "values": ["piercing", "slashing"],
                "custom": ""
              }
            }
          ]
        },
        "formulaicAttacks": {
          "count": {
            "formula": "min(3, ceil(@attributes.bab.total / 5) - 1)"
          },
          "bonus": {
            "formula": "@formulaicAttack * -5"
          }
        },
        "ability": {
          "attack": "str",
          "damage": "str"
        }
      }
    ],
    "tag": "lungchuanTamo",
    "weaponGroups": {
      "value": ["monk"]
    },
    "subType": "martial",
    "properties": {
      "mnk": true
    }
  }
}
