{
  "_id": "OJQTYO08QXGm4EUa",
  "name": "Manticore's Tail",
  "type": "weapon",
  "img": "icons/weapons/artillery/ballista-wood-green.webp",
  "system": {
    "description": {
      "value": "<p><b>Source</b> <em>Belkzen, Hold of the Orc Hordes pg. 39</em></p><h3>Statistics</h3><p><b>Cost</b> 1,000 gp <b>Weight</b> -</p><p><b>Damage</b> 3d8; <b>Critical</b> 19-20/x2; <b>Range</b> see text; <b>Type</b> P</p><p><b>Crew</b> 3; <b>Aim</b> 0; <b>Load</b> 4; <b>Speed</b> 0 ft.</p><p><b>Category</b> Direct-Fire (Huge); <b>Proficiency</b> Siege Engine</p><h3>Description</h3><p>This massive ballista fires a dozen or more bolts at once in a devastating rain of steel that deals 3d8 points of damage. The crew leader makes a separate attack roll with a -2 penalty against each creature and object within a 60-foot cone, ignoring concealment. Confirm any critical threats separately. This weapon has a mishap only if the first attack roll is a mishap. A manticore's tail has a hardness of 5 and 100 hit points. Ammunition for one use of the manticore's tail costs 120 gp and weighs 120 pounds.</p>"
    },
    "tags": ["Manticore's Tail"],
    "price": 1000,
    "hardness": 10,
    "actions": [
      {
        "_id": "4zgyei6efexe8p5i",
        "name": "Attack",
        "img": "icons/weapons/artillery/ballista-wood-green.webp",
        "activation": {
          "type": "attack"
        },
        "duration": {
          "units": "inst"
        },
        "range": {
          "value": "0",
          "units": "ft"
        },
        "actionType": "rwak",
        "damage": {
          "parts": [
            {
              "formula": "sizeRoll(3, 8, @size)",
              "type": {
                "values": ["piercing"],
                "custom": ""
              }
            }
          ]
        },
        "formulaicAttacks": {
          "count": {
            "formula": "min(3, ceil(@attributes.bab.total / 5) - 1)"
          },
          "bonus": {
            "formula": "@formulaicAttack * -5"
          }
        },
        "ability": {
          "attack": "dex",
          "damage": "str",
          "critRange": "19",
          "critMult": "2"
        }
      }
    ],
    "tag": "manticoresTail",
    "subType": "exotic",
    "weaponSubtype": "ranged"
  }
}
