{
  "_id": "syi2cVWBrZ5zdPUO",
  "name": "Metal Cartridge",
  "type": "loot",
  "img": "icons/containers/ammunition/bullets-belt.webp",
  "system": {
    "description": {
      "value": "<p><b>Source</b> <em>Ultimate Equipment pg. 41</em>, <em>Ultimate Combat pg. 141</em></p><h3>Statistics</h3><p><b>Cost</b> 15 gp <b>Weight</b> -</p><p><b>Category</b> Ammunition; <b>Proficiency</b> Exotic</p><h3>Description</h3><p>These sturdier versions of alchemical cartridges serve as the ammunition for advanced firearms. They can hold either bullets or pellets.</p>"
    },
    "price": 15,
    "equipped": false,
    "hp": {
      "max": 1,
      "value": 1
    },
    "hardness": 5,
    "tag": "metalCartridge",
    "subType": "ammo",
    "extraType": "gunBullet"
  }
}
