{
  "_id": "QtEyY1J0B6jTmEWQ",
  "name": "Rockwasp Bomb (Siege)",
  "type": "loot",
  "img": "icons/weapons/ammunition/shot-round-brown.webp",
  "system": {
    "description": {
      "value": "<p><b>Source</b> <em>Belkzen, Hold of the Orc Hordes pg. 39</em></p>\n<h3>Statistics</h3>\n<p><b>Cost</b> 2,000 gp <b>Weight</b> 100 lbs.</p>\n<p><b>Category</b> Ammunition; <b>Proficiency</b> Siege Engine</p>\n<h3>Description</h3>\n<p>Usable in catapults and trebuchets, this ammunition consists of a wooden crate packed with wax globes, from which a faint buzzing sound emanates.</p>\n<p>Visible as a dark shape at the center of each globe is a rat-sized hornet known as a rockwasp. The alchemical wax keeps the wasps immobilized, while tiny air holes allow them to breath.</p>\n<p>This ammunition <b>deals only half damage</b>, but releases a wasp swarm-two wasp swarms if used for a heavy catapult or heavy trebuchet. The wasps attack for 1 minute before dispersing.</p>\n<h3>Mishap</h3>\n<p>On a siege engine mishap, the wasps escape before the ammunition is launched.</p>"
    },
    "weight": {
      "value": 100
    },
    "price": 2000,
    "equipped": false,
    "hp": {
      "max": 1,
      "value": 1
    },
    "hardness": 5,
    "tag": "rockwaspBombSiege",
    "subType": "ammo"
  }
}
