{
  "_id": "Fkt9Z6CdwJpgRqsY",
  "name": "Rocket Springal",
  "type": "weapon",
  "img": "icons/weapons/artillery/ballista-wood-green.webp",
  "system": {
    "description": {
      "value": "<p><b>Source</b> <em>Ultimate Combat pg. 163</em></p><h3>Statistics</h3><p><b>Cost</b> 6,000 gp <b>Weight</b> -</p><p><b>Damage</b> 3d10; <b>Critical</b> x4; <b>Range</b> 100 ft. (50 ft. min.); <b>Type</b> fire</p><p><b>Crew</b> 3; <b>Aim</b> 2; <b>Load</b> 3; <b>Speed</b> 0 ft.</p><p><b>Category</b> Indirect-Fire (Huge); <b>Proficiency</b> Siege Engine</p><h3>Description</h3><p>A springal uses a torsion-cranked composite paddle to strike a firing rack containing multiple arrows or black-powder-propelled rockets, which rain down in an arc over a burst area. Springals are indirect-fire weapons that affect an area centered on the target square (targeting DC 20).</p><p><em>Arrow</em>: This springal propels a group of arrows that rains down on the targeted square and in a 15-foot burst around that square. One use of arrow springal ammunition costs 20 gp and weighs 10 pounds.</p><p><em>Rocket</em>: This highly volatile springal propels a group of black-powder rockets that rain down on the targeted square and in a 15-foot burst around the area. If the rocket springal misfires, it explodes, dealing its damage in a 20- foot blast around the springal. This explosion destroys the rocket springal. One use of rocket springal ammunition costs 500 gp and weighs 30 pounds.</p>"
    },
    "tags": ["Rocket Springal"],
    "price": 6000,
    "hardness": 10,
    "actions": [
      {
        "_id": "lfkecaegacskwao3",
        "name": "Attack",
        "img": "icons/weapons/artillery/ballista-wood-green.webp",
        "activation": {
          "type": "attack"
        },
        "duration": {
          "units": "inst"
        },
        "range": {
          "value": "100",
          "units": "ft"
        },
        "actionType": "rwak",
        "damage": {
          "parts": [
            {
              "formula": "sizeRoll(3, 10, @size)",
              "type": {
                "values": ["fire"],
                "custom": ""
              }
            }
          ]
        },
        "formulaicAttacks": {
          "count": {
            "formula": "min(3, ceil(@attributes.bab.total / 5) - 1)"
          },
          "bonus": {
            "formula": "@formulaicAttack * -5"
          }
        },
        "ability": {
          "attack": "dex",
          "damage": "str",
          "critRange": "",
          "critMult": "4"
        }
      }
    ],
    "tag": "rocketSpringal",
    "subType": "exotic",
    "weaponSubtype": "ranged"
  }
}
