{
  "_id": "4Ljn6CWNcYi1OebL",
  "name": "Shoanti Bolas",
  "type": "weapon",
  "img": "systems/pf1/icons/items/weapons/bolas.png",
  "system": {
    "description": {
      "value": "<p><b>Source</b> <em>Varisia, Birthplace of Legends pg. 14</em>, <em>Curse of the Crimson Throne Player's Guide pg. 13</em>, <em>Pathfinder Campaign Setting pg. 209</em>, <em>Inner Sea World Guide pg. 290</em>, <em>Adventurer's Armory pg. 33</em></p><h3><span title=\"PFS Legal\">[PFS]</span> Statistics</h3><p><b>Cost</b> 15 gp <b>Weight</b> 2 lbs.</p><p><b>Damage</b> 1d3 (small), 1d4 (medium); <b>Critical</b> x2; <b>Range</b> 10 ft.; <b>Type</b> B and P; <b>Special</b> trip</p><p><b>Category</b> Ranged; <b>Proficiency</b> Exotic</p><p><b>Weapon Groups</b> Thrown</p><h3>Description</h3><p>This spiked bolas functions as a standard bolas, but deals lethal damage rather than nonlethal damage.</p>"
    },
    "tags": ["Shoanti Bolas"],
    "weight": {
      "value": 2
    },
    "price": 15,
    "hp": {
      "max": 5,
      "value": 5
    },
    "hardness": 5,
    "actions": [
      {
        "_id": "12chvt3ipiua6tbo",
        "name": "Attack",
        "img": "systems/pf1/icons/items/weapons/bolas.png",
        "activation": {
          "type": "attack"
        },
        "duration": {
          "units": "inst"
        },
        "range": {
          "value": "10",
          "units": "ft"
        },
        "actionType": "rwak",
        "damage": {
          "parts": [
            {
              "formula": "sizeRoll(1, 4, @size)",
              "type": {
                "values": ["bludgeoning", "piercing"],
                "custom": ""
              }
            }
          ]
        },
        "formulaicAttacks": {
          "count": {
            "formula": "min(3, ceil(@attributes.bab.total / 5) - 1)"
          },
          "bonus": {
            "formula": "@formulaicAttack * -5"
          }
        },
        "ability": {
          "attack": "dex",
          "damage": "str"
        }
      }
    ],
    "tag": "shoantiBolas",
    "weaponGroups": {
      "value": ["thrown"]
    },
    "subType": "exotic",
    "weaponSubtype": "ranged",
    "properties": {
      "trp": true
    }
  }
}
