{
  "_id": "Ata6ajiY9wuAnBLB",
  "name": "Shortbow",
  "type": "weapon",
  "img": "systems/pf1/icons/items/weapons/shortbow.PNG",
  "system": {
    "description": {
      "value": "<p><b>Source</b> <em>Ranged Tactics Toolbox pg. 0</em>, <em>PRPG Core Rulebook pg. 143</em>, <em>Ultimate Equipment pg. 19</em></p><h3><span title=\"PFS Legal\">[PFS]</span> Statistics</h3><p><b>Cost</b> 30 gp <b>Weight</b> 2 lbs.</p><p><b>Damage</b> 1d4 (small), 1d6 (medium); <b>Critical</b> x3; <b>Range</b> 60 ft.; <b>Type</b> P; <b>Special</b> -</p><p><b>Category</b> Ranged; <b>Proficiency</b> Martial</p><p><b>Weapon Groups</b> Bows</p><h3>Description</h3><p>A shortbow is made up of one piece of wood about 3 feet in length. You need two hands to use a bow, regardless of its size. You can use a shortbow while mounted. If you have a penalty for low Strength, apply it to damage rolls when you use a shortbow. If you have a bonus for high Strength, you can apply it to damage rolls when you use a composite shortbow, but not a regular shortbow. A shortbow fires arrows.</p>"
    },
    "tags": ["Shortbow"],
    "weight": {
      "value": 2
    },
    "price": 30,
    "hp": {
      "max": 5,
      "value": 5
    },
    "hardness": 5,
    "actions": [
      {
        "_id": "v3teurqmkaib0rai",
        "name": "Attack",
        "img": "systems/pf1/icons/items/weapons/shortbow.PNG",
        "activation": {
          "type": "attack"
        },
        "duration": {
          "units": "inst"
        },
        "range": {
          "value": "60",
          "units": "ft"
        },
        "actionType": "rwak",
        "damage": {
          "parts": [
            {
              "formula": "sizeRoll(1, 6, @size) + min(@abilities.str.mod, 0)[Strength]",
              "type": {
                "values": ["piercing"],
                "custom": ""
              }
            }
          ]
        },
        "formulaicAttacks": {
          "count": {
            "formula": "min(3, ceil(@attributes.bab.total / 5) - 1)"
          },
          "bonus": {
            "formula": "@formulaicAttack * -5"
          },
          "label": ""
        },
        "ability": {
          "attack": "dex",
          "critMult": 3
        },
        "usesAmmo": true
      }
    ],
    "tag": "shortbow",
    "weaponGroups": {
      "value": ["bows"]
    },
    "subType": "martial",
    "weaponSubtype": "ranged",
    "ammoType": "arrow"
  }
}
