{
  "_id": "gIEY6TLpLfVIzcCA",
  "name": "Softstones Sling Bullet",
  "type": "loot",
  "img": "icons/weapons/ammunition/shot-round-silver.webp",
  "system": {
    "description": {
      "value": "<p><b>Source</b> <em>Halflings of Golarion pg. 23</em></p><h3><span title=\"PFS Legal\">[PFS]</span> Statistics</h3><p><b>Cost</b> 1 sp <b>Weight</b> 4 lbs.</p><p><b>Category</b> Ammunition; <b>Proficiency</b> Ammunition</p><h3>Description</h3><p>These tight bundles of elastic fibers deal nonlethal damage when fired from a sling.</p>"
    },
    "quantity": 10,
    "weight": {
      "value": 0.4
    },
    "price": 0.01,
    "equipped": false,
    "hp": {
      "max": 1,
      "value": 1
    },
    "hardness": 5,
    "tag": "halflingSoftstones10",
    "subType": "ammo",
    "extraType": "slingBullet"
  }
}
