{
  "_id": "E4Xl3ABY1u53Dt7h",
  "name": "Tetsubo",
  "type": "weapon",
  "img": "icons/weapons/clubs/club-banded-barbed-black.webp",
  "system": {
    "description": {
      "value": "<p><b>Source</b> <em>Ultimate Equipment pg. 21</em>, <em>Ultimate Combat pg. 134</em></p><h3><span title=\"PFS Legal\">[PFS]</span> Statistics</h3><p><b>Cost</b> 20 gp <b>Weight</b> 10 lbs.</p><p><b>Damage</b> 1d8 (small), 1d10 (medium); <b>Critical</b> x4; <b>Range</b> -; <b>Type</b> B; <b>Special</b> -</p><p><b>Category</b> Two-Handed; <b>Proficiency</b> Exotic</p><p><b>Weapon Groups</b> Hammers</p><h3>Description</h3><p>A slight improvement over the greatclub, this weapon consists of a long, slender length of wood or metal whose upper half is shod with a thick sheet of studded iron. The iron gives added weight and strength to the club, while the studs are designed to crack helmets and armor.</p>"
    },
    "tags": ["Tetsubo"],
    "weight": {
      "value": 10
    },
    "price": 20,
    "hardness": 10,
    "actions": [
      {
        "_id": "iw2l04pf4pmtherc",
        "name": "Attack",
        "img": "icons/weapons/clubs/club-banded-barbed-black.webp",
        "activation": {
          "type": "attack"
        },
        "duration": {
          "units": "inst"
        },
        "range": {
          "value": "0",
          "units": "melee"
        },
        "actionType": "mwak",
        "damage": {
          "parts": [
            {
              "formula": "sizeRoll(1, 10, @size)",
              "type": {
                "values": ["bludgeoning"],
                "custom": ""
              }
            }
          ]
        },
        "formulaicAttacks": {
          "count": {
            "formula": "min(3, ceil(@attributes.bab.total / 5) - 1)"
          },
          "bonus": {
            "formula": "@formulaicAttack * -5"
          }
        },
        "ability": {
          "attack": "str",
          "damage": "str",
          "damageMult": 1.5,
          "critMult": 4
        }
      }
    ],
    "tag": "tetsubo",
    "held": "2h",
    "weaponGroups": {
      "value": ["hammers"]
    },
    "subType": "exotic",
    "weaponSubtype": "2h"
  }
}
