{
  "_id": "bxbdOo9U1g2pVf6a",
  "name": "Throwing Arrow",
  "type": "loot",
  "img": "systems/pf1/icons/items/weapons/arrow-special.PNG",
  "system": {
    "description": {
      "value": "<p><b>Source</b> <em>Ranged Tactics Toolbox pg. 19</em></p>\n<h3><span title=\"PFS Legal\">[PFS]</span> Statistics</h3>\n<p><b>Cost</b> 5 sp <b>Weight</b> 1/2 lb.</p>\n<p><b>Category</b> Ammunition; <b>Proficiency</b> Ammunition</p>\n<h3>Description</h3>\n<p>Too long to use in a bow, the throwing arrow has no nock at the tail. Instead, it has a notch ahead of the fletching where a throwing arrow cord can be attached (see above).</p>\n<p>If thrown without the use of a cord, treat a throwing arrow as a dart.</p>"
    },
    "weight": {
      "value": 0.5
    },
    "price": 0.5,
    "equipped": false,
    "hp": {
      "max": 1,
      "value": 1
    },
    "hardness": 5,
    "unidentified": {
      "price": 0.5
    },
    "tag": "throwingArrow",
    "subType": "ammo"
  }
}
