{
  "_id": "lhRflc0WUdsF1s4h",
  "name": "Throwing Shield",
  "type": "weapon",
  "img": "systems/pf1/icons/items/weapons/shield-throwing.PNG",
  "system": {
    "description": {
      "value": "<p><b>Source</b> <em>Ranged Tactics Toolbox pg. 33</em>, <em>Adventurer's Armory pg. 5</em>, <em>Ultimate Combat pg. 145</em>, <em>Ultimate Equipment pg. 21</em></p><h3><span title=\"PFS Legal\">[PFS]</span> Statistics</h3><p><b>Cost</b> +50 gp <b>Weight</b> -</p><p><b>Damage</b> 1d4 (small), 1d6 (medium); <b>Critical</b> x2; <b>Range</b> 20 ft.; <b>Type</b> B; <b>Special</b> performance, trip</p><p><b>Category</b> Ranged; <b>Proficiency</b> Exotic</p><p><b>Weapon Groups</b> Thrown</p><h3>Description</h3><p>This shield is designed for throwing and has specially designed straps that allow you to unclasp and throw it as a free action. Tower shields cannot be throwing shields. Neither a shield's enhancement bonus to AC nor its shield spikes apply on your attack or damage rolls. A throwing shield can't be disarmed.</p>"
    },
    "tags": ["Throwing Shield"],
    "price": 50,
    "hp": {
      "max": 5,
      "value": 5
    },
    "hardness": 5,
    "actions": [
      {
        "_id": "kgtvvi21ghqroc3r",
        "name": "Attack",
        "img": "systems/pf1/icons/items/weapons/shield-throwing.PNG",
        "activation": {
          "type": "attack"
        },
        "duration": {
          "units": "inst"
        },
        "range": {
          "value": "20",
          "units": "ft"
        },
        "actionType": "rwak",
        "damage": {
          "parts": [
            {
              "formula": "sizeRoll(1, 6, @size)",
              "type": {
                "values": ["bludgeoning"],
                "custom": ""
              }
            }
          ]
        },
        "formulaicAttacks": {
          "count": {
            "formula": "min(3, ceil(@attributes.bab.total / 5) - 1)"
          },
          "bonus": {
            "formula": "@formulaicAttack * -5"
          }
        },
        "ability": {
          "attack": "dex",
          "damage": "str"
        }
      }
    ],
    "tag": "throwingShield",
    "weaponGroups": {
      "value": ["thrown"]
    },
    "subType": "exotic",
    "weaponSubtype": "ranged",
    "properties": {
      "prf": true,
      "trp": true
    }
  }
}
