{
  "_id": "2mw29eyL5mzZgKqR",
  "name": "Trident",
  "type": "weapon",
  "img": "systems/pf1/icons/items/weapons/trident.PNG",
  "system": {
    "description": {
      "value": "<p><b>Source</b> <em>Ultimate Equipment pg. 18</em>, <em>PRPG Core Rulebook pg. 142</em></p><h3><span title=\"PFS Legal\">[PFS]</span> Statistics</h3><p><b>Cost</b> 15 gp <b>Weight</b> 4 lbs.</p><p><b>Damage</b> 1d6 (small), 1d8 (medium); <b>Critical</b> x2; <b>Range</b> 10 ft.; <b>Type</b> P; <b>Special</b> brace</p><p><b>Category</b> One-Handed; <b>Proficiency</b> Martial</p><p><b>Weapon Groups</b> Spears; Thrown</p><h3>Description</h3><p>A trident has three metal prongs at end of a 4-foot-long shaft. This weapon can be thrown.</p>"
    },
    "tags": ["Trident"],
    "weight": {
      "value": 4
    },
    "price": 15,
    "hp": {
      "max": 5,
      "value": 5
    },
    "hardness": 10,
    "actions": [
      {
        "_id": "xzamnmf2rl7rxs0w",
        "name": "Attack",
        "img": "systems/pf1/icons/items/weapons/trident.PNG",
        "activation": {
          "type": "attack"
        },
        "duration": {
          "units": "inst"
        },
        "range": {
          "value": "10",
          "units": "melee"
        },
        "actionType": "mwak",
        "damage": {
          "parts": [
            {
              "formula": "sizeRoll(1, 8, @size)",
              "type": {
                "values": ["piercing"],
                "custom": ""
              }
            }
          ]
        },
        "formulaicAttacks": {
          "count": {
            "formula": "min(3, ceil(@attributes.bab.total / 5) - 1)"
          },
          "bonus": {
            "formula": "@formulaicAttack * -5"
          }
        },
        "ability": {
          "attack": "str",
          "damage": "str"
        }
      }
    ],
    "tag": "trident",
    "weaponGroups": {
      "value": ["spears", "thrown"]
    },
    "subType": "martial",
    "weaponSubtype": "1h",
    "properties": {
      "brc": true
    }
  }
}
