{
  "_id": "orldmkdrsbikpcjr",
  "name": "Ale",
  "type": "loot",
  "img": "systems/pf1/icons/items/inventory/dice.jpg",
  "system": {
    "description": {
      "value": "<h4>Ale</h4>\n<p class=\"source\"><b>Source</b> <em>PZO1110</em></p>\n<ul>\n<li>Gallon</li>\n<li>Mug</li>\n</ul>\n<p>The listed prices are for a tavern or restaurant in an average city.</p>"
    },
    "equipped": false,
    "subType": "gear"
  }
}
