{
  "_id": "zn5a55rPoW9DSJOc",
  "name": "Belt of Incredible Dexterity +6",
  "type": "equipment",
  "img": "systems/pf1/icons/items/equipment/belt-girdle.jpg",
  "system": {
    "description": {
      "value": "<p>This belt has a large silver buckle, usually depicting the image of a tiger.</p>\n<p>The belt grants the wearer an <em>enhancement bonus</em> to <em>Dexterity</em> of +2, +4, or +6. Treat this as a temporary ability bonus for the first 24 hours the belt is worn.</p>",
      "unidentified": "<p>This belt has a large silver buckle depicting the image of a tiger.</p>"
    },
    "weight": {
      "value": 1
    },
    "price": 36000,
    "resizing": true,
    "unidentified": {
      "name": "Belt"
    },
    "cl": 8,
    "aura": {
      "school": "trs"
    },
    "changes": [
      {
        "_id": "j5691lgs",
        "formula": "6",
        "subTarget": "dex",
        "modifier": "enh"
      }
    ],
    "subType": "misc",
    "equipmentSubtype": "wondrous",
    "slot": "belt"
  }
}
