{
  "_id": "zkfnrahkeufabend",
  "name": "Bit And Bridle",
  "type": "loot",
  "img": "systems/pf1/icons/items/inventory/dice.jpg",
  "system": {
    "description": {
      "value": "<p><b>Price</b> 2 gp; <b>Weight</b> 1 lb.</p>\n<p>A bridle is a piece of equipment used to direct a <em>horse</em>. The bridle includes both the headstall that holds a bit that goes in the mouth of a <em>horse</em>, and the reins that are attached to the bit.</p>"
    },
    "weight": {
      "value": 1
    },
    "price": 2,
    "equipped": false,
    "subType": "gear"
  }
}
