{
  "_id": "fwfwshvyweqbthwk",
  "name": "Blanket",
  "type": "loot",
  "img": "systems/pf1/icons/items/inventory/dice.jpg",
  "system": {
    "description": {
      "value": "<h4>Blanket</h4>\n<p class=\"source\"><b>Source</b> <em>PZO1115</em></p>\n<p><b>Price</b> 5 sp; <b>Weight</b> 3 lbs.</p>\n<p>This warm, woven blanket has straps so it can be rolled up and tied. Blankets are often used in conjunction with bedrolls to provide additional warmth or a ground cushion.</p>\n<p><b>Winter blanket</b> This is a fur blanket large enough for one person. <b>Source</b> <em>PZO1110</em></p>"
    },
    "weight": {
      "value": 3
    },
    "price": 0.5,
    "equipped": false,
    "subType": "gear"
  }
}
