{
  "_id": "gyvnzdhtrtxxzvpg",
  "name": "Bloodblock",
  "type": "loot",
  "img": "systems/pf1/icons/items/inventory/dice.jpg",
  "system": {
    "description": {
      "value": "<p><b>Price</b> 25 gp; <b>Weight</b> -</p>\n<p>This gooey, pinkish substance helps treat wounds. Using a dose gives you a +5 alchemical bonus on Heal checks for providing first aid, treating wounds made by caltrops or similar objects, or treating deadly wounds. A dose of bloodblock ends a bleed effect as if you had made a DC 15 Heal check. When treating deadly wounds, using a dose of bloodblock counts as one use of a healer's kit (and grants the +5 bonus stated above).</p>\n<p><b>Create</b>: <em>Craft</em> (alchemy) DC 25</p>"
    },
    "price": 25,
    "equipped": false,
    "subType": "gear"
  }
}
