{
  "_id": "9FJz9ZJ1r4pbZBIU",
  "name": "Caltrops (Cold Iron)",
  "type": "loot",
  "img": "systems/pf1/icons/items/inventory/dice.jpg",
  "system": {
    "description": {
      "value": "<p>Source <a href=\"http://paizo.com/products/btpy8ywa?Pathfinder-Player-Companion-Demon-Hunters-Handbook\">Demon Hunter's Handbook pg. 18</a><br>Price 2 gp; Weight 2 lbs.<br>Category Adventuring Gear</p>\n<h3>Description</h3>\n<p>Cold iron caltrops function in all ways as ordinary caltrops (Pathfinder RPG Core Rulebook 155) except that they are made of cold iron, and affect creatures with DR/cold iron accordingly.</p>"
    },
    "weight": {
      "value": 2
    },
    "price": 2,
    "equipped": false,
    "subType": "gear"
  }
}
