{
  "_id": "wU8UByas24WFXOMn",
  "name": "Cloak of Resistance +5",
  "type": "equipment",
  "img": "systems/pf1/icons/items/equipment/cloak-plain.jpg",
  "system": {
    "description": {
      "value": "<p>This garment offers magic protection in the form of a +1 to +5 <em>resistance bonus</em> on all saving throws (<em>Fortitude</em>, <em>Reflex</em>, and <em>Will</em>).</p>"
    },
    "weight": {
      "value": 1
    },
    "price": 25000,
    "resizing": true,
    "unidentified": {
      "name": "Cloak"
    },
    "cl": 15,
    "aura": {
      "school": "abj"
    },
    "changes": [
      {
        "_id": "8lxsocua",
        "formula": "5",
        "subTarget": "allSavingThrows",
        "modifier": "resist"
      }
    ],
    "tag": "cloakOfResistance5",
    "subType": "misc",
    "equipmentSubtype": "wondrous",
    "slot": "shoulders"
  }
}
