{
  "_id": "sXdgwJBAyNAGaYZy",
  "name": "Cloak of Resistance +4",
  "type": "equipment",
  "img": "systems/pf1/icons/items/equipment/cloak-plain.jpg",
  "system": {
    "description": {
      "value": "<p>This garment offers magic protection in the form of a +1 to +5 <em>resistance bonus</em> on all saving throws (<em>Fortitude</em>, <em>Reflex</em>, and <em>Will</em>).</p>"
    },
    "weight": {
      "value": 1
    },
    "price": 16000,
    "resizing": true,
    "unidentified": {
      "name": "Cloak"
    },
    "cl": 12,
    "aura": {
      "school": "abj"
    },
    "changes": [
      {
        "_id": "q4m7nb93",
        "formula": "4",
        "subTarget": "allSavingThrows",
        "modifier": "resist"
      }
    ],
    "tag": "cloakOfResistance4",
    "subType": "misc",
    "equipmentSubtype": "wondrous",
    "slot": "shoulders"
  }
}
