{
  "_id": "gxfmqxcfchdsqnpa",
  "name": "Eye Patch",
  "type": "loot",
  "img": "systems/pf1/icons/items/inventory/dice.jpg",
  "system": {
    "description": {
      "value": "<p class=\"source\"><b>Source</b> <em>PPC:PotIS</em>.</p>\n<p>An eye patch covers one eye and ties around the head. Pirates usually wear eye patches to cover injured or blind eyes, but some wear eye patches to look more intimidating, or to keep one eye covered and thus retain their night vision when transitioning from the relative darkness belowdecks to the sunlight above.</p>"
    },
    "price": 0.1,
    "equipped": false,
    "subType": "gear"
  }
}
