{
  "_id": "gjntilmfnmbrrtnj",
  "name": "Falconry Gauntlet",
  "type": "loot",
  "img": "systems/pf1/icons/items/inventory/dice.jpg",
  "system": {
    "description": {
      "value": "<p><b>Price</b> 10 gp; <b>Weight</b> 1 lb.</p>\n<p>This gauntlet, made from layers of thick leather, is worn on the falconer's off hand to give a falcon a place to stand before and after a hunt. The gauntlet also has a tassel and a ring attached to the falcon's tether.</p>"
    },
    "weight": {
      "value": 1
    },
    "price": 10,
    "equipped": false,
    "subType": "gear"
  }
}
