{
  "name": "Grooming Kit",
  "type": "container",
  "img": "icons/containers/chest/chest-simple-box-blue.webp",
  "system": {
    "weight": {
      "value": 1.3
    },
    "inventoryItems": [
      {
        "_id": "RAL7oEejphA0m4y2",
        "name": "Soap",
        "type": "consumable",
        "img": "systems/pf1/icons/items/inventory/soap.jpg",
        "flags": {
          "core": {
            "sourceId": "Compendium.pf1.items.yMoclCylbCRKyaZF"
          }
        },
        "system": {
          "description": {
            "value": "<p class=\"source\"><b>Source</b> <em>PPZO9410</em></p>\n<p>You can use this thick block of soap to scrub clothes, pots, linens, or anything else that might be dirty. A bar of soap has approximately 50 uses.</p>"
          },
          "weight": {
            "value": 0.5
          },
          "price": 0.01,
          "actions": [
            {
              "_id": "ootoocddr3l2eoat",
              "name": "Use",
              "img": "systems/pf1/icons/items/inventory/soap.jpg",
              "activation": {
                "type": "special"
              },
              "unchainedAction": {
                "activation": {
                  "type": "special"
                }
              },
              "actionType": ""
            }
          ],
          "uses": {
            "per": "charges",
            "value": 50,
            "maxFormula": "50"
          },
          "tag": "soap",
          "subType": "misc"
        }
      },
      {
        "name": "Mirror, Miniature",
        "type": "loot",
        "flags": {
          "core": {
            "sourceId": "Compendium.pf1.items.qtVn6uvpmPlc30AX"
          }
        },
        "img": "icons/tools/scribal/lens-grey-brown.webp",
        "system": {
          "description": {
            "value": "<p class=\"source\"><b>Source</b> <em>PZO1110</em></p>\n<p>A tiny steel mirror.</p>"
          },
          "tags": ["Mundane", "Grooming"],
          "weight": {
            "value": 0.2
          },
          "equipped": false,
          "subType": "tradeGoods"
        },
        "_id": "BOefHIZ5pFeig6yu"
      },
      {
        "name": "Comb",
        "type": "loot",
        "img": "systems/pf1/icons/items/inventory/dice.jpg",
        "system": {
          "tags": ["Mundane", "Grooming"],
          "equipped": false,
          "subType": "tradeGoods"
        },
        "flags": {
          "core": {
            "sourceId": "Compendium.pf1.items.DGFs2jVxtanZnxQB"
          }
        },
        "_id": "4Ofs2W3dDSCKbd0w"
      },
      {
        "name": "Scissors",
        "type": "loot",
        "img": "systems/pf1/icons/items/inventory/dice.jpg",
        "system": {
          "tags": ["Mundane", "Grooming", "Crafting"],
          "equipped": false,
          "subType": "gear"
        },
        "flags": {
          "core": {
            "sourceId": "Compendium.pf1.items.MyTszOhmpMPGkDO8"
          }
        },
        "_id": "qUdHaTIV2Zdwlqoy"
      },
      {
        "name": "Nail File",
        "type": "loot",
        "img": "systems/pf1/icons/items/inventory/dice.jpg",
        "system": {
          "tags": ["Mundane", "Grooming"],
          "equipped": false,
          "subType": "gear"
        },
        "flags": {
          "core": {
            "sourceId": "Compendium.pf1.items.VWirsdZNCFFB9WDN"
          }
        },
        "_id": "m4rPXfwCPrXjJ44W"
      },
      {
        "name": "Sponge",
        "type": "loot",
        "img": "systems/pf1/icons/items/inventory/dice.jpg",
        "system": {
          "tags": ["Mundane", "Grooming"],
          "equipped": false,
          "subType": "gear"
        },
        "flags": {
          "core": {
            "sourceId": "Compendium.pf1.items.NgwFMX44jn9pD5k2"
          }
        },
        "_id": "3s4FpfbsGQnlQZI3"
      },
      {
        "name": "Hairbrush",
        "type": "loot",
        "img": "systems/pf1/icons/items/inventory/dice.jpg",
        "system": {
          "tags": ["Mundane", "Grooming"],
          "equipped": false,
          "subType": "gear"
        },
        "flags": {
          "core": {
            "sourceId": "Compendium.pf1.items.7aCkyFhei7ZRweuQ"
          }
        },
        "_id": "TxKAh9dUYfofmk1w"
      },
      {
        "name": "Chewing Stick",
        "type": "loot",
        "img": "icons/commodities/wood/kindling-sticks-brown.webp",
        "system": {
          "tags": ["Mundane", "Grooming"],
          "equipped": false,
          "subType": "gear"
        },
        "flags": {
          "core": {
            "sourceId": "Compendium.pf1.items.JFt3CfOysONkqB6X"
          }
        },
        "_id": "Ii28g5mfXa4RxzjW"
      },
      {
        "name": "Tooth Powder",
        "type": "loot",
        "img": "icons/commodities/materials/powder-grey.webp",
        "system": {
          "tags": ["Mundane", "Grooming"],
          "equipped": false,
          "subType": "gear"
        },
        "flags": {
          "core": {
            "sourceId": "Compendium.pf1.items.TlhTyr56K905zx6Q"
          }
        },
        "_id": "bmKPxdI0IMOJptpL"
      }
    ]
  },
  "_id": "6yfwD4QhSsmXaCUX"
}
