{
  "_id": "iclfnaawjjxuvupa",
  "name": "Incense",
  "type": "loot",
  "img": "systems/pf1/icons/items/inventory/dice.jpg",
  "system": {
    "description": {
      "value": "<p class=\"source\"><b>Source</b> <em>PZO1121</em></p>\n<p>This aromatic resin, imbued with fragrant oils, is often formed into sticks, cones, or balls and burned in ceremonies or during meditation. A piece of incense burns for 1 hour.</p>"
    },
    "weight": {
      "value": 1
    },
    "price": 10,
    "equipped": false,
    "subType": "gear"
  }
}
