{
  "_id": "cuthceisvorerlyl",
  "name": "Incendiary Catalyst",
  "type": "loot",
  "img": "systems/pf1/icons/items/inventory/dice.jpg",
  "system": {
    "description": {
      "value": "<p class=\"source\"><b>Source</b> <em>PZO90115</em></p>\n<p><b>Price</b> 40 gp; <b>Weight</b> 1 lb.</p>\n<p>Incendiary catalyst can be thrown at a creature as a ranged <em>touch attack</em> with a range increment of 10 feet. On a hit, the target is doused with accelerants that give the target <em>vulnerability</em> to fire for 1 round. Incendiary catalyst does not affect creatures that are already vulnerable to fire, and the target's fire <em>immunity</em> and resistances apply as normal. Crafting this item requires a successful DC 20 <em>Craft</em> (alchemy) check.</p>"
    },
    "weight": {
      "value": 1
    },
    "price": 40,
    "equipped": false,
    "subType": "gear"
  }
}
