{
  "_id": "fwvexplwohpqmkdq",
  "name": "Kilt",
  "type": "loot",
  "img": "systems/pf1/icons/items/inventory/dice.jpg",
  "system": {
    "description": {
      "value": "<p><b>Price</b> 2 sp; <b>Weight</b> 1 lb.</p>\n<p>This heavy pleated skirt is usually worn by men. Most have a specific design or pattern that represents allegiance to a particular clan or other social group.</p>"
    },
    "weight": {
      "value": 1
    },
    "price": 0.2,
    "equipped": false,
    "subType": "gear"
  }
}
