{
  "_id": "uhamijqbmksevsxs",
  "name": "Kit, Skeleton Slayer's",
  "type": "loot",
  "img": "systems/pf1/icons/items/inventory/dice.jpg",
  "system": {
    "description": {
      "value": "<p class=\"source\"><b>Source</b>: <em>USH</em></p>\n<p><b>Price</b> 120 gp; <b>Weight</b> 32 lbs.</p>\n<p>This kit contains all the tools necessary for clearing out small packs of <em>skeletons</em> from tombs and crypts. It includes three flasks of <em>acid</em>, a <em>club</em>, a <em>sling</em>, 10 <em>sling</em> bullets, two flasks of <em>holy water</em>, a <em>tanglefoot bag</em>, 50 feet of hemp <em>rope</em>, a crowbar, and a wooden <em>holy symbol</em>.</p>"
    },
    "weight": {
      "value": 32
    },
    "price": 120,
    "equipped": false,
    "subType": "gear"
  }
}
