{
  "_id": "TtDnjdwDQAlfWGQ6",
  "name": "Outfit, Scholar's",
  "type": "equipment",
  "img": "systems/pf1/icons/items/equipment/cloak-plain.jpg",
  "system": {
    "description": {
      "value": "<p class=\"source\"><b>Source</b> <em>PZO1110</em></p>\n<p>Perfect for a scholar, this outfit includes a robe, a belt, a cap, soft shoes, and possibly a cloak.</p>"
    },
    "weight": {
      "value": 6
    },
    "price": 5,
    "subType": "misc",
    "equipmentSubtype": "clothing",
    "slot": "body"
  }
}
