{
  "_id": "oDiFOt3YZlbHhsJh",
  "name": "Outfit, Courtesan's",
  "type": "equipment",
  "img": "systems/pf1/icons/items/equipment/cloak-pink.jpg",
  "system": {
    "description": {
      "value": "<p class=\"source\"><b>Source</b> <em>PPZO94102</em></p>\n<p>This outfit includes fine silk or satin garments tailored to complement your figure. In addition, the outfit contains a loose shawl or robe with several discreet pockets for items such as <em>perfume</em>, massage oils, or even a small @Compendium[pf1.weapons-and-ammo.fOSuWwRSZLTrROch]{dagger}.</p>"
    },
    "weight": {
      "value": 4
    },
    "price": 8,
    "subType": "misc",
    "equipmentSubtype": "clothing",
    "slot": "body"
  }
}
