{
  "_id": "dZbqwmPnBvYdtqpR",
  "name": "Outfit, Traveler's",
  "type": "equipment",
  "img": "systems/pf1/icons/items/equipment/cloak-plain.jpg",
  "system": {
    "description": {
      "value": "<p class=\"source\"><b>Source</b> <em>PZO1110</em></p>\n<p>This set of clothes consists of boots, a wool skirt or breeches, a sturdy belt, a shirt (perhaps with a vest or jacket), and an ample cloak with a hood.</p>"
    },
    "weight": {
      "value": 5
    },
    "price": 1,
    "subType": "misc",
    "equipmentSubtype": "clothing",
    "slot": "body"
  }
}
