{
  "_id": "jxsllgxdbaecyqpq",
  "name": "Seeing Slime",
  "type": "loot",
  "img": "systems/pf1/icons/items/inventory/dice.jpg",
  "system": {
    "description": {
      "value": "<p class=\"source\"><b>Source</b> <em>PZO1140</em></p>\n<p><b>Price</b> 160 gp</p>\n<p>This violet <em>slime mold</em> is found only in rock formations containing nodules of agate.</p>\n<p><b>Gather</b> DC 19; <b>Yield</b> 1 dose</p>\n<p><b>Terrain</b> any underground</p>\n<p><b>Preparation</b> After collecting this rare <em>slime mold</em> from where it naturally occurs in the lightless depths, the herbalist must combine the slime with mineral salts and store it in an airtight container such as a <em>bottle</em> or jar.</p>\n<p><b>Use</b> The slime causes mild skin rashes, but it grants <em>darkvision</em> out to a range of 30 feet for 24 hours if applied to the eyes (a <em>full-round action</em> that provokes <em>attacks of opportunity</em>). If the subject already had <em>darkvision</em>, the <em>darkvision's</em> range increases by 30 feet. Frequent use of this herb causes permanent purple blotches on the skin around the user's eyes.</p>"
    },
    "price": 160,
    "equipped": false,
    "subType": "gear"
  }
}
