{
  "_id": "lcesimgbevgdfzgs",
  "name": "Tattoo, Poison",
  "type": "loot",
  "img": "systems/pf1/icons/items/inventory/dice.jpg",
  "system": {
    "description": {
      "value": "<p class=\"source\"><b>Source</b> <em>PZO1121</em></p>\n<p>This henna-like paste creates a dark brown tattoo on the hands or feet that fades over the next 2d6 days. The tattoo temporarily boosts the strength of a vishkanya's natural poison, increasing the DC of the next weapon envenomed with the vishkanya's blood or saliva by +2 (once used, the tattoo is merely decorative and does not affect the creature's <em>poison</em>). A typical tattoo consists of intricate whorls and spiritual symbols on the hands or feet.</p>"
    },
    "equipped": false,
    "subType": "gear"
  }
}
