{
  "_id": "jzaxdmljvccjgnhr",
  "name": "Trap, Trapped Disguise Kit",
  "type": "loot",
  "img": "systems/pf1/icons/items/inventory/dice.jpg",
  "system": {
    "description": {
      "value": "<p>This appears to be a normal disguise kit, except that if any of the makeup or false facial hair is applied, the victim is marked with a strong <em>scent</em>. This scent mark decreases the DC of tracking the victim by <em>scent</em> by 4. The mark can be washed off with vigorous scrubbing, but otherwise fades on its own over several days.</p>\n<p><b>Type</b> mechanical; <em>Perception</em> DC 25; <em>Disable Device</em> DC 25</p>\n<p>EFFECTS</p>\n<p><b>Trigger</b> touch; <b>Reset</b> repair; <b>Effect</b> scent mark; never miss; <b>onset</b> delayed (1 round)</p>"
    },
    "equipped": false,
    "subType": "gear"
  }
}
