{
  "_id": "wpmpltchkryrlxlu",
  "name": "Vestments, Cleric's",
  "type": "loot",
  "img": "systems/pf1/icons/items/inventory/dice.jpg",
  "system": {
    "description": {
      "value": "<p class=\"source\"><b>Source</b> <em>PZO1110</em></p>\n<p>These clothes are for performing priestly functions, not for adventuring. Cleric's vestments typically include a cassock, stole, and surplice.</p>\n<h3>Jewelry, Perfumes and other Decorative Accessories</h3>"
    },
    "weight": {
      "value": 6
    },
    "price": 5,
    "equipped": false,
    "subType": "gear"
  }
}
