{
  "_id": "cBwQdqQ4KmVBck3t",
  "name": "A Thousand Faces (SHI)",
  "type": "feat",
  "img": "systems/pf1/icons/skills/violet_03.jpg",
  "system": {
    "description": {
      "value": "<p>At 18th level, a shifter gains the ability to change her appearance at will, as if using the @Compendium[pf1.spells.kouqz0pm1xl8xilm]{Alter Self} spell, but only while in her normal form.</p>"
    },
    "tag": "classFeat_aThousandFacesShi",
    "useCustomTag": true,
    "subType": "classFeat",
    "associations": {
      "classes": [["Shifter"]]
    },
    "abilityType": "su"
  }
}
