{
  "_id": "vO3bZ5JRy5MPFmmm",
  "name": "Aberrant Bloodrager Bloodline",
  "type": "feat",
  "img": "systems/pf1/icons/skills/red_13.jpg",
  "system": {
    "description": {
      "value": "<p><em>There is a taint in your blood that is both alien and bizarre. When you bloodrage, this manifests in peculiar and terrifying ways.</em><p><b>Bonus Feats:</b></p>\n<ul>\n<li>@Compendium[pf1.feats.h9nHYLxXvIXBTmup]{Combat Reflexes},</li>\n<li>@Compendium[pf1.feats.fVRnBIHR4Jq6btvm]{Great Fortitude},</li>\n<li>@Compendium[pf1.feats.711B9WNFgpdDKKf2]{Improved Disarm},</li>\n<li>@Compendium[pf1.feats.ZmQkRk93nbHxsQSt]{Improved Grapple},</li>\n<li>@Compendium[pf1.feats.Uuiu3p982omhMEPj]{Improved Initiative},</li>\n<li>@Compendium[pf1.feats.2aTFNMs3pW6nUBlr]{Improved Unarmed Strike},</li>\n<li>@Compendium[pf1.feats.iAbIGhm7T2OK9Brt]{Iron Will}.</li>\n</ul>\n<p><b>Bonus Spells:</b> </p>\n<ul>\n<li>@Compendium[pf1.spells.jnlr9cuepka1l26e]{Enlarge Person} (7th), </li>\n<li>@Compendium[pf1.spells.nokru6mxk9p3r513]{See Invisibility} (10th), </li>\n<li>@Compendium[pf1.spells.r190q9zxmei82lmv]{Displacement} (13th), </li>\n<li>@Compendium[pf1.spells.wralcmyi4tdcai24]{Black Tentacles} (16th)</li>\n</ul>"
    },
    "tag": "classFeat_aberrantBloodragerBloodline",
    "useCustomTag": true,
    "subType": "classFeat",
    "associations": {
      "classes": [["Bloodrager"]]
    }
  }
}
