{
  "_id": "mrLvjFOeZOIlM5mW",
  "name": "Abnormal Reach",
  "type": "feat",
  "img": "systems/pf1/icons/skills/red_05.jpg",
  "system": {
    "description": {
      "value": "<p>At 4th level, your limbs elongate; your reach increases by 5 feet.</p>"
    },
    "tag": "classFeat_abnormalReach",
    "useCustomTag": true,
    "subType": "classFeat",
    "associations": {
      "classes": [["Bloodrager"]]
    },
    "abilityType": "su"
  }
}
