{
  "_id": "042BafLhw5SsMsg6",
  "name": "Accurate Stance (UC)",
  "type": "feat",
  "img": "systems/pf1/icons/feats/deafening-critical.jpg",
  "system": {
    "description": {
      "value": "<p>The barbarian can focus her strikes. She gains a +1 competence bonus on melee attack rolls and thrown weapon attack rolls. This bonus increases by 1 for every 4 levels the barbarian has.</p>\n<p>This is a stance rage power.</p>"
    },
    "actions": [
      {
        "_id": "39f0vxwbxgzq10s2",
        "name": "Use",
        "img": "systems/pf1/icons/feats/deafening-critical.jpg",
        "activation": {
          "type": "move"
        },
        "uses": {
          "autoDeductChargesCost": "0"
        },
        "actionType": ""
      }
    ],
    "tag": "classFeat_accurateStanceUc",
    "useCustomTag": true,
    "subType": "classFeat",
    "associations": {
      "classes": [["Barbarian (Unchained)"]]
    },
    "abilityType": "ex"
  }
}
