{
  "_id": "biOw5dSbJGsGVFwN",
  "name": "Acid Dart (WIZ)",
  "type": "feat",
  "img": "systems/pf1/icons/spells/beam-acid-1.jpg",
  "system": {
    "description": {
      "value": "<p>As a standard action you can unleash an acid dart targeting any foe within 30 feet as a ranged touch attack. The acid dart deals 1d6 points of acid damage + 1 for every two wizard levels you possess. You can use this ability a number of times per day equal to 3 + your <em>Intelligence</em> modifier. This attack ignores spell resistance.</p>"
    },
    "actions": [
      {
        "_id": "moiypv8add4tbpb1",
        "name": "Use",
        "img": "systems/pf1/icons/spells/beam-acid-1.jpg",
        "activation": {
          "type": "standard"
        },
        "unchainedAction": {
          "activation": {
            "cost": 2,
            "type": "action"
          }
        },
        "duration": {
          "units": "inst"
        },
        "range": {
          "units": "seeText"
        },
        "uses": {
          "autoDeductChargesCost": "0"
        },
        "actionType": "rsak",
        "damage": {
          "parts": [
            {
              "formula": "1d6 + floor(@classes.wizard.level / 2)",
              "type": {
                "values": ["acid"],
                "custom": ""
              }
            }
          ]
        },
        "ability": {
          "attack": "dex"
        }
      }
    ],
    "uses": {
      "per": "day",
      "maxFormula": "3 + @abilities.int.mod"
    },
    "tag": "classFeat_acidDartWiz",
    "useCustomTag": true,
    "subType": "classFeat",
    "associations": {
      "classes": [["Wizard"]]
    },
    "abilityType": "su"
  }
}
