{
  "_id": "An77ZbKHexO7P0UC",
  "name": "Acid Resistance",
  "type": "feat",
  "img": "systems/pf1/icons/spells/protect-magenta-2.jpg",
  "system": {
    "description": {
      "value": "<p>At 6th level, you gain resist acid 10. This resistance increases to 20 at 12th level. At 20th level, you gain immunity to acid.</p>"
    },
    "actions": [
      {
        "_id": "lsdcmuxvo88zorkf",
        "name": "Use",
        "img": "systems/pf1/icons/spells/protect-magenta-2.jpg",
        "activation": {
          "type": "passive"
        },
        "unchainedAction": {
          "activation": {
            "type": "passive"
          }
        },
        "actionType": ""
      }
    ],
    "tag": "classFeat_acidResistance",
    "useCustomTag": true,
    "subType": "classFeat",
    "associations": {
      "classes": [["Cleric"]]
    },
    "abilityType": "ex"
  }
}
