{
  "_id": "eEOxZoLOPflvNv5W",
  "name": "Air Barrier",
  "type": "feat",
  "img": "systems/pf1/icons/spells/light-royal-1.jpg",
  "system": {
    "description": {
      "value": "<p>You can create an invisible shell of air that grants you a +4 armor bonus.</p>\n<p>At 7th level, and every four levels thereafter, this bonus increases by +2.</p>\n<p>At 13th level, this barrier causes incoming arrows, rays, and other ranged attacks requiring an attack roll against you to have a 50% miss chance.</p>\n<p>You can use this barrier for 1 hour per day per oracle level. This duration does not need to be consecutive, but it must be spent in 1-hour increments.</p>"
    },
    "actions": [
      {
        "_id": "flp846mce9jiapcl",
        "name": "Use",
        "img": "systems/pf1/icons/spells/light-royal-1.jpg",
        "activation": {
          "type": "standard"
        },
        "unchainedAction": {
          "activation": {
            "cost": 2,
            "type": "action"
          }
        },
        "duration": {
          "value": "1",
          "units": "hour"
        },
        "target": {
          "value": "self"
        },
        "range": {
          "units": "personal"
        },
        "actionType": ""
      }
    ],
    "uses": {
      "per": "day",
      "maxFormula": "@classes.oracle.level"
    },
    "tag": "classFeat_airBarrier",
    "useCustomTag": true,
    "subType": "classFeat",
    "associations": {
      "classes": [["Oracle"]]
    },
    "abilityType": "ex"
  }
}
