{
  "_id": "z8LYyPmi2t8Lt1Xj",
  "name": "Alchemist Discovery",
  "type": "feat",
  "img": "systems/pf1/icons/items/weapons/sword-cane.png",
  "system": {
    "description": {
      "value": "<p>The investigator can select one of the following alchemist discoveries as an investigator talent:</p>\n<ul>\n<li>@Compendium[pf1.class-abilities.lyqEPQDhcr20TTLD]{Combine Extracts}</li>\n<li>@Compendium[pf1.class-abilities.rl7CfuBC0yFyIC7P]{Concentrate Poison}</li>\n<li>@Compendium[pf1.class-abilities.RG1cy6Mqv8yk7vgE]{Dilution}</li>\n<li>@Compendium[pf1.class-abilities.Oyxrd5pd7kkzsuJq]{Elixir of Life}</li>\n<li>@Compendium[pf1.class-abilities.r6Nfpcar9v7YjfgD]{Enhance Potion}</li>\n<li>@Compendium[pf1.class-abilities.sBkRwnCQsOWRFv4X]{Eternal Potion}</li>\n<li>@Compendium[pf1.class-abilities.wTgdqbe6yI4A0WVu]{Extend Potion}</li>\n<li>@Compendium[pf1.class-abilities.01lGus1TU5hTsrO3]{Infusion}</li>\n<li>@Compendium[pf1.class-abilities.ufzQpQBCyoJ8M9DD]{Mutagen (Discovery)}</li>\n<li>@Compendium[pf1.class-abilities.HaLB9xLAPdNCBQRP]{Poison Conversion}</li>\n</ul>\n<p>When selecting an alchemist discovery, he must be high enough level to qualify for that discovery, using his investigator level as his alchemist level to determine if he qualifies.</p>\n<p>This talent can be selected multiple times; each time grants a new alchemist discovery.</p>"
    },
    "tag": "classFeat_alchemistDiscovery",
    "useCustomTag": true,
    "subType": "classFeat",
    "associations": {
      "classes": [["Investigator"]]
    },
    "abilityType": "ex"
  }
}
