{
  "_id": "BbPNVhxAFvdglDea",
  "name": "All the Stars in the Sky",
  "type": "feat",
  "img": "systems/pf1/icons/items/weapons/kunai.png",
  "system": {
    "description": {
      "value": "<p>Certain master ninjas possess a seemingly limitless supply of their trusted weapons. Whenever a ninja with this trick buys a set of 50 identical magic shuriken, she thereafter replenishes them at no cost and never runs out. This stock of magical shuriken can be upgraded as though it were a normal magic weapon, and shuriken upgraded this way likewise never run out.</p>"
    },
    "tag": "classFeat_allTheStarsInTheSky",
    "useCustomTag": true,
    "subType": "classFeat",
    "associations": {
      "classes": [["Ninja"]]
    },
    "abilityType": "ex"
  }
}
