{
  "_id": "bqJOJF5OXJlOxjf3",
  "name": "Ambush Subdomain",
  "type": "feat",
  "img": "systems/pf1/icons/skills/affliction_24.jpg",
  "system": {
    "description": {
      "value": "<p><b>Replacement Power:</b> <em>Note:</em> Only creatures with the <a href=\"https://aonprd.com/TraitDisplay.aspx?ItemName=Kobold%20Faith\">Kobold Faith</a> trait can take this subdomain.</p>\n<p><b>Replacement Domain Spells:</b></p>\n<ul>\n<li>1st—@Compendium[pf1.spells.nee6cxpoekp3aklq]{Alarm}</li>\n<li>5th—@Compendium[pf1.spells.7c0l64pfdkgl7j5y]{Illusory Wall}</li>\n<li>6th—@Compendium[pf1.spells.fxwycv6d7xwzua4t]{Veil}</li>\n</ul>"
    },
    "tag": "classFeat_ambushSubdomain",
    "useCustomTag": true,
    "subType": "classFeat",
    "associations": {
      "classes": [["Cleric"]]
    }
  }
}
