{
  "_id": "YmBMsDECKIuRWIQ6",
  "name": "Armored Swiftness",
  "type": "feat",
  "img": "systems/pf1/icons/items/weapons/rhoka.PNG",
  "system": {
    "description": {
      "value": "<p>In time, the heaviest armor can become like a second skin. A slayer with this talent can move at full speed in heavy armor. In addition, the maximum Dexterity bonus of heavy armor the slayer wears increases by 1 for every 6 class levels he has.</p>\n<p>A slayer must have the armored marauder slayer talent to select this talent.</p>"
    },
    "tag": "classFeat_armoredSwiftness",
    "useCustomTag": true,
    "subType": "classFeat",
    "associations": {
      "classes": [["Slayer"]]
    },
    "abilityType": "ex"
  }
}
