{
  "_id": "ESZgqeCcCAMG0CFQ",
  "name": "Asmodeus's Boon",
  "type": "feat",
  "img": "systems/pf1/icons/spells/light-royal-1.jpg",
  "system": {
    "description": {
      "value": "<p>Whenever a creature fails a saving throw and takes damage from one of your spells, it is shaken for a number of rounds equal to the spell’s level. Spells that do not allow saves do not cause creatures to become shaken. This does not stack with other fear effects.</p>"
    },
    "actions": [
      {
        "_id": "9ghw18gd0qsn6ouk",
        "name": "Use",
        "img": "systems/pf1/icons/spells/light-royal-1.jpg",
        "activation": {
          "type": "passive"
        },
        "unchainedAction": {
          "activation": {
            "type": "passive"
          }
        },
        "actionType": ""
      }
    ],
    "tag": "classFeat_asmodeussBoon",
    "useCustomTag": true,
    "subType": "classFeat",
    "associations": {
      "classes": [["Oracle"]]
    },
    "abilityType": "sp"
  }
}
