{
  "_id": "r5dE8fMdwjLVCHma",
  "name": "Aspect",
  "type": "feat",
  "img": "systems/pf1/icons/skills/beast_01.jpg",
  "system": {
    "description": {
      "value": "<p>At 10th level, a summoner can divert up to 2 points from his eidolon’s evolution pool to add evolutions to himself. He cannot select any evolution that the eidolon could not possess, and he must be able to meet the requirements as well. He cannot select the ability increase evolution through this ability. Any points spent in this way are taken from the eidolon’s evolution pool (reducing the total number available to the eidolon). The summoner can change the evolutions he receives from these points any time he can change the eidolon’s evolutions.</p>"
    },
    "actions": [
      {
        "_id": "7og39nnc538wdssz",
        "name": "Use",
        "img": "systems/pf1/icons/skills/beast_01.jpg",
        "activation": {
          "type": "passive"
        },
        "unchainedAction": {
          "activation": {
            "type": "passive"
          }
        },
        "actionType": ""
      }
    ],
    "tag": "classFeat_aspect",
    "useCustomTag": true,
    "subType": "classFeat",
    "associations": {
      "classes": [["Summoner"]]
    },
    "abilityType": "su"
  }
}
