{
  "_id": "7EC0mC6pUPikLYkg",
  "name": "Aura of Forgetfulness",
  "type": "feat",
  "img": "systems/pf1/icons/skills/emerald_04.jpg",
  "system": {
    "description": {
      "value": "<p>At 8th level, you can emit a 30-foot aura of forgetfulness for a number of rounds per day equal to your cleric level. Creatures you target in this area must make a Will save or have no memory of any time spent inside the area. In addition, spellcasters in the area lose one prepared spell or available spell slot per round spent in the area, starting with 1st-level spells and going up through higher-level spells. Spellcasters are allowed a save each round to negate this loss (this save is separate from the memory loss save). These rounds do not need to be consecutive.</p>\n<p>This power replaces the Eyes of Darkness power of the Darkness Domain.</p>"
    },
    "actions": [
      {
        "_id": "jk5d4cpgjzrwkfe5",
        "name": "Use",
        "img": "systems/pf1/icons/skills/emerald_04.jpg",
        "activation": {
          "type": "swift"
        },
        "unchainedAction": {
          "activation": {
            "type": "action"
          }
        },
        "duration": {
          "value": "1",
          "units": "round"
        },
        "target": {
          "value": "self"
        },
        "range": {
          "units": "personal"
        },
        "actionType": ""
      }
    ],
    "uses": {
      "per": "day",
      "maxFormula": "@classes.cleric.level"
    },
    "tag": "classFeat_auraOfForgetfulness",
    "useCustomTag": true,
    "subType": "classFeat",
    "associations": {
      "classes": [["Cleric"]]
    },
    "abilityType": "su"
  }
}
