{
  "_id": "2NNtD0g0pBXXdPpW",
  "name": "Auspicious Mark (UC)",
  "type": "feat",
  "img": "systems/pf1/icons/feats/deafening-critical.jpg",
  "system": {
    "description": {
      "value": "<p>The barbarian has been marked by the spirits, as indicated by an impressive tattoo, scar, or birthmark she possesses. As a swift action, she can call upon the spirits’ favor to increase any d20 roll she just made by rolling 1d6 and adding it to the result. This bonus increases by 1 for every 4 levels she has. She can call on the auspicious mark after seeing the result of the d20 roll. This ability can be used only once per day.</p>"
    },
    "actions": [
      {
        "_id": "tmpp5r16f11q2sxh",
        "name": "Use",
        "img": "systems/pf1/icons/feats/deafening-critical.jpg",
        "activation": {
          "type": "swift"
        },
        "unchainedAction": {
          "activation": {
            "type": "action"
          }
        },
        "duration": {
          "units": "inst"
        },
        "target": {
          "value": "self"
        },
        "range": {
          "units": "personal"
        },
        "uses": {
          "autoDeductChargesCost": "0"
        },
        "actionType": ""
      }
    ],
    "uses": {
      "per": "day",
      "maxFormula": "1"
    },
    "tag": "classFeat_auspiciousMarkUc",
    "useCustomTag": true,
    "subType": "classFeat",
    "associations": {
      "classes": [["Barbarian (Unchained)"]]
    },
    "abilityType": "ex"
  }
}
