{
  "_id": "gFddoXISoGKCvpD2",
  "name": "Bite (UC) (1 pt)",
  "type": "feat",
  "img": "systems/pf1/icons/skills/blue_26.jpg",
  "system": {
    "description": {
      "value": "<p><b>Requirements:</b> Agathion, daemon, demon, devil, div, elemental, protean, or psychopomp subtype.</p>\n<p>The eidolon’s maw is full of razor-sharp teeth, giving it a bite attack. This attack is a primary attack. The bite deals 1d6 points of damage (1d8 if Large, 2d6 if Huge). If the eidolon already has a bite attack, this evolution allows it to deal 1-1/2 times its Strength modifier on damage rolls made with its bite.</p>"
    },
    "tag": "classFeat_biteUc1Pt",
    "useCustomTag": true,
    "subType": "classFeat",
    "associations": {
      "classes": [["Eidolon (Unchained)"]]
    },
    "abilityType": "ex"
  }
}
