{
  "_id": "xHg1RuRmKpSKbSsd",
  "name": "Blinding Ray",
  "type": "feat",
  "img": "systems/pf1/icons/spells/beam-sky-3.jpg",
  "system": {
    "description": {
      "value": "<p>As a standard action you can fire a shimmering ray at any foe within 30 feet as a ranged touch attack. The ray causes creatures to be <em>blinded</em> for 1 round. Creatures with more Hit Dice than your wizard level are <em>dazzled</em> for 1 round instead. You can use this ability a number of times per day equal to 3 + your <em>Intelligence</em> modifier.</p>"
    },
    "actions": [
      {
        "_id": "c9cmmlqses5478p9",
        "name": "Use",
        "img": "systems/pf1/icons/spells/beam-sky-3.jpg",
        "activation": {
          "type": "standard"
        },
        "unchainedAction": {
          "activation": {
            "cost": 2,
            "type": "action"
          }
        },
        "duration": {
          "units": "inst"
        },
        "range": {
          "units": "seeText"
        },
        "actionType": ""
      }
    ],
    "uses": {
      "per": "day",
      "maxFormula": "3 + @abilities.int.mod"
    },
    "tag": "classFeat_blindingRay",
    "useCustomTag": true,
    "subType": "classFeat",
    "associations": {
      "classes": [["Wizard"]]
    },
    "abilityType": "sp"
  }
}
