{
  "_id": "Q9OIkgxvOhtvKcCE",
  "name": "Bonded Object",
  "type": "feat",
  "img": "systems/pf1/icons/items/jewelry/ring-purple.jpg",
  "system": {
    "description": {
      "value": "<p>At 1st level, you gain an arcane bond, per a <em>wizard</em> equal to your <em>sorcerer</em> level, with an object constructed by a long-lost civilization. Your <em>sorcerer</em> levels stack with any <em>wizard</em> levels you have when determining the powers of your bonded object. This ability does not allow you to have both a <em>familiar</em> and a bonded object. Once per day, your bonded object allows you to cast any one of your spells known and increase the save DC of that spell by 1.</p>"
    },
    "actions": [
      {
        "_id": "hrjlzmegi4bueelc",
        "name": "Use",
        "img": "systems/pf1/icons/items/jewelry/ring-purple.jpg",
        "activation": {
          "type": "passive"
        },
        "unchainedAction": {
          "activation": {
            "type": "passive"
          }
        },
        "actionType": ""
      }
    ],
    "tag": "classFeat_bondedObject",
    "useCustomTag": true,
    "subType": "classFeat",
    "associations": {
      "classes": [["Sorcerer"]]
    },
    "abilityType": "sp"
  }
}
