{
  "_id": "6wtTc1PRWBKZuF9D",
  "name": "Brawler's Cunning",
  "type": "feat",
  "img": "systems/pf1/icons/skills/yellow_08.jpg",
  "system": {
    "description": {
      "value": "<p>If the brawler’s Intelligence score is less than 13, it counts as 13 for the purpose of meeting the prerequisites of combat feats.</p>"
    },
    "tag": "classFeat_brawlersCunning",
    "useCustomTag": true,
    "subType": "classFeat",
    "associations": {
      "classes": [["Brawler"]]
    },
    "abilityType": "ex"
  }
}
