{
  "_id": "8nVgKDcPUcJBCYL7",
  "name": "Calm Stance (UC)",
  "type": "feat",
  "img": "systems/pf1/icons/feats/deafening-critical.jpg",
  "system": {
    "description": {
      "value": "<p>The barbarian can enter a state of calm. While in this stance, the barbarian doesn’t gain any benefits from rage other than the temporary hit points, but she doesn’t take any of the penalties from rage (including the penalty to AC and the restriction on actions she can take). Rounds spent in a calm stance still count against her total number of rounds of rage per day.</p>\n<p>This is a stance rage power.</p>"
    },
    "actions": [
      {
        "_id": "3hamq72t497oyv4n",
        "name": "Use",
        "img": "systems/pf1/icons/feats/deafening-critical.jpg",
        "activation": {
          "type": "move"
        },
        "uses": {
          "autoDeductChargesCost": "0"
        },
        "actionType": ""
      }
    ],
    "tag": "classFeat_calmStanceUc",
    "useCustomTag": true,
    "subType": "classFeat",
    "associations": {
      "classes": [["Barbarian (Unchained)"]]
    },
    "abilityType": "ex"
  }
}
