{
  "_id": "s8IfMD55rv71JTur",
  "name": "Cannibalism Subdomain",
  "type": "feat",
  "img": "systems/pf1/icons/skills/blood_07.jpg",
  "system": {
    "description": {
      "value": "<p><b>Replacement Domain Spells:</b></p>\n<ul>\n<li>1st—@Compendium[pf1.spells.cfzk3vkv1c7ncaug]{Magic Fang}</li>\n<li>2nd— @Compendium[pf1.spells.wmcrke29frt5k3di]{Enemy's Heart}</li>\n<li>3rd—@Compendium[pf1.spells.bgtmki0xl4xl4y91]{Magic Fang, Greater}</li>\n</ul>"
    },
    "tag": "classFeat_cannibalismSubdomain",
    "useCustomTag": true,
    "subType": "classFeat",
    "associations": {
      "classes": [["Cleric"]]
    }
  }
}
