{
  "_id": "ieI7su1zQYRe2KzG",
  "name": "Cauldron",
  "type": "feat",
  "img": "systems/pf1/icons/skills/violet_02.jpg",
  "system": {
    "description": {
      "value": "<p>The witch receives @Compendium[pf1.feats.nNVFVFRBCT4O2ab9]{Brew Potion} as a bonus feat and a +4 insight bonus on Craft (alchemy) skill checks.</p>"
    },
    "tags": ["Hex"],
    "tag": "classFeat_cauldron",
    "useCustomTag": true,
    "subType": "classFeat",
    "associations": {
      "classes": [["Witch"]]
    },
    "abilityType": "ex"
  }
}
