{
  "_id": "wCnrlUyDFbn3sVu5",
  "name": "Celestial Blood",
  "type": "feat",
  "img": "systems/pf1/icons/feats/deafening-critical.jpg",
  "system": {
    "description": {
      "value": "<p>While raging, the barbarian gains resistance 5 to acid and cold.</p>"
    },
    "tag": "classFeat_celestialBlood",
    "useCustomTag": true,
    "subType": "classFeat",
    "associations": {
      "classes": [["Barbarian"], ["Skald"]]
    },
    "abilityType": "su"
  }
}
