{
  "_id": "vfJjbVhERqLfZVxM",
  "name": "Chameleon",
  "type": "feat",
  "img": "systems/pf1/icons/items/potions/unique-3.jpg",
  "system": {
    "description": {
      "value": "<p>An alchemist with this discovery can shift the colors of his skin and equipment to blend in with the surrounding terrain. He gains a +4 enhancement bonus on Stealth checks. At 10th level, the bonus on Stealth checks increases to +8.</p>"
    },
    "tag": "classFeat_chameleon",
    "useCustomTag": true,
    "subType": "classFeat",
    "associations": {
      "classes": [["Alchemist"]]
    },
    "abilityType": "su"
  }
}
