{
  "_id": "SEqzaRbIn7ePwIOt",
  "name": "Cheat Death",
  "type": "feat",
  "img": "systems/pf1/icons/skills/blood_02.jpg",
  "system": {
    "description": {
      "value": "<p>At 19th level, whenever the gunslinger is reduced to 0 or fewer hit points, she can spend all of her remaining grit points (minimum 1) to instead be reduced to 1 hit point.</p>"
    },
    "tags": ["Gunslinger Deed"],
    "actions": [
      {
        "_id": "V2apRS56LvQu7xPK",
        "name": "Use",
        "img": "systems/pf1/icons/skills/blood_02.jpg",
        "activation": {
          "type": "nonaction"
        },
        "actionType": ""
      }
    ],
    "tag": "classFeat_cheatDeath",
    "useCustomTag": true,
    "subType": "classFeat",
    "associations": {
      "classes": [["Gunslinger"]]
    },
    "abilityType": "ex"
  }
}
