{
  "_id": "OuQEx5uUHXcxtpsf",
  "name": "City Sight",
  "type": "feat",
  "img": "systems/pf1/icons/skills/violet_02.jpg",
  "system": {
    "description": {
      "value": "<p>The witch curses a target with the simple vision of urban mortals. On a failed Fortitude save, the subject loses the use of darkvision, greensight, low-light vision, see in darkness, and other visual abilities beyond simple sight, but not nonvisual means of perception like blindsight, scent, or tremorsense. This effect lasts 1 minute.</p>\n<p>At 8th level, this effect lasts for 10 minutes instead. Whether or not the creature succeeds at the saving throw, it can’t be the target of this hex again for 1 day.</p>"
    },
    "tags": ["Hex"],
    "actions": [
      {
        "_id": "5oqllgs77gc4s3k4",
        "name": "Use",
        "img": "systems/pf1/icons/skills/violet_02.jpg",
        "activation": {
          "type": "standard"
        },
        "unchainedAction": {
          "activation": {
            "cost": 2,
            "type": "action"
          }
        },
        "duration": {
          "value": "@classes.witch.level >= 8 ? 10 : 1",
          "units": "minute"
        },
        "target": {
          "value": "one creature"
        },
        "actionType": ""
      }
    ],
    "tag": "classFeat_citySight",
    "useCustomTag": true,
    "subType": "classFeat",
    "associations": {
      "classes": [["Witch"]]
    },
    "abilityType": "su"
  }
}
