{
  "_id": "hybEecH3aiZDkjNt",
  "name": "Cleansing Flames",
  "type": "feat",
  "img": "systems/pf1/icons/spells/light-royal-1.jpg",
  "system": {
    "description": {
      "value": "<p>As a swift action, you can take 1d4 points of damage per oracle level to gain a new saving throw against a single ongoing effect. The effect must be one for which you already failed a saving throw. If you succeed, the effect is removed.</p>\n<p>At 7th and 15th levels, you can use this ability one additional time per day.</p>"
    },
    "actions": [
      {
        "_id": "ivb0ce7pltt7x20c",
        "name": "Use",
        "img": "systems/pf1/icons/spells/light-royal-1.jpg",
        "activation": {
          "type": "swift"
        },
        "unchainedAction": {
          "activation": {
            "type": "action"
          }
        },
        "duration": {
          "units": "inst"
        },
        "target": {
          "value": "self"
        },
        "range": {
          "units": "personal"
        },
        "actionType": ""
      }
    ],
    "uses": {
      "per": "day",
      "maxFormula": "@classes.oracle.level >= 15 ? 3 : ((@classes.oracle.level < 15 && @classes.oracle.level > 6) ? 2 : 1)"
    },
    "tag": "classFeat_cleansingFlames",
    "useCustomTag": true,
    "subType": "classFeat",
    "associations": {
      "classes": [["Oracle"]]
    },
    "abilityType": "su"
  }
}
