{
  "_id": "Sk24aCanAyUlnPlF",
  "name": "Clockwork Heart",
  "type": "feat",
  "img": "systems/pf1/icons/spells/rock-sky-3.jpg",
  "system": {
    "description": {
      "value": "<p><b>Element</b> earth; <b>Type</b> utility (Su); <b>Level</b> 3; <b>Burn</b> 0<br><b>Prerequisite</b> metal blast</p>\n<p>You have used your power over metal to add clockwork components to your own body. So long as these clockwork components are kept wound (per the <a href=\"https://aonprd.com/MonsterSubtypes.aspx?ItemName=Clockwork\">winding ability of the clockwork subtype</a>), you gain the benefits of both the @Compendium[pf1.feats.Uuiu3p982omhMEPj]{Improved Initiative} and @Compendium[pf1.feats.0bZf3SDkvVOe2ujH]{Lightning Reflexes} feats.</p>"
    },
    "tag": "classFeat_clockworkHeart",
    "useCustomTag": true,
    "subType": "classFeat",
    "associations": {
      "classes": [["Kineticist"]]
    },
    "abilityType": "su"
  }
}
