{
  "_id": "7R0XwVjXcWC3ngd5",
  "name": "Clockwork Puppet",
  "type": "feat",
  "img": "systems/pf1/icons/spells/rock-sky-3.jpg",
  "system": {
    "description": {
      "value": "<p><b>Element</b> earth; <b>Type</b> utility (Su); <b>Level</b> 5; <b>Burn</b> 0<br><b>Prerequisite</b> metal blast</p>\n<p>You can weave metal into clockwork parts, creating clockwork constructs to attack your foes. This functions as the <a href=\"https://aonprd.com/KineticistTalentsDisplay.aspx?ItemName=%Aether%20Puppet\">aether puppet</a> wild talent, except the object animated gains the clockwork subtype and cannot have the stone Construction Point ability.</p>"
    },
    "tag": "classFeat_clockworkPuppet",
    "useCustomTag": true,
    "subType": "classFeat",
    "associations": {
      "classes": [["Kineticist"]]
    },
    "abilityType": "su"
  }
}
