{
  "_id": "qvi1mBWXbMfRKieM",
  "name": "Closed Book",
  "type": "feat",
  "img": "systems/pf1/icons/items/inventory/badge-cross.jpg",
  "system": {
    "description": {
      "value": "<p>At 8th level, it becomes difficult for your foes to unveil your secrets. You are constantly under the effect of @Compendium[pf1.spells.awia42zci8nufpfl]{Nondetection}, as if you cast the spell on yourself.</p>"
    },
    "actions": [
      {
        "_id": "r6ra5zicfhpv9pu6",
        "name": "Use",
        "img": "systems/pf1/icons/items/inventory/badge-cross.jpg",
        "activation": {
          "type": "passive"
        },
        "unchainedAction": {
          "activation": {
            "type": "passive"
          }
        },
        "actionType": ""
      }
    ],
    "tag": "classFeat_closedBook",
    "useCustomTag": true,
    "subType": "classFeat",
    "associations": {
      "classes": [["Inquisitor"]]
    },
    "abilityType": "sp"
  }
}
