{
  "_id": "EdCUShKh7N2r29Jn",
  "name": "Clouded Vision Curse",
  "type": "feat",
  "img": "systems/pf1/icons/spells/horror-eerie-1.jpg",
  "system": {
    "description": {
      "value": "<p>Your eyes are obscured, making it difficult for you to see. You cannot see anything beyond 30 feet, but you can see as if you had darkvision.</p>\n<p>At 5th level, this distance increases to 60 feet.</p>\n<p>At 10th level, you gain blindsense out to a range of 30 feet.</p>\n<p>At 15th level, you gain blindsight out to a range of 15 feet.</p>"
    },
    "tag": "classFeat_cloudedVisionCurse",
    "useCustomTag": true,
    "subType": "classFeat",
    "associations": {
      "classes": [["Oracle"]]
    }
  }
}
