{
  "_id": "clPc6zJ7ijxMhaBp",
  "name": "Color Beam",
  "type": "feat",
  "img": "systems/pf1/icons/items/jewelry/ring-orange.jpg",
  "system": {
    "description": {
      "value": "<p>As a standard action, you can expend 1 point of mental focus to unleash a beam of cascading colors at any one target within 30 feet. Doing so requires a ranged touch attack. If the beam hits, the target is blinded for 1 round if it has a number of Hit Dice equal to or lower than your occultist level.</p>\n<p>A foe with a number of Hit Dice greater than your occultist level is instead dazzled for 1 round.</p>\n<p>The foe can attempt a Will save to negate the effect.</p>\n<p>Regardless of whether it succeeds at its save, the target is then immune to this effect for 1 day. This is a mind-affecting illusion effect.</p>"
    },
    "actions": [
      {
        "_id": "bidyl4a2wxf3ects",
        "name": "Use",
        "img": "systems/pf1/icons/items/jewelry/ring-orange.jpg",
        "activation": {
          "type": "standard"
        },
        "unchainedAction": {
          "activation": {
            "cost": 2,
            "type": "action"
          }
        },
        "duration": {
          "value": "1",
          "units": "round"
        },
        "target": {
          "value": "one creature"
        },
        "range": {
          "value": "30",
          "units": "ft"
        },
        "actionType": "spellsave",
        "save": {
          "type": "will",
          "description": "Will negates"
        }
      }
    ],
    "tag": "classFeat_colorBeam",
    "useCustomTag": true,
    "subType": "classFeat",
    "associations": {
      "classes": [["Occultist"]]
    },
    "abilityType": "sp"
  }
}
