{
  "_id": "LZUXOunBL9HGWhxp",
  "name": "Combat Hypnosis",
  "type": "feat",
  "img": "systems/pf1/icons/skills/violet_02.jpg",
  "system": {
    "description": {
      "value": "<p>The witch can lull her enemies into a trance, even in the chaos of combat. This hex functions as @Compendium[pf1.spells.3ntxp3zun1j9mf0m]{Hypnotism}, except it can affect only one creature at a time, and the target creature does not receive the usual +2 bonus on its saving throw while in combat. Whether or not the save is successful, a creature cannot be the target of this hex again for 1 day.</p>"
    },
    "tags": ["Hex"],
    "actions": [
      {
        "_id": "2nhp1stj97t7qftt",
        "name": "Use",
        "img": "systems/pf1/icons/skills/violet_02.jpg",
        "activation": {
          "type": "standard"
        },
        "unchainedAction": {
          "activation": {
            "cost": 2,
            "type": "action"
          }
        },
        "duration": {
          "value": "2d4",
          "units": "round"
        },
        "target": {
          "value": "one creature"
        },
        "range": {
          "units": "close"
        },
        "actionType": ""
      }
    ],
    "tag": "classFeat_combatHypnosis",
    "useCustomTag": true,
    "subType": "classFeat",
    "associations": {
      "classes": [["Witch"]]
    },
    "abilityType": "su"
  }
}
