{
  "_id": "S6hMuNuZpnY2sSpU",
  "name": "Confounding Blades",
  "type": "feat",
  "img": "systems/pf1/icons/items/weapons/butterfly-knife.PNG",
  "system": {
    "description": {
      "value": "<p>When a rogue with this talent hits a creature with a melee weapon that deals sneak attack damage, her target cannot make attacks of opportunity for 1d4+1 rounds. The rogue must have the slow reactions rogue talent before she can choose this talent.</p>"
    },
    "tag": "classFeat_confoundingBlades",
    "useCustomTag": true,
    "subType": "classFeat",
    "associations": {
      "classes": [["Rogue"]]
    },
    "abilityType": "ex"
  }
}
