{
  "_id": "F3ESN1IqxO9bncN0",
  "name": "Confusing Strike",
  "type": "feat",
  "img": "systems/pf1/icons/items/weapons/sword-cane.png",
  "system": {
    "description": {
      "value": "<p>When the investigator deals damage with studied strike, the opponent must succeed at a Fortitude saving throw or become confused for 1d4+1 rounds. A successful saving throw reduces the duration to 1 round. The DC for this Fortitude save is equal to 10 + 1/2 the investigator’s level + his Intelligence modifier. Constructs, mindless creatures, oozes, plants, undead, incorporeal creatures, and creatures immune to critical hits are not affected by this ability.</p>\n<p>An investigator must be at least 19th level to select this talent.</p>"
    },
    "actions": [
      {
        "_id": "05l9nsko56bpgpjx",
        "name": "Use",
        "img": "systems/pf1/icons/items/weapons/sword-cane.png",
        "actionType": "save",
        "save": {
          "type": "fort",
          "description": "Fortitude reduces to 1 round confusion"
        }
      }
    ],
    "tag": "classFeat_confusingStrike",
    "useCustomTag": true,
    "subType": "classFeat",
    "associations": {
      "classes": [["Investigator"]]
    },
    "abilityType": "ex"
  }
}
