{
  "_id": "jypzZBIrBUXcXuIL",
  "name": "Daemonic Resistances",
  "type": "feat",
  "img": "systems/pf1/icons/spells/evil-eye-red-1.jpg",
  "system": {
    "description": {
      "value": "<p>At 3rd level, you gain resist acid 5 and a +2 bonus on saving throws made against <em>poison</em> and death effects. At 9th level, your <em>resistance</em> to acid increases to 10 and your bonus on saving throws against <em>poison</em> and death effects increases to +4.</p>"
    },
    "actions": [
      {
        "_id": "uxbwro7acuijonp3",
        "name": "Use",
        "img": "systems/pf1/icons/spells/evil-eye-red-1.jpg",
        "activation": {
          "type": "passive"
        },
        "unchainedAction": {
          "activation": {
            "type": "passive"
          }
        },
        "actionType": ""
      }
    ],
    "tag": "classFeat_daemonicResistances",
    "useCustomTag": true,
    "subType": "classFeat",
    "associations": {
      "classes": [["Sorcerer"]]
    },
    "abilityType": "ex"
  }
}
