{
  "_id": "sIYlzCHjaX5gTCZv",
  "name": "Dampening Infusion",
  "type": "feat",
  "img": "systems/pf1/icons/spells/rip-sky-1.jpg",
  "system": {
    "description": {
      "value": "<p><b>Element</b> void; <b>Type</b> substance infusion; <b>Level</b> 1; <b>Burn</b> 1<br><b>Associated Blasts</b> negative, void<br><b>Saving Throw</b> Will negates</p>\n<p>Your kinetic blast swirls with darkness, making it harder for your foes to see. This otherwise functions as dazzling infusion.</p>"
    },
    "actions": [
      {
        "_id": "7gc9fiuqbuvjxxhy",
        "name": "Use",
        "img": "systems/pf1/icons/spells/rip-sky-1.jpg",
        "actionType": "save",
        "save": {
          "type": "will",
          "description": "Will negates"
        }
      }
    ],
    "tag": "classFeat_dampeningInfusion",
    "useCustomTag": true,
    "subType": "classFeat",
    "associations": {
      "classes": [["Kineticist"]]
    }
  }
}
