{
  "_id": "D13TR3rNmjwMPXuD",
  "name": "Deadeye",
  "type": "feat",
  "img": "systems/pf1/icons/skills/weapon_38.jpg",
  "system": {
    "description": {
      "value": "<p>At 1st level, the gunslinger can resolve an attack against touch AC instead of normal AC when firing beyond her firearm’s first range increment. Performing this deed costs 1 grit point per range increment beyond the first. The gunslinger still takes the –2 penalty on attack rolls for each range increment beyond the first when she performs this deed.</p>"
    },
    "tags": ["Gunslinger Deed"],
    "actions": [
      {
        "_id": "kggd4qfYKbEtwZI8",
        "name": "Use",
        "img": "systems/pf1/icons/skills/weapon_44.jpg",
        "activation": {
          "type": "nonaction"
        },
        "actionType": ""
      }
    ],
    "tag": "classFeat_deadeye",
    "useCustomTag": true,
    "subType": "classFeat",
    "associations": {
      "classes": [["Gunslinger"]]
    },
    "abilityType": "ex"
  }
}
