{
  "_id": "yY5vog9dV5DOB5JT",
  "name": "Death's Touch",
  "type": "feat",
  "img": "systems/pf1/icons/spells/light-royal-1.jpg",
  "system": {
    "description": {
      "value": "<p>You can cause terrible wounds to appear on a creature with a melee touch attack. This attack deals 1d6 points of negative energy damage +1 point for every two oracle levels you possess. If used against an undead creature, it heals damage and grants a +2 channel resistance for 1 minute. You can use this ability a number of times per day equal to 3 + your Charisma modifier.</p>"
    },
    "actions": [
      {
        "_id": "6z9hem06l0w9lk6h",
        "name": "Use",
        "img": "systems/pf1/icons/spells/light-royal-1.jpg",
        "activation": {
          "type": "standard"
        },
        "unchainedAction": {
          "activation": {
            "cost": 2,
            "type": "action"
          }
        },
        "duration": {
          "units": "inst"
        },
        "target": {
          "value": "creature touched"
        },
        "range": {
          "units": "touch"
        },
        "actionType": "msak",
        "damage": {
          "parts": [
            {
              "formula": "1d6 + floor(@classes.oracle.level / 2)",
              "type": {
                "values": ["negative"],
                "custom": ""
              }
            }
          ]
        },
        "ability": {
          "attack": "dex"
        }
      }
    ],
    "uses": {
      "per": "day",
      "maxFormula": "3 + @abilities.cha.mod"
    },
    "tag": "classFeat_deathsTouch",
    "useCustomTag": true,
    "subType": "classFeat",
    "associations": {
      "classes": [["Oracle"]]
    },
    "abilityType": "su"
  }
}
