{
  "_id": "RiokaWi4CT1dpSzq",
  "name": "Debilitating Gloom",
  "type": "feat",
  "img": "systems/pf1/icons/items/potions/unique-3.jpg",
  "system": {
    "description": {
      "value": "<p>A creature struck by the gloom must make a successful Fortitude save or take a penalty to its Strength equal to 1d4 + 1 per 2 alchemist levels (maximum of 1d4+5) for 1 round per alchemist level. A target’s Strength score cannot drop below 1. This penalty does not stack with itself.</p>\n<p>An alchemist must be at least 6th level before selecting this discovery.</p>"
    },
    "tag": "classFeat_debilitatingGloom",
    "useCustomTag": true,
    "subType": "classFeat",
    "associations": {
      "classes": [["Alchemist"]]
    }
  }
}
