{
  "_id": "LVtu2aNKQYf0JSLX",
  "name": "Deep One",
  "type": "feat",
  "img": "systems/pf1/icons/skills/ice_14.jpg",
  "system": {
    "description": {
      "value": "<p>At 20th level, you gain <em>blindsense</em> 60 feet and your body is covered with fine, slippery scales granting <em>DR</em> 10/piercing, resist cold 20, and continuous @Compendium[pf1.spells.lvzq2mwkqmozolpl]{Freedom of Movement}. Underwater, you gain evasion and <em>blindsight</em> 120 feet, and you are immune to pressure damage from deep water.</p>"
    },
    "actions": [
      {
        "_id": "q3i2ssqie7r97hsu",
        "name": "Use",
        "img": "systems/pf1/icons/skills/ice_14.jpg",
        "activation": {
          "type": "passive"
        },
        "unchainedAction": {
          "activation": {
            "type": "passive"
          }
        },
        "actionType": ""
      }
    ],
    "tag": "classFeat_deepOne",
    "useCustomTag": true,
    "subType": "classFeat",
    "associations": {
      "classes": [["Sorcerer"]]
    },
    "abilityType": "ex"
  }
}
