{
  "_id": "S7UVH8q3s6SNETrU",
  "name": "Defense Subdomain",
  "type": "feat",
  "img": "systems/pf1/icons/skills/blue_23.jpg",
  "system": {
    "description": {
      "value": "<p><b>Replacement Domain Spells:</b></p>\n<ul>\n<li>1st—@Compendium[pf1.spells.sz7j540uypmqqvti]{Shield}</li>\n<li>2nd—@Compendium[pf1.spells.la7kuehewu85ybnt]{Barkskin}</li>\n<li>7th—@Compendium[pf1.spells.oldkskjzzxe6383i]{Deflection}</li>\n</ul>"
    },
    "tag": "classFeat_defenseSubdomain",
    "useCustomTag": true,
    "subType": "classFeat",
    "associations": {
      "classes": [["Cleric"]]
    }
  }
}
