{
  "_id": "3CgcWBGI6vtz7vZx",
  "name": "Devil Subdomain",
  "type": "feat",
  "img": "systems/pf1/icons/skills/red_02.jpg",
  "system": {
    "description": {
      "value": "<p><b>Replacement Domain Spells:</b> </p>\n<ul>\n<li>1st—@Compendium[pf1.spells.2p6fzj5t03oivndd]{Command}</li>\n<li>3rd—@Compendium[pf1.spells.zqj5qzyl46af27v0]{Suggestion}</li>\n<li>6th—@Compendium[pf1.spells.qf4bqjgeff1q4hjt]{Planar Binding} (devils only)</li>\n</ul>"
    },
    "tag": "classFeat_devilSubdomain",
    "useCustomTag": true,
    "subType": "classFeat",
    "associations": {
      "classes": [["Cleric"]]
    }
  }
}
