{
  "_id": "hwcRSJ1KAX1boUNv",
  "name": "Device Talent",
  "type": "feat",
  "img": "systems/pf1/icons/items/weapons/sword-cane.png",
  "system": {
    "description": {
      "value": "<p>The investigator can use the Use Magic Device skill even if not trained in that skill. If the investigator is trained in Use Magic Device, he can use the inspiration ability with that skill without expending uses of inspiration.</p>"
    },
    "tag": "classFeat_deviceTalent",
    "useCustomTag": true,
    "subType": "classFeat",
    "associations": {
      "classes": [["Investigator"]]
    },
    "abilityType": "ex"
  }
}
