{
  "_id": "0yaWCB8jouXqjOvU",
  "name": "Dimension Door (4 pts)",
  "type": "feat",
  "img": "systems/pf1/icons/skills/blue_26.jpg",
  "system": {
    "description": {
      "value": "<p>An eidolon learns to cast @Compendium[pf1.spells.ojwg1ki98tq8xyh9]{Dimension Door} as a spell-like ability once per day. The caster level for this evolution is equal to the eidolon's Hit Dice. The save DC for this spell is 10 + 1/2 the eidolon's HD + the eidolon's Charisma modifier. The eidolon must have a Charisma score of at least 14 to take this evolution.</p>\n<p>The summoner must be at least 13th level before selecting this evolution.</p>"
    },
    "actions": [
      {
        "_id": "zacua5dzdobdnhn4",
        "name": "Use",
        "img": "systems/pf1/icons/skills/blue_26.jpg",
        "activation": {
          "type": "standard"
        },
        "unchainedAction": {
          "activation": {
            "cost": 2,
            "type": "action"
          }
        },
        "duration": {
          "units": "inst"
        },
        "target": {
          "value": "self"
        },
        "range": {
          "units": "long"
        },
        "actionType": ""
      }
    ],
    "uses": {
      "per": "day",
      "maxFormula": "1"
    },
    "tag": "classFeat_dimensionDoor4Pts",
    "useCustomTag": true,
    "subType": "classFeat",
    "associations": {
      "classes": [["Eidolon"]]
    },
    "abilityType": "sp"
  }
}
