{
  "_id": "Ch7jRk3PNagRCr9D",
  "name": "Dinosaur Companion",
  "type": "feat",
  "img": "systems/pf1/icons/races/vishkanya.png",
  "system": {
    "description": {
      "value": "<p>At 4th level, you gain the service of a loyal animal companion. Your effective druid level for the purpose of this animal companion is equal to your class level – 2. You must choose a dinosaur as your companion.</p>\n<p>This power replaces the Serpent Companion power of the Scalykind Domain.</p>"
    },
    "actions": [
      {
        "_id": "lmeaq83jclpihfrc",
        "name": "Use",
        "img": "systems/pf1/icons/races/vishkanya.png",
        "activation": {
          "type": "passive"
        },
        "unchainedAction": {
          "activation": {
            "type": "passive"
          }
        },
        "actionType": ""
      }
    ],
    "tag": "classFeat_dinosaurCompanion",
    "useCustomTag": true,
    "subType": "classFeat",
    "associations": {
      "classes": [["Cleric"]]
    },
    "abilityType": "ex"
  }
}
