{
  "_id": "qK86ENPT9V2BiYWT",
  "name": "Divine Retribution",
  "type": "feat",
  "img": "systems/pf1/icons/items/inventory/badge-cross.jpg",
  "system": {
    "description": {
      "value": "<p>As a standard action, you can point at one creature within 30 feet to indicate that it is the target of divine wrath. A mishap or an accident appropriate to the environment occurs, such as a branch falling on the creature, rocks falling from the ceiling, or some other nonmagical misfortune; regardless of the cause, the mishap deals 1d6 points of damage + 1 point for every two inquisitor levels you possess (Reflex half). The GM decides whether this damage is bludgeoning, piercing, or slashing damage. You can use this ability a number of times per day equal to 3 + your Wisdom modifier.</p>"
    },
    "actions": [
      {
        "_id": "m2hlwoanew5xmp6n",
        "name": "Use",
        "img": "systems/pf1/icons/items/inventory/badge-cross.jpg",
        "activation": {
          "type": "standard"
        },
        "unchainedAction": {
          "activation": {
            "cost": 2,
            "type": "action"
          }
        },
        "duration": {
          "units": "inst"
        },
        "target": {
          "value": "one creature"
        },
        "range": {
          "value": "30",
          "units": "ft"
        },
        "actionType": "spellsave",
        "damage": {
          "parts": [
            {
              "formula": "1d6 + floor(@classes.inquisitor.level / 2)",
              "type": {
                "values": ["slashing"],
                "custom": ""
              }
            }
          ]
        },
        "save": {
          "type": "ref",
          "description": "Reflex Half"
        }
      }
    ],
    "uses": {
      "per": "day",
      "maxFormula": "3 + @abilities.wis.mod"
    },
    "tag": "classFeat_divineRetribution",
    "useCustomTag": true,
    "subType": "classFeat",
    "associations": {
      "classes": [["Inquisitor"]]
    },
    "abilityType": "sp"
  }
}
