{
  "_id": "wxQ6Nx7AuZVCOdSq",
  "name": "Draconic Resistances",
  "type": "feat",
  "img": "systems/pf1/icons/skills/red_05.jpg",
  "system": {
    "description": {
      "value": "<p>At 4th level, you gain resistance 5 against your energy type and a +1 natural armor bonus to AC.</p>\n<p>At 8th level, your energy resistance increases to 10 and your natural armor bonus increases to +2.</p>\n<p>At 16th level, your natural armor bonus increases to +4.</p>"
    },
    "changes": [
      {
        "_id": "amfwsk0c",
        "formula": "@classes.bloodrager.level >= 16 ? 4 : ((@classes.bloodrager.level >= 8 && @classes.bloodrager.level < 16)  ? 2 : 1)",
        "subTarget": "nac",
        "modifier": "untyped"
      }
    ],
    "tag": "classFeat_draconicResistances",
    "useCustomTag": true,
    "subType": "classFeat",
    "associations": {
      "classes": [["Bloodrager"]]
    },
    "abilityType": "ex"
  }
}
