{
  "_id": "VyHFIO17DJlBB6mz",
  "name": "Earthmeld",
  "type": "feat",
  "img": "systems/pf1/icons/spells/rock-sky-3.jpg",
  "system": {
    "description": {
      "value": "<p><b>Element</b> earth; <b>Type</b> utility (Sp); <b>Level</b> 4; <b>Burn</b> 0<br><b>Prerequisite</b> earth climb</p>\n<p>You meld a creature into stone, where it can listen to conversations without being detected. This functions as the @Compendium[pf1.spells.dkv9v4verb82fmpx]{Meld into Stone} spell, except it can work on any willing creature, not just you, and it lasts for 10 minutes per kineticist level or until you use earthmeld again. The melded creature, not you, decides when to step out of the stone.</p>\n<p>You can accept 1 point of burn to increase the duration of an earthmeld until the next time you recover burn. Such increased earthmelds don’t end if you use earthmeld again, allowing you to maintain multiple earthmelds.</p>"
    },
    "actions": [
      {
        "_id": "iq1wr7p3geasvia1",
        "name": "Use",
        "img": "systems/pf1/icons/spells/rock-sky-3.jpg",
        "activation": {
          "type": "standard"
        },
        "unchainedAction": {
          "activation": {
            "cost": 2,
            "type": "action"
          }
        },
        "duration": {
          "units": "seeText"
        },
        "actionType": ""
      }
    ],
    "tag": "classFeat_earthmeld",
    "useCustomTag": true,
    "subType": "classFeat",
    "associations": {
      "classes": [["Kineticist"]]
    },
    "abilityType": "sp"
  }
}
