{
  "_id": "twsu9QGH0QXU1LUZ",
  "name": "Eclipsing Blade",
  "type": "feat",
  "img": "systems/pf1/icons/items/inventory/banner-red.jpg",
  "system": {
    "description": {
      "value": "<p>At 8th level, the samurai can cast @Compendium[pf1.spells.tsndfcfijmgxs37p]{Darkness} on a weapon he is holding. The @Compendium[pf1.spells.tsndfcfijmgxs37p]{Darkness} does not affect the vision of any order of the eclipse samurai, or that of their mounts. The spell immediately ends if the weapon leaves the samurai’s hand. He may do this once per day, plus one additional time per day for every four levels he possesses above 8th (to a maximum of four times per day at 20th level).</p>"
    },
    "actions": [
      {
        "_id": "0cz1iut1gdno56y8",
        "name": "Use",
        "img": "systems/pf1/icons/items/inventory/banner-red.jpg",
        "activation": {
          "type": "standard"
        },
        "unchainedAction": {
          "activation": {
            "cost": 2,
            "type": "action"
          }
        },
        "duration": {
          "value": "@classes.samurai.level",
          "units": "minute"
        },
        "target": {
          "value": "weapon held"
        },
        "range": {
          "units": "touch"
        },
        "actionType": ""
      }
    ],
    "uses": {
      "per": "day",
      "maxFormula": "floor((@classes.samurai.level - 4) / 4)"
    },
    "tag": "classFeat_eclipsingBlade",
    "useCustomTag": true,
    "subType": "classFeat",
    "associations": {
      "classes": [["Samurai"]]
    },
    "abilityType": "sp"
  }
}
