{
  "_id": "XjW0GRUdVfaVjMYN",
  "name": "Elbow Smash (UC)",
  "type": "feat",
  "img": "systems/pf1/icons/skills/yellow_08.jpg",
  "system": {
    "description": {
      "value": "<p>The monk follows up a punch with a strike from his elbow. If the attack hits, the monk can make an additional attack using the same attack bonus as the punch at a –5 penalty. If this second attack hits, it deals damage as normal, but all of the damage is nonlethal.</p>\n<p>The monk must attack with a fist to use this style strike.</p>"
    },
    "tag": "classFeat_elbowSmashUc",
    "useCustomTag": true,
    "subType": "classFeat",
    "associations": {
      "classes": [["Monk (Unchained)"]]
    },
    "abilityType": "ex"
  }
}
