{
  "_id": "tap9LNVtXblKh0sv",
  "name": "Electricity Resistance",
  "type": "feat",
  "img": "systems/pf1/icons/spells/protect-blue-2.jpg",
  "system": {
    "description": {
      "value": "<p>At 6th level, you gain resist electricity 10. This resistance increases to 20 at 12th level. At 20th level, you gain immunity to electricity.</p>"
    },
    "tag": "classFeat_electricityResistance",
    "useCustomTag": true,
    "subType": "classFeat",
    "associations": {
      "classes": [["Cleric"]]
    },
    "abilityType": "ex"
  }
}
