{
  "_id": "MHluImPeE22nF5VE",
  "name": "Elemental Resistance (Acid)",
  "type": "feat",
  "img": "systems/pf1/icons/spells/protect-orange-2.jpg",
  "system": {
    "description": {
      "value": "<p>At 3rd level, you gain <em>acid resistance</em> 10. At 9th level, your <em>acid resistance</em> increases to 20.</p>"
    },
    "actions": [
      {
        "_id": "764s7z1kxxl8g44s",
        "name": "Use",
        "img": "systems/pf1/icons/spells/protect-orange-2.jpg",
        "activation": {
          "type": "passive"
        },
        "unchainedAction": {
          "activation": {
            "type": "passive"
          }
        },
        "actionType": ""
      }
    ],
    "tag": "classFeat_elementalResistanceAcid",
    "useCustomTag": true,
    "subType": "classFeat",
    "associations": {
      "classes": [["Sorcerer"]]
    },
    "abilityType": "ex"
  }
}
