{
  "_id": "xjRkrgvUR0b5VBAo",
  "name": "Elemental Form (SHA) (Fire)",
  "type": "feat",
  "img": "systems/pf1/icons/skills/violet_20.jpg",
  "system": {
    "description": {
      "value": "<p>As a standard action, the shaman assumes the form of a Huge (or smaller) fire elemental, as if using @Compendium[pf1.spells.v42t5kpxc8mvd615]{Elemental Body IV} with a duration of 1 hour per level.</p>\n<p>The shaman can use this ability once per day.</p>"
    },
    "actions": [
      {
        "_id": "m1o5iknavo9r68s8",
        "name": "Use",
        "img": "systems/pf1/icons/skills/violet_20.jpg",
        "activation": {
          "type": "standard"
        },
        "unchainedAction": {
          "activation": {
            "cost": 2,
            "type": "action"
          }
        },
        "duration": {
          "value": "1",
          "units": "hour"
        },
        "target": {
          "value": "self"
        },
        "range": {
          "units": "personal"
        },
        "actionType": ""
      }
    ],
    "uses": {
      "per": "day",
      "maxFormula": "1"
    },
    "tag": "classFeat_elementalFormShaFire",
    "useCustomTag": true,
    "subType": "classFeat",
    "associations": {
      "classes": [["Shaman"]]
    },
    "abilityType": "su"
  }
}
