{
  "_id": "w2BOkG47vgd3toxl",
  "name": "Elemental Mystery",
  "type": "feat",
  "img": "systems/pf1/icons/spells/light-magenta-2.jpg",
  "system": {
    "description": {
      "value": "<p><b>Class Skills:</b> An oracle with the elemental mystery adds Acrobatics, Climb, Stealth, and Swim to her list of class skills.<p><b>Bonus Spells:</b></p>\n<ul>\n<li>@Compendium[pf1.spells.pau0ejk30fs1eebl]{Endure Elements} (2nd), </li>\n<li>@Compendium[pf1.spells.tkjnm3lw7ni82tag]{Resist Energy} (4th), </li>\n<li>@Compendium[pf1.spells.q35l6m4pggb4y98v]{Elemental Aura} (6th), </li>\n<li>@Compendium[pf1.spells.pawbnw1nm4f0b98e]{Elemental Body I} (8th), </li>\n<li>@Compendium[pf1.spells.yldjnorgbx4jsldz]{Elemental Body II} (10th), </li>\n<li>@Compendium[pf1.spells.hd32fuc6e7j4isbn]{Elemental Body III} (12th), </li>\n<li>@Compendium[pf1.spells.v42t5kpxc8mvd615]{Elemental Body IV} (14th), </li>\n<li>@Compendium[pf1.spells.wniqskqkk0cubu9u]{Create Demiplane} (16th), </li>\n<li>@Compendium[pf1.spells.pfy97qyneoa391ek]{Elemental Swarm} (18th).</li>\n</ul>"
    },
    "tag": "classFeat_elementalMystery",
    "useCustomTag": true,
    "subType": "classFeat",
    "associations": {
      "classes": [["Oracle"]]
    }
  }
}
