{
  "_id": "L5k4Q7ldzEjeKoRR",
  "name": "Empowered Magic",
  "type": "feat",
  "img": "systems/pf1/icons/spells/enchant-red-3.jpg",
  "system": {
    "description": {
      "value": "<p>The magus can cast one spell per day as if it were modified by the @Compendium[pf1.feats.77gXSucrxfrE9yWk]{Empower Spell} feat. This does not increase the casting time or the level of the spell.</p>\n<p>The magus must be at least 6th level before selecting this magus arcana.</p>"
    },
    "actions": [
      {
        "_id": "b4a3p75jxwrr9w0y",
        "name": "Use",
        "img": "systems/pf1/icons/spells/enchant-red-3.jpg",
        "activation": {
          "type": "special"
        },
        "unchainedAction": {
          "activation": {
            "type": "special"
          }
        },
        "actionType": ""
      }
    ],
    "uses": {
      "per": "day",
      "maxFormula": "1"
    },
    "tag": "classFeat_empoweredMagic",
    "useCustomTag": true,
    "subType": "classFeat",
    "associations": {
      "classes": [["Magus"]]
    },
    "abilityType": "su"
  }
}
