{
  "_id": "C5JejqqQIZFROUwk",
  "name": "Enchantment Patron",
  "type": "feat",
  "img": "systems/pf1/icons/feats/improved-familiar.jpg",
  "system": {
    "description": {
      "value": "<ul>\n<li>2nd — @Compendium[pf1.spells.7p0oh9opqbf7j5du]{Unnatural Lust}</li>\n<li>4th — @Compendium[pf1.spells.6orhthk4g27rncuu]{Calm Emotions}</li>\n<li>6th — @Compendium[pf1.spells.2yna9cslnzmuibhr]{Unadulterated Loathing}</li>\n<li>8th — @Compendium[pf1.spells.pmwu6qwvip76coqp]{Overwhelming Grief}</li>\n<li>10th — @Compendium[pf1.spells.q070n0zoq3zojpas]{Dominate Person}</li>\n<li>12th — @Compendium[pf1.spells.pfv5zv744x9dwg38]{Geas/Quest}</li>\n<li>14th — @Compendium[pf1.spells.xlzqpkl8fpm3sn4u]{Euphoric Tranquility}</li>\n<li>16th — @Compendium[pf1.spells.21r9ptvsjo99o3yw]{Demand}</li>\n<li>18th — @Compendium[pf1.spells.66s5qm8kwycgobce]{Dominate Monster}</li>\n</ul>"
    },
    "tag": "classFeat_enchantmentPatron",
    "useCustomTag": true,
    "subType": "classFeat",
    "associations": {
      "classes": [["Witch"]]
    }
  }
}
