{
  "_id": "RaUYCdvxWapqH84g",
  "name": "Energy Resistance, Greater",
  "type": "feat",
  "img": "systems/pf1/icons/feats/deafening-critical.jpg",
  "system": {
    "description": {
      "value": "<p>Once per rage, a barbarian can reduce damage by half from a single attack against which she has energy resistance (halve the damage, then apply resistance). A barbarian must have the energy resistance rage power to select this rage power.</p>\n<p>A barbarian must be at least 8th level to select this rage power.</p>"
    },
    "tag": "classFeat_energyResistanceGreater",
    "useCustomTag": true,
    "subType": "classFeat",
    "associations": {
      "classes": [["Barbarian"], ["Skald"]]
    },
    "abilityType": "ex"
  }
}
