{
  "_id": "ujCmMvVcqRlrNFLv",
  "name": "Energy Attacks (UC) (2 pts)",
  "type": "feat",
  "img": "systems/pf1/icons/skills/blue_26.jpg",
  "system": {
    "description": {
      "value": "<p><b>Requirements:</b> Summoner level 5th.</p>\n<p>The eidolon’s attacks become charged with energy. Select one energy type: acid, cold, electricity, or fire. All of the eidolon’s natural attacks deal 1d6 points of energy damage of the chosen type on a successful hit.</p>"
    },
    "tag": "classFeat_energyAttacksUc2Pts",
    "useCustomTag": true,
    "subType": "classFeat",
    "associations": {
      "classes": [["Eidolon (Unchained)"]]
    },
    "abilityType": "su"
  }
}
