{
  "_id": "p1kPuhotKvZGVCOK",
  "name": "Fan of Flames Infusion",
  "type": "feat",
  "img": "systems/pf1/icons/spells/fireball-red-3.jpg",
  "system": {
    "description": {
      "value": "<p><b>Element</b> fire; <b>Type</b> form infusion; <b>Level</b> 1; <b>Burn</b> 1<br><b>Associated Blasts</b> blue flame, fire<br><b>Saving Throw</b> Reflex half</p>\n<p>Your kinetic blast extends in a fan of flames, damaging all creatures and objects in a 15-foot cone. The saving throw DC is Dexterity-based.</p>"
    },
    "actions": [
      {
        "_id": "aajz5lf95iwbhj76",
        "name": "Use",
        "img": "systems/pf1/icons/spells/fireball-red-3.jpg",
        "activation": {
          "type": "special"
        },
        "unchainedAction": {
          "activation": {
            "type": "special"
          }
        },
        "target": {
          "value": "15-ft. cone"
        },
        "actionType": "save",
        "save": {
          "type": "ref",
          "description": "Reflex half"
        }
      }
    ],
    "tag": "classFeat_fanOfFlamesInfusion",
    "useCustomTag": true,
    "subType": "classFeat",
    "associations": {
      "classes": [["Kineticist"]]
    }
  }
}
