{
  "_id": "Ic2FoBmkW0lrmMHS",
  "name": "Fast Movement (UMK)",
  "type": "feat",
  "img": "systems/pf1/icons/feats/dodge.jpg",
  "system": {
    "description": {
      "value": "<p>At 3rd level, a monk gains an <em>enhancement bonus</em> to his land speed, as shown on Table: monk. A monk in armor or carrying a medium or heavy load loses this extra speed.</p>"
    },
    "actions": [
      {
        "_id": "swfrjapyjv8myvjr",
        "name": "Use",
        "img": "systems/pf1/icons/feats/dodge.jpg",
        "activation": {
          "type": "passive"
        },
        "unchainedAction": {
          "activation": {
            "type": "passive"
          }
        },
        "actionType": ""
      }
    ],
    "changes": [
      {
        "_id": "xzx7ailj",
        "formula": "10 * (floor(@classes.monkUnchained.level / 3))",
        "subTarget": "landSpeed",
        "modifier": "enh"
      }
    ],
    "tag": "classFeat_fastMovementUmk",
    "useCustomTag": true,
    "subType": "classFeat",
    "associations": {
      "classes": [["Monk (Unchained)"]]
    },
    "abilityType": "ex"
  }
}
