{
  "_id": "wOca6qHsrFyCliW9",
  "name": "Fast Stealth (NIN)",
  "type": "feat",
  "img": "systems/pf1/icons/items/weapons/kunai.png",
  "system": {
    "description": {
      "value": "<p>A ninja with this trick can move at full speed using the Stealth skill without penalty.</p>"
    },
    "tags": ["Ninja Trick"],
    "contextNotes": [
      {
        "subTarget": "skill.ste",
        "target": "skill",
        "text": "Fast stealth"
      }
    ],
    "tag": "classFeat_fastStealthNin",
    "useCustomTag": true,
    "subType": "classFeat",
    "associations": {
      "classes": [["Ninja"]]
    },
    "abilityType": "ex"
  }
}
