{
  "_id": "fLKWQu1uOY6qejBr",
  "name": "Fast Picks",
  "type": "feat",
  "img": "systems/pf1/icons/items/weapons/dagger.PNG",
  "system": {
    "description": {
      "value": "<p>A rogue with this talent can use the Disable Device skill to attempt to open a lock as a standard action instead of a full-round action.</p>"
    },
    "tag": "classFeat_fastPicks",
    "useCustomTag": true,
    "subType": "classFeat",
    "associations": {
      "classes": [["Rogue"]]
    },
    "abilityType": "ex"
  }
}
