{
  "_id": "MQZC1Ahz2xhRZizR",
  "name": "Fate Patron",
  "type": "feat",
  "img": "systems/pf1/icons/feats/improved-familiar.jpg",
  "system": {
    "description": {
      "value": "<ul>\n<li>2nd — @Compendium[pf1.spells.wa7p5zwwl1p0rt92]{Doom}</li>\n<li>4th — @Compendium[pf1.spells.ja1p1uuf8fp6fiox]{Anticipate Peril}</li>\n<li>6th — @Compendium[pf1.spells.fp5r5razueuqj8z8]{Helping Hand}</li>\n<li>8th — @Compendium[pf1.spells.scyklgov72pvw884]{Blessing Of Fervor}</li>\n<li>10th — @Compendium[pf1.spells.gn1u9cjc9phsczec]{Forbid Action, Greater}</li>\n<li>12th — @Compendium[pf1.spells.4br9puuneexco5hx]{Contingency}</li>\n<li>14th — @Compendium[pf1.spells.uze75g9ayg8icipx]{Jolting Portent}</li>\n<li>16th — @Compendium[pf1.spells.hi72gh3dlf7a1qyt]{Maze}</li>\n<li>18th — @Compendium[pf1.spells.nnj51dwfkwd15ngj]{Wish}</li>\n</ul>"
    },
    "tag": "classFeat_fatePatron",
    "useCustomTag": true,
    "subType": "classFeat",
    "associations": {
      "classes": [["Witch"]]
    }
  }
}
