{
  "_id": "TcCImhh28fIgKKvQ",
  "name": "Fate Inquisition",
  "type": "feat",
  "img": "systems/pf1/icons/items/inventory/badge-cross.jpg",
  "system": {
    "description": {
      "value": "<p><b>Granted Powers:</b> Fate is a powerful tool for those who dole out justice for their deity. You can read the strands of fate, and those strands guide your endeavors.</p>"
    },
    "tag": "classFeat_fateInquisition",
    "useCustomTag": true,
    "subType": "classFeat",
    "associations": {
      "classes": [["Inquisitor"]]
    }
  }
}
