{
  "_id": "aAqp8ZIFdQgPIIU2",
  "name": "Fearless Rage (UC)",
  "type": "feat",
  "img": "systems/pf1/icons/feats/deafening-critical.jpg",
  "system": {
    "description": {
      "value": "<p>The barbarian is immune to the shaken and frightened conditions (but not the panicked condition).</p>\n<p>A barbarian must be at least 12th level to select this rage power.</p>"
    },
    "tag": "classFeat_fearlessRageUc",
    "useCustomTag": true,
    "subType": "classFeat",
    "associations": {
      "classes": [["Barbarian (Unchained)"]]
    },
    "abilityType": "ex"
  }
}
