{
  "_id": "dUsTySGWGKDXm146",
  "name": "Fear the Flames",
  "type": "feat",
  "img": "systems/pf1/icons/items/inventory/badge-cross.jpg",
  "system": {
    "description": {
      "value": "<p>You can give a creature you can see within 60 feet one chance to avoid an eternity of suffering by ordering it to carry out any one simple action that would take no more than 1 round to complete. Good and neutral creatures that refuse become shaken for 1 round (Will negates), while evil creatures that obey gain a +2 morale bonus on all rolls and checks made for 1 round. You can use this ability a number of times per day equal to 3 + your Wisdom modifier. This is a language-dependent, mind-affecting effect.</p>"
    },
    "actions": [
      {
        "_id": "rb9cwrpsvy9vfsgm",
        "name": "Use",
        "img": "systems/pf1/icons/items/inventory/badge-cross.jpg",
        "activation": {
          "type": "standard"
        },
        "unchainedAction": {
          "activation": {
            "cost": 2,
            "type": "action"
          }
        },
        "duration": {
          "units": "inst"
        },
        "target": {
          "value": "one creature"
        },
        "range": {
          "value": "60",
          "units": "ft"
        },
        "actionType": ""
      }
    ],
    "uses": {
      "per": "day",
      "maxFormula": "3 + @abilities.wis.mod"
    },
    "tag": "classFeat_fearTheFlames",
    "useCustomTag": true,
    "subType": "classFeat",
    "associations": {
      "classes": [["Inquisitor"]]
    },
    "abilityType": "su"
  }
}
