{
  "_id": "scvseQFAhBsZ38id",
  "name": "Fearless Rage",
  "type": "feat",
  "img": "systems/pf1/icons/feats/deafening-critical.jpg",
  "system": {
    "description": {
      "value": "<p>While raging, the barbarian is immune to the shaken and frightened conditions.</p>\n<p>A barbarian must be at least 12th level before selecting this rage power.</p>"
    },
    "tag": "classFeat_fearlessRage",
    "useCustomTag": true,
    "subType": "classFeat",
    "associations": {
      "classes": [["Barbarian"], ["Skald"]]
    },
    "abilityType": "ex"
  }
}
