{
  "_id": "VgnMkLA5V1jvKliT",
  "name": "Feat",
  "type": "feat",
  "img": "systems/pf1/icons/items/weapons/butterfly-knife.PNG",
  "system": {
    "description": {
      "value": "<p>A rogue may gain any feat that she qualifies for in place of a rogue talent.</p>"
    },
    "changes": [
      {
        "_id": "m4p6f46o",
        "formula": "1",
        "subTarget": "bonusFeats",
        "modifier": "untyped"
      }
    ],
    "tag": "classFeat_feat",
    "useCustomTag": true,
    "subType": "classFeat",
    "associations": {
      "classes": [["Rogue"]]
    }
  }
}
