{
  "_id": "hq27vag5DHQMOhrv",
  "name": "Ferocious Strike",
  "type": "feat",
  "img": "systems/pf1/icons/feats/greater-weapon-focus.jpg",
  "system": {
    "description": {
      "value": "<p>Whenever you make a melee attack, you can designate that attack as a ferocious strike. If the attack hits, it deals additional damage equal to 1/2 your cleric level (minimum +1). You can use this ability a number of times per day equal to 3 + your Wisdom modifier.</p>\n<p>This power replaces the Strength Surge power of the Strength Domain.</p>"
    },
    "actions": [
      {
        "_id": "9l9bv374d6hvmxsm",
        "name": "Use",
        "img": "systems/pf1/icons/feats/greater-weapon-focus.jpg",
        "activation": {
          "type": "free"
        },
        "unchainedAction": {
          "activation": {
            "type": "free"
          }
        },
        "actionType": ""
      }
    ],
    "uses": {
      "per": "day",
      "maxFormula": "3 + @abilities.wis.mod"
    },
    "tag": "classFeat_ferociousStrike",
    "useCustomTag": true,
    "subType": "classFeat",
    "associations": {
      "classes": [["Cleric"]]
    },
    "abilityType": "su"
  }
}
