{
  "_id": "wbq3RiBXtWCKZLr6",
  "name": "Fiery Soul",
  "type": "feat",
  "img": "systems/pf1/icons/skills/violet_20.jpg",
  "system": {
    "description": {
      "value": "<p>The shaman gains fire resistance 10. In addition, as a standard action she can unleash a 15-foot cone of flame from her mouth, dealing 1d4 points of fire damage per shaman level she possesses. A successful Reflex saving throw halves this damage.</p>\n<p>The shaman can use this ability three times per day, but she must wait 1d4 rounds between each use.</p>"
    },
    "actions": [
      {
        "_id": "fy2xo620mxi6yds6",
        "name": "Use",
        "img": "systems/pf1/icons/skills/violet_20.jpg",
        "activation": {
          "type": "standard"
        },
        "unchainedAction": {
          "activation": {
            "cost": 2,
            "type": "action"
          }
        },
        "duration": {
          "units": "inst"
        },
        "target": {
          "value": "All in cone"
        },
        "range": {
          "value": "15",
          "units": "ft"
        },
        "actionType": "save",
        "damage": {
          "parts": [
            {
              "formula": "(@classes.shaman.level)d4",
              "type": {
                "values": ["fire"],
                "custom": ""
              }
            }
          ]
        },
        "save": {
          "type": "ref",
          "description": "Reflex half"
        }
      }
    ],
    "uses": {
      "per": "day",
      "maxFormula": "3"
    },
    "tag": "classFeat_fierySoul",
    "useCustomTag": true,
    "subType": "classFeat",
    "associations": {
      "classes": [["Shaman"]]
    },
    "abilityType": "su"
  }
}
