{
  "_id": "vTOtyGhb6uKUDLEI",
  "name": "Fire Sculptor",
  "type": "feat",
  "img": "systems/pf1/icons/spells/fireball-red-3.jpg",
  "system": {
    "description": {
      "value": "<p><b>Element</b> fire; <b>Type</b> utility (Sp); <b>Level</b> 1; <b>Burn</b> 0</p>\n<p>You can sculpt shapes out of flame or alter a fire’s spread. As a standard action, you can move one 5-foot square of an ongoing fire per kineticist level you possess to any square contiguous to that fire. For instance, a 4th-level kineticist could move 4 contiguous squares from the center of a 20-foot-by-20-foot fire to the fire’s edge in order to create a safe path to escape.</p>\n<p>The fire continues to spread normally after you sculpt it.</p>"
    },
    "actions": [
      {
        "_id": "inazm0wt2hbafbmh",
        "name": "Use",
        "img": "systems/pf1/icons/spells/fireball-red-3.jpg",
        "activation": {
          "type": "standard"
        },
        "unchainedAction": {
          "activation": {
            "cost": 2,
            "type": "action"
          }
        },
        "actionType": ""
      }
    ],
    "tag": "classFeat_fireSculptor",
    "useCustomTag": true,
    "subType": "classFeat",
    "associations": {
      "classes": [["Kineticist"]]
    },
    "abilityType": "sp"
  }
}
