{
  "_id": "Cxu9FSuqw0DJB8I4",
  "name": "First-World Face Thief",
  "type": "feat",
  "img": "systems/pf1/icons/spells/runes-blue-2.jpg",
  "system": {
    "description": {
      "value": "<p>The arcanist can expend 1 point from her arcane reservoir to assume an illusory disguise as @Compendium[pf1.spells.oj36nfak6jc2s5ky]{Disguise Self}. If she expends 2 points from her arcane reservoir instead of 1, the duration of the effect increases to 10 minutes per level.</p>"
    },
    "tags": ["Arcanist Exploit"],
    "actions": [
      {
        "_id": "p9r1e5pjw7on4cb7",
        "name": "Use",
        "img": "systems/pf1/icons/spells/runes-blue-2.jpg",
        "activation": {
          "type": "standard"
        },
        "unchainedAction": {
          "activation": {
            "cost": 2,
            "type": "action"
          }
        },
        "duration": {
          "value": "@classes.arcanist.level",
          "units": "minute"
        },
        "target": {
          "value": "self"
        },
        "range": {
          "units": "personal"
        },
        "actionType": ""
      }
    ],
    "tag": "classFeat_firstworldFaceThief",
    "useCustomTag": true,
    "subType": "classFeat",
    "abilityType": "su"
  }
}
