{
  "_id": "nNY4TLxN2PYwduB1",
  "name": "Friend to the Animals",
  "type": "feat",
  "img": "systems/pf1/icons/spells/light-royal-1.jpg",
  "system": {
    "description": {
      "value": "<p>Add all summon nature's ally spells to your spell list. You must still select these spells using your allotment of spells known. Animals within 30 feet of you receive a bonus on all saving throws equal to your Charisma modifier.</p>"
    },
    "tag": "classFeat_friendToTheAnimals",
    "useCustomTag": true,
    "subType": "classFeat",
    "associations": {
      "classes": [["Oracle"]]
    },
    "abilityType": "ex"
  }
}
