{
  "_id": "iFDhUcsaN8l5HY5B",
  "name": "Friend to Nature",
  "type": "feat",
  "img": "systems/pf1/icons/skills/green_13.jpg",
  "system": {
    "description": {
      "value": "<p>At 9th level, once per day you can create a spear of pure light and throw it at a creature within 60 feet as a <em>standard action</em>. This is a ranged <em>touch attack</em> that uses your <em>Charisma</em> modifier in place of your <em>Dexterity</em> modifier to determine the <em>attack bonus</em>. The <em>spear</em> deals 1d6 points of damage per <em>sorcerer</em> level and ignores all <em>damage reduction</em> and <em>hardness</em>. This damage increases to 1d8 points of damage per <em>sorcerer</em> level against an evil creature. At 13th level, you can use this ability twice per day. At 17th level, you can use this ability three times per day.</p>"
    },
    "actions": [
      {
        "_id": "shwknhq1mva6ho7d",
        "name": "Use",
        "img": "systems/pf1/icons/skills/green_13.jpg",
        "activation": {
          "type": "free"
        },
        "unchainedAction": {
          "activation": {
            "type": "free"
          }
        },
        "actionType": ""
      }
    ],
    "tag": "classFeat_friendToNature",
    "useCustomTag": true,
    "subType": "classFeat",
    "associations": {
      "classes": [["Sorcerer"]]
    },
    "abilityType": "su"
  }
}
