{
  "_id": "nmn3X677xzFZ0KkY",
  "name": "Godclaw Blessing: Tactical Readiness",
  "type": "feat",
  "img": "systems/pf1/icons/spells/evil-eye-eerie-2.jpg",
  "system": {
    "description": {
      "value": "<p>At 10th level, you can rally your allies within 30 feet, allowing each to immediately do one of the following as a free action that does not provoke attacks of opportunity: remove the flat-footed condition, take a 5-foot step, draw a weapon, ready a shield, or gain a +1 dodge bonus to AC for 1 round. You can affect a number of allies equal to your Wisdom bonus. These actions do not count against your allies’ total movement or actions on their next turn.</p>"
    },
    "actions": [
      {
        "_id": "eu1yz9o4n1vhm411",
        "name": "Use",
        "img": "systems/pf1/icons/spells/evil-eye-eerie-2.jpg",
        "activation": {
          "type": "standard"
        },
        "unchainedAction": {
          "activation": {
            "cost": 2,
            "type": "action"
          }
        },
        "target": {
          "value": "allies within range"
        },
        "range": {
          "value": "30",
          "units": "ft"
        },
        "actionType": ""
      }
    ],
    "tag": "classFeat_godclawBlessingTacticalReadiness",
    "useCustomTag": true,
    "subType": "classFeat",
    "associations": {
      "classes": [["Warpriest"]]
    }
  }
}
