{
  "_id": "wOmb4h0wDsQukskt",
  "name": "Godslayer",
  "type": "feat",
  "img": "systems/pf1/icons/items/inventory/banner-red.jpg",
  "system": {
    "description": {
      "value": "<p>At 15th level, whenever the cavalier makes a melee attack against the target of his challenge and that target is a divine spellcaster, the cavalier gains a bonus on attack and damage rolls equal to his Charisma modifier. This damage is multiplied on a critical hit.</p>"
    },
    "tag": "classFeat_godslayer",
    "useCustomTag": true,
    "subType": "classFeat",
    "associations": {
      "classes": [["Cavalier"]]
    },
    "abilityType": "ex"
  }
}
