{
  "_id": "V1nuUhgezcbTL1Mq",
  "name": "Grazing Shot",
  "type": "feat",
  "img": "systems/pf1/icons/items/weapons/dagger.PNG",
  "system": {
    "description": {
      "value": "<p>The following rogue talent is available to drow rogues. Particularly deft rogues can strike two foes with one well-placed shot. As a standard action, a rogue with this talent can fire a hand crossbow at an enemy who is granted cover by another opponent. Make one ranged attack roll and compare the result to each opponent’s AC. Each hit deals 1 point of damage. Any special weapon properties or precision damage apply to only a single target, but any poison applied to the bolt affects all targets struck. An unchained rogue can select this talent.</p>"
    },
    "tag": "classFeat_grazingShot",
    "useCustomTag": true,
    "subType": "classFeat",
    "associations": {
      "classes": [["Rogue"]]
    },
    "abilityType": "ex"
  }
}
