{
  "_id": "LOTZhyKm8sgDjARs",
  "name": "Greater Mask Misery",
  "type": "feat",
  "img": "systems/pf1/icons/skills/violet_26.jpg",
  "system": {
    "description": {
      "value": "<p>This trick functions as the mask misery trick, but can be used to ignore greater conditions as well.</p>\n<p>A mesmerist must have the mask misery mesmerist trick to take greater mask misery.</p>"
    },
    "tag": "classFeat_greaterMaskMisery",
    "useCustomTag": true,
    "subType": "classFeat",
    "associations": {
      "classes": [["Mesmerist"]]
    }
  }
}
