{
  "_id": "QJN5jBqmxOBMAn32",
  "name": "Grounding Goo",
  "type": "feat",
  "img": "systems/pf1/icons/items/potions/unique-3.jpg",
  "system": {
    "description": {
      "value": "<p>The alchemist’s bomb applies a sticky residue after any damage from the bomb is resolved. If a creature damaged by the bomb has a nonmagical fly speed, its flight is severely impaired, and it takes a penalty equal to the alchemist’s level on Fly checks for 1 minute.</p>"
    },
    "tag": "classFeat_groundingGoo",
    "useCustomTag": true,
    "subType": "classFeat",
    "associations": {
      "classes": [["Alchemist"]]
    },
    "abilityType": "su"
  }
}
