{
  "_id": "MMzblKaO4G5vayvK",
  "name": "Hatred Subdomain",
  "type": "feat",
  "img": "systems/pf1/icons/skills/red_10.jpg",
  "system": {
    "description": {
      "value": "<p><b>Replacement Domain Spells:</b></p>\n<ul>\n<li>1st—@Compendium[pf1.spells.jdj4sfwksjgy2mqf]{Murderous Command}</li>\n<li>2nd—@Compendium[pf1.spells.1gz3zdpxu7uic5ky]{Wrathful Mantle}</li>\n</ul>"
    },
    "tag": "classFeat_hatredSubdomain",
    "useCustomTag": true,
    "subType": "classFeat",
    "associations": {
      "classes": [["Cleric"]]
    }
  }
}
