{
  "_id": "XFhsnMWmEu3cPGGc",
  "name": "Heads Up",
  "type": "feat",
  "img": "systems/pf1/icons/items/weapons/dagger.PNG",
  "system": {
    "description": {
      "value": "<p>When you make a Perception check, as an immediate or swift action you can allow one adjacent ally to act as if they had also made a Perception check with the same result.</p>"
    },
    "tag": "classFeat_headsUp",
    "useCustomTag": true,
    "subType": "classFeat",
    "associations": {
      "classes": [["Rogue"]]
    },
    "abilityType": "ex"
  }
}
