{
  "_id": "BwDN5DEhxdzLrPLZ",
  "name": "Honor Subdomain",
  "type": "feat",
  "img": "systems/pf1/icons/skills/blue_23.jpg",
  "system": {
    "description": {
      "value": "<p><b>Replacement Domain Spells:</b></p>\n<ul>\n<li>2nd—@Compendium[pf1.spells.snspotd2cno49ed5]{Zone of Truth}</li>\n<li>6th—@Compendium[pf1.spells.pfv5zv744x9dwg38]{Geas/Quest}</li>\n</ul>"
    },
    "tag": "classFeat_honorSubdomain",
    "useCustomTag": true,
    "subType": "classFeat",
    "associations": {
      "classes": [["Cleric"]]
    }
  }
}
