{
  "_id": "ON3Ev23zoGMMWmbA",
  "name": "Iconoclastic Strike",
  "type": "feat",
  "img": "systems/pf1/icons/items/weapons/sword-cane.png",
  "system": {
    "description": {
      "value": "<p>When the investigator deals damage with a studied strike, she can perform a sunder combat maneuver as a free action against the creature the studied strike damaged. If the object targeted is a holy symbol or divine scroll, this sunder does not provoke attacks of opportunity and deals maximum damage on a successful check.</p>\n<p>An investigator must be at least 13th level to select this talent.</p>"
    },
    "actions": [
      {
        "_id": "xw36iajsr1fkr8ko",
        "name": "Use",
        "img": "systems/pf1/icons/items/weapons/sword-cane.png",
        "activation": {
          "type": "free"
        },
        "unchainedAction": {
          "activation": {
            "type": "free"
          }
        },
        "actionType": ""
      }
    ],
    "tag": "classFeat_iconoclasticStrike",
    "useCustomTag": true,
    "subType": "classFeat",
    "associations": {
      "classes": [["Investigator"]]
    },
    "abilityType": "ex"
  }
}
