{
  "_id": "pGDnMUhjGfphXiJB",
  "name": "Improved Empathic Link",
  "type": "feat",
  "img": "systems/pf1/icons/spells/link-spirit-2.jpg",
  "system": {
    "description": {
      "value": "<p>At 4th level, the hunter gains an empathic link with her animal companion. This functions like an empathic link with a familiar, except the hunter can also see through a companion’s eyes as a swift action, maintaining this connection as long as she likes (as long as the companion is within 1 mile) and ending it as a free action. The hunter is blinded while maintaining this connection.</p>"
    },
    "actions": [
      {
        "_id": "5jtlf5qlyqr5whzz",
        "name": "Use",
        "img": "systems/pf1/icons/spells/link-spirit-2.jpg",
        "activation": {
          "type": "swift"
        },
        "unchainedAction": {
          "activation": {
            "type": "action"
          }
        },
        "actionType": ""
      }
    ],
    "tag": "classFeat_improvedEmpathicLink",
    "useCustomTag": true,
    "subType": "classFeat",
    "associations": {
      "classes": [["Hunter"]]
    },
    "abilityType": "su"
  }
}
