{
  "_id": "BUXU2QXnPi9HJnpP",
  "name": "Improved Natural Armor (1 pt)",
  "type": "feat",
  "img": "systems/pf1/icons/skills/blue_26.jpg",
  "system": {
    "description": {
      "value": "<p>An eidolon's hide grows thick fur, rigid scales, or bony plates, giving it a +2 bonus to its natural armor.</p>\n<p>This evolution can be taken once for every five levels the summoner possesses.</p>"
    },
    "changes": [
      {
        "_id": "usnkkj0p",
        "formula": "2",
        "subTarget": "nac",
        "modifier": "untyped"
      }
    ],
    "tag": "classFeat_improvedNaturalArmor1Pt",
    "useCustomTag": true,
    "subType": "classFeat",
    "associations": {
      "classes": [["Eidolon"]]
    },
    "abilityType": "ex"
  }
}
