{
  "_id": "t4yHQ5xc4wtBfKjW",
  "name": "Improved Damage (UC) (1 pt)",
  "type": "feat",
  "img": "systems/pf1/icons/skills/blue_26.jpg",
  "system": {
    "description": {
      "value": "<p>One of the eidolon’s natural attacks is particularly deadly. Select one natural attack form and increase the damage die by one step.</p>\n<p>This evolution can be selected more than once. Its effects do not stack. Each time the eidolon selects this evolution, it applies to a different natural attack.</p>"
    },
    "tag": "classFeat_improvedDamageUc1Pt",
    "useCustomTag": true,
    "subType": "classFeat",
    "associations": {
      "classes": [["Eidolon (Unchained)"]]
    },
    "abilityType": "ex"
  }
}
