{
  "_id": "FX18F44BI61SEuP9",
  "name": "Inevitable Subdomain",
  "type": "feat",
  "img": "systems/pf1/icons/spells/air-burst-air-3.jpg",
  "system": {
    "description": {
      "value": "<p><b>Replacement Domain Spells:</b></p>\n<ul>\n<li>3rd—@Compendium[pf1.spells.h1ankl1l77kmnpke]{Command Undead}</li>\n<li>5th—@Compendium[pf1.spells.l1zl69j95ad7l9dn]{Command, Greater}</li>\n<li>6th—@Compendium[pf1.spells.qf4bqjgeff1q4hjt]{Planar Binding} (inevitables only)</li>\n</ul>"
    },
    "tag": "classFeat_inevitableSubdomain",
    "useCustomTag": true,
    "subType": "classFeat",
    "associations": {
      "classes": [["Cleric"]]
    }
  }
}
