{
  "_id": "7bEIm6yaLRPAmfk5",
  "name": "Inquisitor's Direction",
  "type": "feat",
  "img": "systems/pf1/icons/items/inventory/badge-cross.jpg",
  "system": {
    "description": {
      "value": "<p>At the start of your turn, you can choose to enter a tranquil, reflective state and forgo all actions (standard, move, swift, immediate, and free actions, including attacks of opportunity) for that round; one ally of your choice within 30 feet gains the benefit of haste for 1 round. You can use this ability a number of times per day equal to your 3 + Wisdom bonus (minimum 1).</p>"
    },
    "actions": [
      {
        "_id": "i60an6ah5iotiqcs",
        "name": "Use",
        "img": "systems/pf1/icons/items/inventory/badge-cross.jpg",
        "activation": {
          "type": "round"
        },
        "unchainedAction": {
          "activation": {
            "cost": 3,
            "type": "action"
          }
        },
        "duration": {
          "value": "1",
          "units": "round"
        },
        "target": {
          "value": "one ally"
        },
        "range": {
          "value": "30",
          "units": "ft"
        },
        "actionType": ""
      }
    ],
    "uses": {
      "per": "day",
      "maxFormula": "3 + @abilities.wis.mod"
    },
    "tag": "classFeat_inquisitorsDirection",
    "useCustomTag": true,
    "subType": "classFeat",
    "associations": {
      "classes": [["Inquisitor"]]
    },
    "abilityType": "su"
  }
}
