{
  "_id": "h4kCx2lOy8jVgTbo",
  "name": "Invisible Blade",
  "type": "feat",
  "img": "systems/pf1/icons/items/weapons/kunai.png",
  "system": {
    "description": {
      "value": "<p>Whenever a ninja uses the vanishing trick ninja trick, she is treated as if she were under the effects of @Compendium[pf1.spells.cxgi0ub77t6aink1]{Invisibility, Greater}.</p>\n<p>The ninja must have the vanishing trick ninja trick before selecting this ninja trick.</p>"
    },
    "tags": ["Master Trick"],
    "tag": "classFeat_invisibleBlade",
    "useCustomTag": true,
    "subType": "classFeat",
    "associations": {
      "classes": [["Ninja"]]
    },
    "abilityType": "su"
  }
}
