{
  "_id": "QgGM72Pr3FNhetMh",
  "name": "Item Lore",
  "type": "feat",
  "img": "systems/pf1/icons/items/weapons/sword-cane.png",
  "system": {
    "description": {
      "value": "<p>An investigator can use Spellcraft to identify the properties and command words of magic items without the use of detect magic or similar spells.</p>\n<p>An investigator must be at least 7th level to take this talent.</p>"
    },
    "tag": "classFeat_itemLore",
    "useCustomTag": true,
    "subType": "classFeat",
    "associations": {
      "classes": [["Investigator"]]
    },
    "abilityType": "ex"
  }
}
