{
  "_id": "CHsZctnS2oy99Ls5",
  "name": "Juju Final Revelation",
  "type": "feat",
  "img": "systems/pf1/icons/spells/light-royal-1.jpg",
  "system": {
    "description": {
      "value": "<p>At 20th level, you become a master of the connections between the mortal world and the spirit world. Your knowledge enables you to gain incredible insight and control over others by manipulating spiritual energy. You gain an insight bonus equal to your Charisma modifier to your AC and on all saving throws and Knowledge checks.</p>\n<p>Additionally, once per day, you may cast extended dominate monster as a spell-like ability. With this ability, you may dominate a number of creatures equal to double your Charisma modifier.</p>"
    },
    "actions": [
      {
        "_id": "zb5ahqw38r2icepq",
        "name": "Use",
        "img": "systems/pf1/icons/spells/light-royal-1.jpg",
        "activation": {
          "type": "passive"
        },
        "unchainedAction": {
          "activation": {
            "type": "passive"
          }
        },
        "actionType": ""
      }
    ],
    "changes": [
      {
        "_id": "65vmcqpq",
        "formula": "@abilities.cha.mod",
        "subTarget": "ac",
        "modifier": "insight"
      },
      {
        "_id": "ybr67oq4",
        "formula": "@abilities.cha.mod",
        "subTarget": "allSavingThrows",
        "modifier": "insight"
      }
    ],
    "tag": "classFeat_jujuFinalRevelation",
    "useCustomTag": true,
    "subType": "classFeat",
    "associations": {
      "classes": [["Oracle"]]
    }
  }
}
