{
  "_id": "xVwq3OJfoV7yMxJV",
  "name": "Juju Mystery",
  "type": "feat",
  "img": "systems/pf1/icons/spells/light-magenta-2.jpg",
  "system": {
    "description": {
      "value": "<p><b>Class Skills:</b> An oracle with the juju mystery adds Bluff, Intimidate, Knowledge (nature), Perform (oratory), and Survival to her list of class skills.<p><b>Bonus Spells:</b></p>\n<ul>\n<li>@Compendium[pf1.spells.ct9fhh8uawn8e4md]{Speak with Animals} (2nd), </li>\n<li>@Compendium[pf1.spells.5nr9o7o0it6ewf17]{Hideous Laughter} (4th), </li>\n<li>@Compendium[pf1.spells.be88e90guqbi1q1z]{Fear} (6th), </li>\n<li>@Compendium[pf1.spells.smbkd2yobhshbpqf]{Charm Monster} (8th), </li>\n<li>@Compendium[pf1.spells.52v3fogun1n9jzum]{Suggestion, Mass} (10th), </li>\n<li>@Compendium[pf1.spells.68ngvzmzvadhf6vs]{Contact Other Plane} (as a 6th-level spell) (12th), </li>\n<li>@Compendium[pf1.spells.jjmoi5qbwkbguzbn]{Summon Nature's Ally VII} (14th), </li>\n<li>@Compendium[pf1.spells.q2r6jrgsbwjgssdg]{Charm Monster, Mass} (16th), </li>\n<li>@Compendium[pf1.spells.n3lp01euzcdmtbw5]{Shapechange} (18th).</li>\n</ul>"
    },
    "tag": "classFeat_jujuMystery",
    "useCustomTag": true,
    "subType": "classFeat",
    "associations": {
      "classes": [["Oracle"]]
    }
  }
}
