{
  "_id": "o287RFm4G4pOXM7d",
  "name": "Justice Inquisition",
  "type": "feat",
  "img": "systems/pf1/icons/items/inventory/badge-cross.jpg",
  "system": {
    "description": {
      "value": "<p><b>Granted Powers:</b> Some must learn that to submit to one's fate often means submitting to your form of justice.</p>"
    },
    "tag": "classFeat_justiceInquisition",
    "useCustomTag": true,
    "subType": "classFeat",
    "associations": {
      "classes": [["Inquisitor"]]
    }
  }
}
