{
  "_id": "FPYNcMnjKNTdyc9y",
  "name": "Ki Range (UC)",
  "type": "feat",
  "img": "systems/pf1/icons/skills/fire_07.jpg",
  "system": {
    "description": {
      "value": "<p>A monk with this ability can spend 1 ki point as a swift action to increase the range increment of any thrown monk weapon by 20 feet.</p>\n<p>Apply this benefit before doubling the range increment with the Far Shot feat.</p>"
    },
    "actions": [
      {
        "_id": "tnagd0xuvmlrwsrb",
        "name": "Use",
        "img": "systems/pf1/icons/skills/fire_07.jpg",
        "activation": {
          "type": "swift"
        },
        "unchainedAction": {
          "activation": {
            "type": "action"
          }
        },
        "actionType": ""
      }
    ],
    "tag": "classFeat_kiRangeUc",
    "useCustomTag": true,
    "subType": "classFeat",
    "associations": {
      "classes": [["Monk (Unchained)"]]
    },
    "abilityType": "su"
  }
}
