{
  "_id": "Nc629yyeBE0UeG2n",
  "name": "Leadership Subdomain",
  "type": "feat",
  "img": "systems/pf1/icons/skills/ice_15.jpg",
  "system": {
    "description": {
      "value": "<p><b>Replacement Domain Spells:</b> </p>\n<ul>\n<li>1st—@Compendium[pf1.spells.wa0zb2pncesmm9lz]{Bless}</li>\n<li>3rd—@Compendium[pf1.spells.hu8179fdqfkl0bqj]{Prayer}</li>\n<li>6th—@Compendium[pf1.spells.8mv7anloqgou2ps8]{Brilliant Inspiration}</li>\n</ul>"
    },
    "tag": "classFeat_leadershipSubdomain",
    "useCustomTag": true,
    "subType": "classFeat",
    "associations": {
      "classes": [["Cleric"]]
    }
  }
}
