{
  "_id": "YchnH9zH8GHNdxKr",
  "name": "Lethal Accuracy (UC)",
  "type": "feat",
  "img": "systems/pf1/icons/feats/deafening-critical.jpg",
  "system": {
    "description": {
      "value": "<p>While in the accurate stance, the barbarian’s critical multiplier for damage increases by 1 (a ×2 multiplier becomes ×3, a ×3 multiplier becomes ×4, and a ×4 multiplier becomes ×5).</p>\n<p>A barbarian must have the accurate stance and deadly accuracy rage powers and be at least 16th level to select this rage power.</p>"
    },
    "tag": "classFeat_lethalAccuracyUc",
    "useCustomTag": true,
    "subType": "classFeat",
    "associations": {
      "classes": [["Barbarian (Unchained)"]]
    },
    "abilityType": "ex"
  }
}
