{
  "_id": "kOvp02iAJxuOhJ2L",
  "name": "Life Anchor",
  "type": "feat",
  "img": "systems/pf1/icons/items/inventory/badge-cross.jpg",
  "system": {
    "description": {
      "value": "<p>You gain a 10-foot-radius aura that helps dying creatures cling to life. Within this aura, a dying creature (including yourself) adds your Wisdom bonus to its stabilization checks (in addition to any other modifiers to stabilization checks).</p>"
    },
    "tag": "classFeat_lifeAnchor",
    "useCustomTag": true,
    "subType": "classFeat",
    "associations": {
      "classes": [["Inquisitor"]]
    },
    "abilityType": "su"
  }
}
