{
  "_id": "UcMtpUH9UqAn9429",
  "name": "Lightning Reload",
  "type": "feat",
  "img": "systems/pf1/icons/skills/mech_12.jpg",
  "system": {
    "description": {
      "value": "<p>At 11th level, as long as the gunslinger has at least 1 grit point, she can reload a single barrel of a one-handed or two-handed firearm as a swift action once per round. If she has the @Compendium[pf1.feats.11ClnanF4PdEPd9g]{Rapid Reload} feat or is using an alchemical cartridge (or both), she can reload a single barrel of the weapon as a free action each round instead. Furthermore, using this deed does not provoke attacks of opportunity.</p>"
    },
    "tags": ["Gunslinger Deed"],
    "actions": [
      {
        "_id": "RpIc8aR0cgWiU8yu",
        "name": "Use",
        "img": "systems/pf1/icons/skills/mech_12.jpg",
        "activation": {
          "type": "swift"
        },
        "actionType": ""
      },
      {
        "_id": "sRHthmeVeo7r7tSq",
        "name": "Use (Rapid Reload / Alchemical Cartridge)",
        "img": "systems/pf1/icons/skills/mech_12.jpg",
        "activation": {
          "type": "free"
        },
        "actionType": ""
      }
    ],
    "tag": "classFeat_lightningReload",
    "useCustomTag": true,
    "subType": "classFeat",
    "associations": {
      "classes": [["Gunslinger"]]
    },
    "abilityType": "ex"
  }
}
