{
  "_id": "XnAqNDbJ9Ooym6Si",
  "name": "Lorekeeper (Urban Druid)",
  "type": "feat",
  "img": "systems/pf1/icons/spells/leaf-orange-3.jpg",
  "system": {
    "description": {
      "value": "<p><b>Druid (Urban Druid)</b></p><p><b>Level:</b> 2</p><p>At 2nd level, an urban druid adds Diplomacy, Knowledge (history), Knowledge (local), and Knowledge (nobility) skills to her list of class skills. She also receives a +2 bonus on these skill checks. This ability replaces a druid's woodland stride and trackless step abilities.</p>"
    },
    "changes": [
      {
        "_id": "bxlyc1wj",
        "formula": "2",
        "subTarget": "skill.dip",
        "modifier": "untyped"
      },
      {
        "_id": "87bp0ewv",
        "formula": "2",
        "subTarget": "skill.khi",
        "modifier": "untyped"
      },
      {
        "_id": "yet6p6o1",
        "formula": "2",
        "subTarget": "skill.klo",
        "modifier": "untyped"
      },
      {
        "_id": "73yacu8x",
        "formula": "2",
        "subTarget": "skill.kno",
        "modifier": "untyped"
      }
    ],
    "tag": "classFeat_lorekeeperUrbanDruid",
    "useCustomTag": true,
    "subType": "classFeat",
    "associations": {
      "classes": [["Druid"]]
    }
  }
}
