{
  "_id": "WDYZDqIjcWEUsVpW",
  "name": "Magical Familiarity",
  "type": "feat",
  "img": "systems/pf1/icons/feats/deceitful.jpg",
  "system": {
    "description": {
      "value": "<p>The vigilante taps into a past life’s arcane secrets. He selects a 0-level spell from the sorcerer/wizard spell list. The vigilante can cast the chosen spell three times per day as a spell-like ability, using his vigilante level as his caster level.</p>\n<p>At 6th level, he chooses a second 0-level spell that he can also use three times per day as a spell-like ability.</p>\n<p>At 12th level, in addition to these 0-level spells, he chooses a 1st-level spell that he can cast once per day as a spell-like ability.</p>\n<p>At 18th level, he can cast his 1st-level spell three times per day and his 0-level spells at will.</p>\n<p>The vigilante must have an Intelligence score of at least 10 to select this talent.</p>"
    },
    "tag": "classFeat_magicalFamiliarity",
    "useCustomTag": true,
    "subType": "classFeat",
    "associations": {
      "classes": [["Vigilante"]]
    },
    "abilityType": "sp"
  }
}
