{
  "_id": "LS4i0151JSVw6zzE",
  "name": "Magnetism, Greater",
  "type": "feat",
  "img": "systems/pf1/icons/spells/wind-sky-3.jpg",
  "system": {
    "description": {
      "value": "<p><b>Element</b> air, earth; <b>Type</b> utility (Sp); <b>Level</b> 9; <b>Burn</b> 0<br><b>Prerequisite</b> magnetic infusion, magnetism<br><b>Saving Throw</b> none; <b>SR</b> no</p>\n<p>You can repel or attract metal objects in a vast line with a magnetism so strong that there is no hope of escaping. This functions as @Compendium[pf1.spells.oeemcnfjod9zd7my]{Repel Metal or Stone}, except only for metal objects, and you can also pull the objects toward you instead of pushing them away. The effect lasts for 1 round, and the pulling version of the effect can’t pull objects into the air unless they are already airborne.</p>\n<p>You can accept 1 point of burn to increase the duration to 1 round per kineticist level you have.</p>"
    },
    "tag": "classFeat_magnetismGreater",
    "useCustomTag": true,
    "subType": "classFeat",
    "associations": {
      "classes": [["Kineticist"]]
    },
    "abilityType": "sp"
  }
}
