{
  "_id": "aZ5eCIRrsvax5CZZ",
  "name": "Major Hex",
  "type": "feat",
  "img": "systems/pf1/icons/skills/affliction_11.jpg",
  "system": {
    "description": {
      "value": "<p>Starting at 10th level, and every two levels thereafter, a witch can choose one of the following major hexes whenever she could select a new hex.</p>"
    },
    "tags": ["Major Hex"],
    "tag": "classFeat_majorHex",
    "useCustomTag": true,
    "subType": "classFeat",
    "associations": {
      "classes": [["Witch"]]
    }
  }
}
