{
  "_id": "72YyhmhwZ0xWeRqZ",
  "name": "Mantle Against Chaos",
  "type": "feat",
  "img": "systems/pf1/icons/items/inventory/badge-cross.jpg",
  "system": {
    "description": {
      "value": "<p>You can use @Compendium[pf1.spells.md6ltvqh9paadsm4]{Protection From Chaos} on yourself or another creature as a spell-like ability. You can use this ability for a number of minutes per day equal to your inquisitor level (minimum 1). This duration does not need to be consecutive, but it must be used in 1 minute increments.</p>"
    },
    "actions": [
      {
        "_id": "nx6kxxx265fgbrqh",
        "name": "Use",
        "img": "systems/pf1/icons/items/inventory/badge-cross.jpg",
        "activation": {
          "type": "standard"
        },
        "unchainedAction": {
          "activation": {
            "cost": 2,
            "type": "action"
          }
        },
        "duration": {
          "value": "1",
          "units": "minute"
        },
        "target": {
          "value": "creature touched"
        },
        "range": {
          "units": "touch"
        },
        "actionType": ""
      }
    ],
    "uses": {
      "per": "day",
      "maxFormula": "@classes.inquisitor.level"
    },
    "tag": "classFeat_mantleAgainstChaos",
    "useCustomTag": true,
    "subType": "classFeat",
    "associations": {
      "classes": [["Inquisitor"]]
    },
    "abilityType": "sp"
  }
}
