{
  "_id": "Rfib6GcSF86xCZZu",
  "name": "Martyr Subdomain",
  "type": "feat",
  "img": "systems/pf1/icons/skills/shadow_07.jpg",
  "system": {
    "description": {
      "value": "<p><b>Replacement Domain Spells:</b></p>\n<ul>\n<li>2nd—@Compendium[pf1.spells.menqakfoa1ftvi3f]{Shield Other}</li>\n<li>6th—@Compendium[pf1.spells.z1i7h2b69qfztxf9]{Sacrificial Oath}</li>\n</ul>"
    },
    "tag": "classFeat_martyrSubdomain",
    "useCustomTag": true,
    "subType": "classFeat",
    "associations": {
      "classes": [["Cleric"]]
    }
  }
}
