{
  "_id": "4IIOGeT5qafH4HRa",
  "name": "Masterful Tricks",
  "type": "feat",
  "img": "systems/pf1/icons/skills/blue_01.jpg",
  "system": {
    "description": {
      "value": "<p>At 12th level, a mesmerist can choose one of the following masterful tricks in place of a mesmerist trick. He gains an additional masterful trick every 2 levels thereafter.</p>\n<p>Using a masterful trick consumes two uses of the mesmerist trick class feature instead of one.</p>"
    },
    "tag": "classFeat_masterfulTricks",
    "useCustomTag": true,
    "subType": "classFeat",
    "associations": {
      "classes": [["Mesmerist"]]
    },
    "abilityType": "su"
  }
}
