{
  "_id": "KmVwFz2ajNtvgvbp",
  "name": "Master Strike",
  "type": "feat",
  "img": "systems/pf1/icons/feats/greater-vital-strike.jpg",
  "system": {
    "description": {
      "value": "<p>Upon reaching 20th level, a rogue becomes incredibly deadly when dealing sneak attack damage. Each time the rogue deals sneak attack damage, she can choose one of the following three effects:</p>\n<p>The target can be…</p>\n<ul>\n<li>put to sleep for 1d4 hours</li>\n<li><em>paralyzed</em> for 2d6 rounds, or</li>\n<li>slain</li>\n</ul>\n<p>Regardless of the effect chosen, the target receives a <em>Fortitude</em> save to negate the additional effect. The DC of this save is equal to 10 + 1/2 the rogue’s level + the rogue’s <em>Intelligence</em> modifier. Once a creature has been the target of a master strike, regardless of whether or not the save is made, that creature is immune to that rogue’s master strike for 24 hours. Creatures that are immune to sneak attack damage are also immune to this ability.</p>"
    },
    "actions": [
      {
        "_id": "5zhbp6mlt3q6hv8o",
        "name": "Use",
        "img": "systems/pf1/icons/feats/greater-vital-strike.jpg",
        "activation": {
          "type": "passive"
        },
        "unchainedAction": {
          "activation": {
            "type": "passive"
          }
        },
        "actionType": ""
      }
    ],
    "tag": "classFeat_masterStrike",
    "useCustomTag": true,
    "subType": "classFeat",
    "associations": {
      "classes": [["Rogue"]]
    },
    "abilityType": "ex"
  }
}
