{
  "_id": "Rex03Cj21tBYdwxJ",
  "name": "Master of Disguise (UC)",
  "type": "feat",
  "img": "systems/pf1/icons/items/weapons/razor-drow.PNG",
  "system": {
    "description": {
      "value": "<p>Once per day, a rogue with this talent can don a disguise as a standard action. While wearing that disguise, she gains a +10 bonus on all Disguise checks.</p>\n<p>A rogue must have the Quick Disguise talent to select this talent.</p>"
    },
    "actions": [
      {
        "_id": "lnkhkes70tpuv3wj",
        "name": "Use",
        "img": "systems/pf1/icons/items/weapons/razor-drow.PNG",
        "activation": {
          "type": "standard"
        },
        "unchainedAction": {
          "activation": {
            "cost": 2,
            "type": "action"
          }
        },
        "actionType": ""
      }
    ],
    "uses": {
      "per": "day",
      "maxFormula": "1"
    },
    "tag": "classFeat_masterOfDisguiseUc",
    "useCustomTag": true,
    "subType": "classFeat",
    "associations": {
      "classes": [["Rogue (Unchained)"]]
    },
    "abilityType": "ex"
  }
}
