{
  "_id": "C5Th67iHrKgKss6o",
  "name": "Menacing Shot",
  "type": "feat",
  "img": "systems/pf1/icons/skills/fire_06.jpg",
  "system": {
    "description": {
      "value": "<p>At 15th level, the gunslinger can spend 1 grit point, shoot a firearm into the air, and affect all living creatures within a 30-foot-radius burst as if they were subject to the fear spell. The DC of this effect is equal to 10 + 1/2 the gunslinger’s level + the gunslinger’s Wisdom modifier.</p>"
    },
    "tags": ["Gunslinger Deed"],
    "tag": "classFeat_menacingShot",
    "useCustomTag": true,
    "subType": "classFeat",
    "associations": {
      "classes": [["Gunslinger"]]
    },
    "abilityType": "ex"
  }
}
