{
  "_id": "LsC4eeQsy0PwdjPE",
  "name": "Morphic Form",
  "type": "feat",
  "img": "systems/pf1/icons/spells/slice-spirit-3.jpg",
  "system": {
    "description": {
      "value": "<p>At 5th level, while manifesting your dark half, you gain DR 5. This damage reduction can be overcome by a random type of damage each time you manifest your dark half, determined by rolling on the table below.<br><br></p>\n<table>\n<tbody>\n<tr>\n<td><b>d%</b></td>\n<td><b>Damage Reduction</b></td>\n</tr>\n<tr>\n<td>1–35</td>\n<td>DR 5/bludgeoning</td>\n</tr>\n<tr>\n<td>36–60</td>\n<td>DR 5/cold iron</td>\n</tr>\n<tr>\n<td>61–100</td>\n<td>DR 5/magic</td>\n</tr>\n</tbody>\n</table>"
    },
    "tag": "classFeat_morphicForm",
    "useCustomTag": true,
    "subType": "classFeat",
    "associations": {
      "classes": [["Psychic"]]
    },
    "abilityType": "ex"
  }
}
