{
  "_id": "KI2QAMKMw4LCHBLI",
  "name": "Multitalented, Greater (UC)",
  "type": "feat",
  "img": "systems/pf1/icons/items/weapons/razor-drow.PNG",
  "system": {
    "description": {
      "value": "<p>A rogue with this talent can use the multitalented rogue talent to gain additional uses of advanced talents.</p>\n<p>A rogue must have the multitalented talent to select this talent.</p>"
    },
    "tag": "classFeat_multitalentedGreaterUc",
    "useCustomTag": true,
    "subType": "classFeat",
    "associations": {
      "classes": [["Rogue (Unchained)"]]
    },
    "abilityType": "ex"
  }
}
