{
  "_id": "ufzQpQBCyoJ8M9DD",
  "name": "Mutagen (Discovery)",
  "type": "feat",
  "img": "systems/pf1/icons/items/potions/unique-3.jpg",
  "system": {
    "description": {
      "value": "<p>This discovery gives the alchemist the mutagen class ability. (This discovery exists so alchemist archetypes who have variant mutagens, such as the <a href=\"https://aonprd.com/ArchetypeDisplay.aspx?FixedName=Alchemist%20Mindchemist\">mindchemist</a>, can learn how to make standard mutagens.)</p>"
    },
    "tag": "classFeat_mutagenDiscovery",
    "useCustomTag": true,
    "subType": "classFeat",
    "associations": {
      "classes": [["Alchemist"]]
    },
    "abilityType": "su"
  }
}
