{
  "_id": "sU8BzWmsGECaAzLq",
  "name": "Night Vision",
  "type": "feat",
  "img": "systems/pf1/icons/feats/deafening-critical.jpg",
  "system": {
    "description": {
      "value": "<p>The barbarian's senses grow incredibly sharp while raging and she gains darkvision 60 feet.</p>\n<p>A barbarian must have low-light vision as a rage power or a racial trait to select this rage power.</p>"
    },
    "tag": "classFeat_nightVision",
    "useCustomTag": true,
    "subType": "classFeat",
    "associations": {
      "classes": [["Barbarian"], ["Skald"]]
    },
    "abilityType": "ex"
  }
}
