{
  "_id": "RKsUlGbBXyfa84iB",
  "name": "Nimble Walker",
  "type": "feat",
  "img": "systems/pf1/icons/skills/armor_01.jpg",
  "system": {
    "description": {
      "value": "<p>At 20th level, you gain a +5 <em>racial bonus</em> on <em>Reflex</em> saving throws and on <em>Acrobatics</em> checks made to move through a creature’s <em>threatened</em> area or through its space. You also gain the ability to breathe while passing through earth using your <em>earth glide</em> ability.</p>"
    },
    "actions": [
      {
        "_id": "ljg2o4jcup4jrjl9",
        "name": "Use",
        "img": "systems/pf1/icons/skills/armor_01.jpg",
        "activation": {
          "type": "passive"
        },
        "unchainedAction": {
          "activation": {
            "type": "passive"
          }
        },
        "actionType": ""
      }
    ],
    "changes": [
      {
        "_id": "4we3ax55",
        "formula": "5",
        "subTarget": "ref",
        "modifier": "racial"
      }
    ],
    "tag": "classFeat_nimbleWalker",
    "useCustomTag": true,
    "subType": "classFeat",
    "associations": {
      "classes": [["Sorcerer"]]
    },
    "abilityType": "su"
  }
}
