{
  "_id": "cV03JvG2PdoJ3AFA",
  "name": "Noble Visage",
  "type": "feat",
  "img": "systems/pf1/icons/skills/weapon_06.jpg",
  "system": {
    "description": {
      "value": "<p>You gain a +1 bonus on Charisma checks and Charisma-based skill checks against creatures that share your creature type (and subtype, if you are a humanoid). This bonus increases by 1 for every 5 levels you possess.<p>As a standard action, you can touch an ally to grant her your noble visage bonus against creatures that share her creature type (or subtype) for 1 minute. When you use this ability, you lose your noble visage bonus for 1 minute. You can use this ability a number of times per day equal to 3 + your Wisdom modifier.</p>\n<p>This power replaces the Inspiring Word power of the Nobility Domain.</p>"
    },
    "actions": [
      {
        "_id": "aqwudw7hbq6hf88i",
        "name": "Use",
        "img": "systems/pf1/icons/skills/weapon_06.jpg",
        "activation": {
          "type": "standard"
        },
        "unchainedAction": {
          "activation": {
            "cost": 2,
            "type": "action"
          }
        },
        "duration": {
          "value": "1",
          "units": "minute"
        },
        "target": {
          "value": "ally touched"
        },
        "range": {
          "units": "touch"
        },
        "actionType": ""
      }
    ],
    "uses": {
      "per": "day",
      "maxFormula": "3 + @abilities.wis.mod"
    },
    "tag": "classFeat_nobleVisage",
    "useCustomTag": true,
    "subType": "classFeat",
    "associations": {
      "classes": [["Cleric"]]
    },
    "abilityType": "su"
  }
}
