{
  "_id": "efDNvQHwNrW4kk2d",
  "name": "Numerical Strike, Greater",
  "type": "feat",
  "img": "systems/pf1/icons/items/weapons/sword-cane.png",
  "system": {
    "description": {
      "value": "<p>Once per day, when the investigator has confirmed a critical hit with a studied strike, he can deal the strike’s maximum damage instead of rolling damage as normal. This includes the damage dealt by the successful attack as well as the additional damage from the studied strike. He can expend a use of inspiration to use this ability a second time per day. Using this ability doesn’t require an action.</p>\n<p>The investigator must have the numerical strike talent and be at least 13th level to select this talent.</p>"
    },
    "actions": [
      {
        "_id": "913bmhweyen5nmjt",
        "name": "Use",
        "img": "systems/pf1/icons/items/weapons/sword-cane.png",
        "activation": {
          "type": "special"
        },
        "unchainedAction": {
          "activation": {
            "type": "special"
          }
        },
        "actionType": ""
      }
    ],
    "uses": {
      "per": "day",
      "maxFormula": "1"
    },
    "tag": "classFeat_numericalStrikeGreater",
    "useCustomTag": true,
    "subType": "classFeat",
    "associations": {
      "classes": [["Investigator"]]
    },
    "abilityType": "ex"
  }
}
