{
  "_id": "SL71XqQvgXB77XcH",
  "name": "Overbearing Onslaught",
  "type": "feat",
  "img": "systems/pf1/icons/feats/deafening-critical.jpg",
  "system": {
    "description": {
      "value": "<p>While raging, the barbarian may overrun more than one target per round, with a –2 penalty on her CMB for each overrun check after the first. A barbarian must have the overbearing advance rage power to select this rage power.</p>\n<p>A barbarian must be at least 6th level to select this rage power.</p>"
    },
    "tag": "classFeat_overbearingOnslaught",
    "useCustomTag": true,
    "subType": "classFeat",
    "associations": {
      "classes": [["Barbarian"], ["Skald"]]
    },
    "abilityType": "ex"
  }
}
