{
  "_id": "FVnAmjSrgTx4gUE8",
  "name": "Pack Range",
  "type": "feat",
  "img": "systems/pf1/icons/feats/deafening-critical.jpg",
  "system": {
    "description": {
      "value": "<p>When a barbarian with this rage power enters a rage, any barbarian within 30 feet who also has this rage power can enter a rage. A barbarian that enters a rage outside of her turn spends 1 round of rage immediately and then spends another round of rage to maintain her rage at the beginning of her next turn.</p>\n<p>A barbarian must be at least 6th level to choose this rage power.</p>"
    },
    "tag": "classFeat_packRange",
    "useCustomTag": true,
    "subType": "classFeat",
    "associations": {
      "classes": [["Barbarian"], ["Skald"]]
    },
    "abilityType": "ex"
  }
}
