{
  "_id": "ppFTKdtr2NXc6Ims",
  "name": "Penetrating Infusion",
  "type": "feat",
  "img": "systems/pf1/icons/spells/fireball-red-3.jpg",
  "system": {
    "description": {
      "value": "<p><b>Element</b> air, fire, water; <b>Type</b> substance infusion; <b>Level</b> 2; <b>Burn</b> 2<br><b>Associated Blasts</b> blue flame, cold, electric, fire<br><b>Saving Throw</b> none</p>\n<p>The intensity of your blasts allows you to break through your foes’ resistances. Treat your foe’s cold, electricity, or fire resistance as if it were 5 lower for the purpose of determining the infused blast’s damage; this doesn’t stack with the reduction from searing flame.</p>\n<p>You can increase the burn cost of this infusion to further reduce the foe’s resistance against the infused blast by 5 per additional point of burn accepted. This has no effect on creatures with immunity.</p>"
    },
    "tag": "classFeat_penetratingInfusion",
    "useCustomTag": true,
    "subType": "classFeat",
    "associations": {
      "classes": [["Kineticist"]]
    }
  }
}
