{
  "_id": "6zw94Q5PQJy5tMsC",
  "name": "Phantom Touch",
  "type": "feat",
  "img": "systems/pf1/icons/spells/light-royal-1.jpg",
  "system": {
    "description": {
      "value": "<p>As a standard action, you can perform a melee touch attack that causes a living creature to become shaken. This ability lasts for a number of rounds equal to 1/2 your oracle level (minimum 1 round). You can use this ability a number of times per day equal to 3 + your Charisma modifier.</p>"
    },
    "tags": ["Revelation", "Ancestor Mystery"],
    "actions": [
      {
        "_id": "7fvofw7ctvqqfxid",
        "name": "Use",
        "img": "systems/pf1/icons/spells/light-royal-1.jpg",
        "activation": {
          "type": "standard"
        },
        "unchainedAction": {
          "activation": {
            "cost": 2,
            "type": "action"
          }
        },
        "duration": {
          "value": "max(1, floor(@classes.oracle.level / 2))",
          "units": "round"
        },
        "target": {
          "value": "creature touched"
        },
        "range": {
          "units": "touch"
        },
        "actionType": "msak",
        "ability": {
          "attack": "dex"
        }
      }
    ],
    "uses": {
      "per": "day",
      "maxFormula": "3 + @abilities.cha.mod"
    },
    "tag": "classFeat_phantomTouch",
    "useCustomTag": true,
    "subType": "classFeat",
    "associations": {
      "classes": [["Oracle"]]
    },
    "abilityType": "su"
  }
}
