{
  "_id": "RxsrOn5n8b9UgNbB",
  "name": "Philosopher's Stone",
  "type": "feat",
  "img": "systems/pf1/icons/items/potions/unique-3.jpg",
  "system": {
    "description": {
      "value": "<p>The alchemist learns how to create a <a href=\"https://aonprd.com/MagicArtifactsDisplay.aspx?ItemName=Philosopher%27s%20Stone\">philosopher’s stone</a>, and can do so once per month at no cost. Creating a philosopher’s stone takes 1 day of work.</p>"
    },
    "tag": "classFeat_philosophersStone",
    "useCustomTag": true,
    "subType": "classFeat",
    "associations": {
      "classes": [["Alchemist"]]
    }
  }
}
