{
  "_id": "Z5JiBMcrm3V0YW90",
  "name": "Pierce the Veil",
  "type": "feat",
  "img": "systems/pf1/icons/spells/light-royal-1.jpg",
  "system": {
    "description": {
      "value": "<p>Your bond with the alien denizens of the Dark Tapestry allows you to see in even the deepest darkness. You gain darkvision 60 feet.</p>\n<p>At 11th level, you can see perfectly in darkness of any kind, even in absolute darkness or the darkness created by a deeper darkness spell.</p>"
    },
    "actions": [
      {
        "_id": "qfsrv1kxi4fj9zzx",
        "name": "Use",
        "img": "systems/pf1/icons/spells/light-royal-1.jpg",
        "activation": {
          "type": "passive"
        },
        "unchainedAction": {
          "activation": {
            "type": "passive"
          }
        },
        "target": {
          "value": "self"
        },
        "range": {
          "units": "personal"
        },
        "actionType": ""
      }
    ],
    "tag": "classFeat_pierceTheVeil",
    "useCustomTag": true,
    "subType": "classFeat",
    "associations": {
      "classes": [["Oracle"]]
    },
    "abilityType": "su"
  }
}
