{
  "_id": "oK4nOsSreHhGJgev",
  "name": "Plant Puppet",
  "type": "feat",
  "img": "systems/pf1/icons/spells/vines-jade-3.jpg",
  "system": {
    "description": {
      "value": "<p><b>Element</b> wood; <b>Type</b> utility (Sp); <b>Level</b> 5; <b>Burn</b> 0</p>\n<p>You can control plants, causing them to attack your foes. This functions as the aether puppet wild talent, except it controls plants instead of objects.</p>\n<p>At 12th level, you can grant hardness 5 to Large and larger animated plants.</p>"
    },
    "tag": "classFeat_plantPuppet",
    "useCustomTag": true,
    "subType": "classFeat",
    "associations": {
      "classes": [["Kineticist"]]
    },
    "abilityType": "sp"
  }
}
