{
  "_id": "9owi5JHAGEHU9lqp",
  "name": "Politics Inquisition",
  "type": "feat",
  "img": "systems/pf1/icons/items/inventory/badge-cross.jpg",
  "system": {
    "description": {
      "value": "<p><b>Granted Powers:</b> Your divine guidance twists agreements, laws, and policies to suit the interests of the faith.</p>"
    },
    "tag": "classFeat_politicsInquisition",
    "useCustomTag": true,
    "subType": "classFeat",
    "associations": {
      "classes": [["Inquisitor"]]
    }
  }
}
