{
  "_id": "D2D3fNKKBkdxoJOs",
  "name": "Power from Pageantry",
  "type": "feat",
  "img": "systems/pf1/icons/spells/slice-spirit-3.jpg",
  "system": {
    "description": {
      "value": "<p>When casting a spell with a casting time of 1 standard action or less, you can spend 1 point from your phrenic pool to extend the casting time to 1 full round. If you do, the caster level and saving throw DC increase by 2.</p>"
    },
    "tag": "classFeat_powerFromPageantry",
    "useCustomTag": true,
    "subType": "classFeat",
    "associations": {
      "classes": [["Psychic"]]
    },
    "abilityType": "su"
  }
}
