{
  "_id": "FofDTk51Fd5uS48Y",
  "name": "Prescient Defense",
  "type": "feat",
  "img": "systems/pf1/icons/spells/enchant-red-3.jpg",
  "system": {
    "description": {
      "value": "<p>The magus can expend 1 point from his arcane pool as an immediate action after hitting a target with a weapon attack, granting him a premonition of his enemy’s intentions. The magus gains a bonus to his AC and on Reflex saves equal to his Intelligence modifier (minimum 0) against attacks by that opponent until the beginning of his next turn.</p>\n<p>The magus must be at least 9th level before selecting this arcana.</p>"
    },
    "actions": [
      {
        "_id": "6kdtycprmox8t22f",
        "name": "Use",
        "img": "systems/pf1/icons/spells/enchant-red-3.jpg",
        "activation": {
          "type": "immediate"
        },
        "unchainedAction": {
          "activation": {
            "type": "reaction"
          }
        },
        "duration": {
          "value": "1",
          "units": "round"
        },
        "target": {
          "value": "self"
        },
        "range": {
          "units": "personal"
        },
        "actionType": ""
      }
    ],
    "tag": "classFeat_prescientDefense",
    "useCustomTag": true,
    "subType": "classFeat",
    "associations": {
      "classes": [["Magus"]]
    },
    "abilityType": "su"
  }
}
