{
  "_id": "Xcit9CSLtsQonm30",
  "name": "Presence of Dragons",
  "type": "feat",
  "img": "systems/pf1/icons/spells/light-royal-1.jpg",
  "system": {
    "description": {
      "value": "<p>Those who would oppose you must overcome their fear of dragons or be struck with terror at your draconic majesty. As a swift action, you can manifest an aura of draconic might around yourself. Enemies within 30 feet who can see you when you activate this ability must attempt a Will save. Success means that the creature is immune to this ability for the following 24 hours. On a failed save, the opponent is shaken for 2d6 rounds. This is a mind-affecting fear effect.</p>\n<p>You can use this ability once per day at 1st level, plus one additional time per day at 5th level and for every 5 levels beyond 5th.</p>"
    },
    "actions": [
      {
        "_id": "43n5e5f7h2qop3j6",
        "name": "Use",
        "img": "systems/pf1/icons/spells/light-royal-1.jpg",
        "activation": {
          "type": "swift"
        },
        "unchainedAction": {
          "activation": {
            "type": "action"
          }
        },
        "duration": {
          "value": "2d6",
          "units": "round"
        },
        "target": {
          "value": "you"
        },
        "range": {
          "value": "30",
          "units": "ft"
        },
        "actionType": "save",
        "save": {
          "type": "will",
          "description": "Will negates"
        }
      }
    ],
    "uses": {
      "per": "day",
      "maxFormula": "1 + floor(@classes.oracle.level / 5)"
    },
    "tag": "classFeat_presenceOfDragons",
    "useCustomTag": true,
    "subType": "classFeat",
    "associations": {
      "classes": [["Oracle"]]
    },
    "abilityType": "su"
  }
}
