{
  "_id": "lBwQLwdAMorDV5cz",
  "name": "Pure-Flame Infusion",
  "type": "feat",
  "img": "systems/pf1/icons/spells/fireball-red-3.jpg",
  "system": {
    "description": {
      "value": "<p><b>Element</b> fire; <b>Type</b> substance infusion; <b>Level</b> 7; <b>Burn</b> 4<br><b>Associated Blasts</b> blue flame<br><b>Saving Throw</b> none</p>\n<p>You open a direct conduit to the purest elemental fire and send it surging forth. Your infused blast ignores spell resistance.</p>"
    },
    "tag": "classFeat_pureflameInfusion",
    "useCustomTag": true,
    "subType": "classFeat",
    "associations": {
      "classes": [["Kineticist"]]
    }
  }
}
