{
  "_id": "mIBMlofjHUod2NPy",
  "name": "Quick Reflexes (UC)",
  "type": "feat",
  "img": "systems/pf1/icons/feats/deafening-critical.jpg",
  "system": {
    "description": {
      "value": "<p>The barbarian can make one additional attack of opportunity per round.</p>"
    },
    "tag": "classFeat_quickReflexesUc",
    "useCustomTag": true,
    "subType": "classFeat",
    "associations": {
      "classes": [["Barbarian (Unchained)"]]
    },
    "abilityType": "ex"
  }
}
