{
  "_id": "PRaKyCk6CoN94fCw",
  "name": "Raging Swimmer (UC)",
  "type": "feat",
  "img": "systems/pf1/icons/feats/deafening-critical.jpg",
  "system": {
    "description": {
      "value": "<p>The barbarian gains a swim speed equal to 1/2 her base land speed (taking into account her fast movement class feature).</p>\n<p>She also gains a +8 enhancement bonus on Swim checks.</p>"
    },
    "tag": "classFeat_ragingSwimmerUc",
    "useCustomTag": true,
    "subType": "classFeat",
    "associations": {
      "classes": [["Barbarian (Unchained)"]]
    },
    "abilityType": "ex"
  }
}
