{
  "_id": "kYc25YOKUYZxMQFn",
  "name": "Reaper Mystery",
  "type": "feat",
  "img": "systems/pf1/icons/spells/light-magenta-2.jpg",
  "system": {
    "description": {
      "value": "<p><b>Class Skills:</b> An oracle with this mystery adds Intimidate, Perception, Stealth, and Survival to her list of class skills.<p><b>Bonus Spells:</b></p>\n<ul>\n<li>@Compendium[pf1.spells.to1cdmyh5rtfyg2s]{Chill Touch} (2nd), </li>\n<li>@Compendium[pf1.spells.y4ztvvswf2uuwuqo]{Calm Spirit} (4th), </li>\n<li>@Compendium[pf1.spells.l7tmsbg37zr1q382]{Sands of Time} (6th), </li>\n<li>@Compendium[pf1.spells.l8xwrepcmkdgb2wf]{Purge Spirit} (8th), </li>\n<li>@Compendium[pf1.spells.dg3mrasygkm83c3e]{Slay Living} (10th), </li>\n<li>@Compendium[pf1.spells.lllhr9py6w44cxjm]{Undeath to Death} (12th), </li>\n<li>@Compendium[pf1.spells.rlfd7f64wgjfvg6e]{Destruction} (14th), </li>\n<li>@Compendium[pf1.spells.e8zen5nzixnt7bde]{Horrid Wilting} (16th), </li>\n<li>@Compendium[pf1.spells.wplgawb6aznjx7se]{Wail of the Banshee} (18th).</li>\n</ul>"
    },
    "tag": "classFeat_reaperMystery",
    "useCustomTag": true,
    "subType": "classFeat",
    "associations": {
      "classes": [["Oracle"]]
    }
  }
}
