{
  "_id": "8iWGEKKdoKTHsDy5",
  "name": "Rebuke Death",
  "type": "feat",
  "img": "systems/pf1/icons/spells/light-blue-1.jpg",
  "system": {
    "description": {
      "value": "<p>You can touch a living creature as a standard action, healing it for 1d4 points of damage plus 1 for every two cleric levels you possess. You can only use this ability on a creature that is below 0 hit points. You can use this ability a number of times per day equal to 3 + your Wisdom modifier.</p>"
    },
    "actions": [
      {
        "_id": "mo2m6jucoq4xz3uh",
        "name": "Use",
        "img": "systems/pf1/icons/spells/light-blue-1.jpg",
        "activation": {
          "type": "standard"
        },
        "unchainedAction": {
          "activation": {
            "cost": 2,
            "type": "action"
          }
        },
        "duration": {
          "units": "inst"
        },
        "target": {
          "value": "creature touched"
        },
        "range": {
          "units": "touch"
        },
        "actionType": "heal",
        "damage": {
          "parts": [
            {
              "formula": "1d4 + floor(@classes.cleric.level / 2)",
              "type": {
                "values": ["untyped"],
                "custom": ""
              }
            }
          ]
        }
      }
    ],
    "uses": {
      "per": "day",
      "maxFormula": "3 + @abilities.wis.mod"
    },
    "tag": "classFeat_rebukeDeath",
    "useCustomTag": true,
    "subType": "classFeat",
    "associations": {
      "classes": [["Cleric"]]
    },
    "abilityType": "sp"
  }
}
