{
  "_id": "oSeJdoEjNlQ0CF1b",
  "name": "Resiliency (ORA) (Godclaw)",
  "type": "feat",
  "img": "systems/pf1/icons/spells/light-royal-1.jpg",
  "system": {
    "description": {
      "value": "<p>Once per day, when you are brought below 0 hit points but not killed, you can act is if you are disabled for 1 round. At the end of your next turn, unless you are brought to above 0 hit points, you immediately fall unconscious and begin dying.</p>\n<p>At 7th level, you gain @Compendium[pf1.feats.O0e0UCim27GPKFuW]{Diehard} as a bonus feat, even if you do not meet the prerequisite.</p>\n<p>At 15th level, three times per day, if you are disabled and take a standard action (or any otherwise strenuous action), you avoid taking 1 point of damage if you succeed at a DC 15 Fortitude saving throw.</p>"
    },
    "actions": [
      {
        "_id": "9ivrd8tyj18mqkfg",
        "name": "Use",
        "img": "systems/pf1/icons/spells/light-royal-1.jpg",
        "activation": {
          "type": "passive"
        },
        "unchainedAction": {
          "activation": {
            "type": "passive"
          }
        },
        "actionType": ""
      }
    ],
    "uses": {
      "per": "day",
      "maxFormula": "@classes.oracle.level >= 15 ? 3 : 1"
    },
    "tag": "classFeat_resiliencyOraGodclaw",
    "useCustomTag": true,
    "subType": "classFeat",
    "associations": {
      "classes": [["Oracle"]]
    },
    "abilityType": "ex"
  }
}
