{
  "_id": "DXM5DknJ0sx4fK72",
  "name": "Resist Life",
  "type": "feat",
  "img": "systems/pf1/icons/spells/light-royal-1.jpg",
  "system": {
    "description": {
      "value": "<p>You are treated as an undead creature when you are targeted by positive or negative energy. You are not subject to Turn Undead or Command Undead (or any other effect that specifically targets undead), unless you are actually an undead creature.</p>\n<p>At 7th level, you receive channel resistance +2.</p>\n<p>This bonus increases by +2 at 11th and 15th level.</p>"
    },
    "actions": [
      {
        "_id": "502t3nij7ziganql",
        "name": "Use",
        "img": "systems/pf1/icons/spells/light-royal-1.jpg",
        "activation": {
          "type": "passive"
        },
        "unchainedAction": {
          "activation": {
            "type": "passive"
          }
        },
        "actionType": ""
      }
    ],
    "tag": "classFeat_resistLife",
    "useCustomTag": true,
    "subType": "classFeat",
    "associations": {
      "classes": [["Oracle"]]
    },
    "abilityType": "su"
  }
}
