{
  "_id": "Kh4t55kX5lUnVfjg",
  "name": "Rift Magic",
  "type": "feat",
  "img": "systems/pf1/icons/spells/light-royal-1.jpg",
  "system": {
    "description": {
      "value": "<p>Your spells gain a +4 bonus on caster level checks made to overcome the spell resistance of chaotic outsiders and evil outsiders.</p>"
    },
    "actions": [
      {
        "_id": "4p06lt0tfzq9h44a",
        "name": "Use",
        "img": "systems/pf1/icons/spells/light-royal-1.jpg",
        "activation": {
          "type": "passive"
        },
        "unchainedAction": {
          "activation": {
            "type": "passive"
          }
        },
        "actionType": ""
      }
    ],
    "tag": "classFeat_riftMagic",
    "useCustomTag": true,
    "subType": "classFeat",
    "associations": {
      "classes": [["Oracle"]]
    },
    "abilityType": "su"
  }
}
