{
  "_id": "y76rzmzb9kUgkeSN",
  "name": "Righteous Fury",
  "type": "feat",
  "img": "systems/pf1/icons/skills/blue_21.jpg",
  "system": {
    "description": {
      "value": "<p>At 9th level, once per day you can create a spear of pure light and throw it at a creature within 60 feet as a <em>standard action</em>. This is a ranged <em>touch attack</em> that uses your <em>Charisma</em> modifier in place of your <em>Dexterity</em> modifier to determine the <em>attack bonus</em>. The <em>spear</em> deals 1d6 points of damage per <em>sorcerer</em> level and ignores all <em>damage reduction</em> and <em>hardness</em>. This damage increases to 1d8 points of damage per <em>sorcerer</em> level against an evil creature. At 13th level, you can use this ability twice per day. At 17th level, you can use this ability three times per day.</p>"
    },
    "actions": [
      {
        "_id": "0d6ttwjagp4mx552",
        "name": "Use",
        "img": "systems/pf1/icons/skills/blue_21.jpg",
        "activation": {
          "type": "standard"
        },
        "unchainedAction": {
          "activation": {
            "cost": 2,
            "type": "action"
          }
        },
        "duration": {
          "units": "inst"
        },
        "target": {
          "value": "one creature"
        },
        "range": {
          "value": "60 ft.",
          "units": "spec"
        },
        "actionType": "rsak",
        "damage": {
          "parts": [
            {
              "formula": "(@classes.sorcerer.level)d6",
              "type": {
                "values": ["untyped"],
                "custom": ""
              }
            }
          ]
        },
        "ability": {
          "attack": "cha"
        }
      }
    ],
    "uses": {
      "per": "day"
    },
    "tag": "classFeat_righteousFury",
    "useCustomTag": true,
    "subType": "classFeat",
    "associations": {
      "classes": [["Sorcerer"]]
    },
    "abilityType": "su"
  }
}
