{
  "_id": "oW9NTOJR3gjQMZxq",
  "name": "Scrying Familiarity",
  "type": "feat",
  "img": "systems/pf1/icons/items/weapons/dagger.PNG",
  "system": {
    "description": {
      "value": "<p>You are well acquainted with scrying sensors. You can roll twice and take the better result on saving throws against divination (scrying) spells and effects, on Perception checks to notice scrying sensors, and on caster level checks to overcome spell resistance when you use a scrying spell or effect. If you notice a magical sensor, you can attempt a Stealth check opposed by the caster’s caster level check to avoid being detected by the sensor.</p>"
    },
    "tag": "classFeat_scryingFamiliarity",
    "useCustomTag": true,
    "subType": "classFeat",
    "associations": {
      "classes": [["Rogue"]]
    },
    "abilityType": "ex"
  }
}
