{
  "_id": "cyZMcwcUAiWK9D6i",
  "name": "Shared Slot (2 pts)",
  "type": "feat",
  "img": "systems/pf1/icons/skills/blue_26.jpg",
  "system": {
    "description": {
      "value": "<p>Select a magic item slot. A magic item worn by the eidolon in that slot remains active even if the summoner is also wearing a magic item in that slot.</p>\n<p>This evolution can be selected more than once. Each time an eidolon selects this evolution, it applies to a new slot.</p>\n<p>This evolution can only be taken by Summoners with the Twinned Summoner archetype.</p>"
    },
    "tag": "classFeat_sharedSlot2Pts",
    "useCustomTag": true,
    "subType": "classFeat",
    "associations": {
      "classes": [["Eidolon"]]
    },
    "abilityType": "su"
  }
}
