{
  "_id": "6Jwsh2SRwV28wcI0",
  "name": "Shard Soul",
  "type": "feat",
  "img": "systems/pf1/icons/skills/violet_20.jpg",
  "system": {
    "description": {
      "value": "<p>The shaman gains DR 3/magic. This DR increases by 1 for every 4 shaman levels she possesses beyond 8th. In addition, as a standard action she can cause jagged pieces of bone to explode from her body in a 10-footradius burst. This deals 1d6 points of piercing damage for every 2 shaman levels she possesses. A successful Reflex saving throw halves this damage.</p>\n<p>The shaman can use this ability three times per day, but she must wait 1d4 rounds between each use.</p>"
    },
    "actions": [
      {
        "_id": "jej0bfkokz8q2xak",
        "name": "Use",
        "img": "systems/pf1/icons/skills/violet_20.jpg",
        "activation": {
          "type": "standard"
        },
        "unchainedAction": {
          "activation": {
            "cost": 2,
            "type": "action"
          }
        },
        "duration": {
          "units": "inst"
        },
        "target": {
          "value": "10-ft. radius burst"
        },
        "range": {
          "value": "10",
          "units": "ft"
        },
        "actionType": "save",
        "damage": {
          "parts": [
            {
              "formula": "(floor(@classes.shaman.level / 2))d6",
              "type": {
                "values": ["piercing"],
                "custom": ""
              }
            }
          ]
        },
        "save": {
          "type": "ref",
          "description": "Reflex half"
        }
      }
    ],
    "uses": {
      "per": "day",
      "maxFormula": "3"
    },
    "tag": "classFeat_shardSoul",
    "useCustomTag": true,
    "subType": "classFeat",
    "associations": {
      "classes": [["Shaman"]]
    },
    "abilityType": "su"
  }
}
