{
  "_id": "xVjIlhkuCZwiEC1g",
  "name": "Sharpened Accuracy (UC)",
  "type": "feat",
  "img": "systems/pf1/icons/feats/deafening-critical.jpg",
  "system": {
    "description": {
      "value": "<p>While in the accurate stance, the barbarian ignores the miss chance for concealment and treats total concealment as concealment. She also ignores cover penalties except those from total cover.</p>\n<p>A barbarian must have the accurate stance rage power and be at least 8th level to select this rage power.</p>"
    },
    "tag": "classFeat_sharpenedAccuracyUc",
    "useCustomTag": true,
    "subType": "classFeat",
    "associations": {
      "classes": [["Barbarian (Unchained)"]]
    },
    "abilityType": "ex"
  }
}
