{
  "_id": "7hBNgSsYXUjx0G1C",
  "name": "Shattering Punch (UC)",
  "type": "feat",
  "img": "systems/pf1/icons/skills/yellow_08.jpg",
  "system": {
    "description": {
      "value": "<p>The monk delivers a brutal punch that can penetrate defenses. If the attack hits, it bypasses any damage reduction or hardness possessed by the target of that attack.</p>\n<p>The monk must attack with a fist to use this style strike.</p>"
    },
    "tag": "classFeat_shatteringPunchUc",
    "useCustomTag": true,
    "subType": "classFeat",
    "associations": {
      "classes": [["Monk (Unchained)"]]
    },
    "abilityType": "ex"
  }
}
