{
  "_id": "XjLcCIhCBES0J3Oj",
  "name": "Shell of Succor",
  "type": "feat",
  "img": "systems/pf1/icons/spells/light-royal-1.jpg",
  "system": {
    "description": {
      "value": "<p>You can surround an ally with bolstering energies that supplement its health and grant it extra vigor. With a touch from you (a standard action), one creature gains a ward of restorative energy, granting it a number of temporary hit points equal to your Charisma bonus + 1d6 per 2 oracle levels you have (maximum 10d6). These temporary hit points last 1 minute per oracle level you have.</p>\n<p>The target always loses these temporary hit points first, even before other temporary hit points (including those from, for example, the purify body spell on page 9 or a kineticist’s force ward defense wild talent). If an attack deals fewer points of damage than the target has as temporary hit points from shell of succor, it still reduces those temporary hit points but otherwise counts as a miss for the purpose of abilities that trigger on a hit or a miss.</p>\n<p>You can use this revelation once per day, plus one additional time at 11th and 19th levels.</p>\n<p>You must be at least 3rd level before selecting this revelation.</p>"
    },
    "actions": [
      {
        "_id": "s5vpch0msqfla1s3",
        "name": "Use",
        "img": "systems/pf1/icons/spells/light-royal-1.jpg",
        "activation": {
          "type": "standard"
        },
        "unchainedAction": {
          "activation": {
            "cost": 2,
            "type": "action"
          }
        },
        "duration": {
          "value": "@classes.oracle.level",
          "units": "minute"
        },
        "target": {
          "value": "creature touched"
        },
        "range": {
          "units": "touch"
        },
        "actionType": ""
      }
    ],
    "uses": {
      "per": "day",
      "maxFormula": "@classes.oracle.level >= 19 ? 3 : ((@classes.oracle.level > 10 && @classes.oracle.level < 19) ? 2 : 1)"
    },
    "tag": "classFeat_shellOfSuccor",
    "useCustomTag": true,
    "subType": "classFeat",
    "associations": {
      "classes": [["Oracle"]]
    },
    "abilityType": "su"
  }
}
