{
  "_id": "0L8fSpt6V3sD4QjA",
  "name": "Shifting Aspect",
  "type": "feat",
  "img": "systems/pf1/icons/skills/red_05.jpg",
  "system": {
    "description": {
      "value": "<p>At 1st level, you gain the benefit of the <a href=\"https://www.aonprd.com/FeatDisplay.aspx?ItemName=Aspect%20of%20the%20Beast\">Aspect of the Beast</a> feat while bloodraging. As part of the action to enter a bloodrage, you can choose any one of the four manifestations to affect you for the duration of your bloodrage.</p>"
    },
    "tag": "classFeat_shiftingAspect",
    "useCustomTag": true,
    "subType": "classFeat",
    "associations": {
      "classes": [["Bloodrager"]]
    },
    "abilityType": "su"
  }
}
