{
  "_id": "n0ddFS8ATboAlPcQ",
  "name": "Skill at Arms",
  "type": "feat",
  "img": "systems/pf1/icons/spells/light-royal-1.jpg",
  "system": {
    "description": {
      "value": "<p>You gain proficiency in all martial weapons and heavy armor.</p>"
    },
    "tags": ["Revelation", "Battle Mystery", "Metal Mystery"],
    "actions": [
      {
        "_id": "4v7l52u47wyslnh8",
        "name": "Use",
        "img": "systems/pf1/icons/spells/light-royal-1.jpg",
        "activation": {
          "type": "passive"
        },
        "unchainedAction": {
          "activation": {
            "type": "passive"
          }
        },
        "actionType": ""
      }
    ],
    "tag": "classFeat_skillAtArms",
    "useCustomTag": true,
    "subType": "classFeat",
    "associations": {
      "classes": [["Oracle"]]
    },
    "abilityType": "ex"
  }
}
