{
  "_id": "2QnXseLILuseru4a",
  "name": "Slow Reactions (UC)",
  "type": "feat",
  "img": "systems/pf1/icons/items/weapons/hunga-munga.PNG",
  "system": {
    "description": {
      "value": "<p>Opponents damaged by the rogue’s sneak attack can’t make attacks of opportunity for 1 round.</p>"
    },
    "tag": "classFeat_slowReactionsUc",
    "useCustomTag": true,
    "subType": "classFeat",
    "associations": {
      "classes": [["Rogue (Unchained)"]]
    },
    "abilityType": "ex"
  }
}
