{
  "_id": "V4F6Q1V0xhG1JQ3M",
  "name": "Solar Mystery",
  "type": "feat",
  "img": "systems/pf1/icons/spells/light-magenta-2.jpg",
  "system": {
    "description": {
      "value": "<p><b>Class Skills:</b> An oracle with this mystery adds Fly, Knowledge (geography), Linguistics, and Survival to her list of class skills.<p><b>Bonus Spells:</b></p>\n<ul>\n<li>@Compendium[pf1.spells.bl71og1gklwncmt7]{Faerie Fire} (2nd), </li>\n<li>@Compendium[pf1.spells.lzos34s87qsc620l]{Flaming Sphere} (4th), </li>\n<li>@Compendium[pf1.spells.7x2z0i8rcx7s81fk]{Daylight} (6th), </li>\n<li>@Compendium[pf1.spells.ojwg1ki98tq8xyh9]{Dimension Door} (8th), </li>\n<li>@Compendium[pf1.spells.evoz9r9n186nsjf0]{Planar Adaptation}n (10th), </li>\n<li>@Compendium[pf1.spells.nk37t5em8q4v1djs]{Sirocco} (12th), </li>\n<li>@Compendium[pf1.spells.vax8ojz8g3oovwzu]{Sunbeam} (14th), </li>\n<li>@Compendium[pf1.spells.j2mwv9wfxhqch10g]{Sunburst} (16th), </li>\n<li>@Compendium[pf1.spells.lxxliyxfw9uvbxmt]{Prismatic Sphere} (18th).</li>\n</ul>"
    },
    "tag": "classFeat_solarMystery",
    "useCustomTag": true,
    "subType": "classFeat",
    "associations": {
      "classes": [["Oracle"]]
    }
  }
}
