{
  "_id": "rUtu6rTWk3yMAsB0",
  "name": "Solitude Subdomain",
  "type": "feat",
  "img": "systems/pf1/icons/skills/ice_13.jpg",
  "system": {
    "description": {
      "value": "<p><b>Replacement Domain Spells</b>: </p>\n<ul>\n<li>2nd—@Compendium[pf1.spells.ow4t1zox6dtybgji]{Silence}</li>\n<li>4th—@Compendium[pf1.spells.viq93vkjaungdbul]{Detect Scrying}</li>\n<li>5th—@Compendium[pf1.spells.82vi1xife3nlu8a0]{Mirage Arcana}</li>\n<li>9th—@Compendium[pf1.spells.ngsn9j87t68uhysj]{Create Demiplane, Greater}</li>\n</ul>"
    },
    "tag": "classFeat_solitudeSubdomain",
    "useCustomTag": true,
    "subType": "classFeat",
    "associations": {
      "classes": [["Cleric"]]
    }
  }
}
