{
  "_id": "GsblgyzYht907slf",
  "name": "Souls Subdomain",
  "type": "feat",
  "img": "systems/pf1/icons/skills/affliction_06.jpg",
  "system": {
    "description": {
      "value": "<p><b>Replacement Domain Spells:</b></p>\n<ul>\n<li>3rd—@Compendium[pf1.spells.8uwmrygxgih1fb57]{Animate Dead}</li>\n<li>6th—@Compendium[pf1.spells.76t09cafayrw13ux]{Antilife Shell}</li>\n<li>9th—@Compendium[pf1.spells.xmkvpl56appk20cl]{Trap the Soul}</li>\n</ul>"
    },
    "tag": "classFeat_soulsSubdomain",
    "useCustomTag": true,
    "subType": "classFeat",
    "associations": {
      "classes": [["Cleric"]]
    }
  }
}
