{
  "_id": "qus0I2oMjXJJll6G",
  "name": "Spindle Infusion",
  "type": "feat",
  "img": "systems/pf1/icons/spells/runes-blue-1.jpg",
  "system": {
    "description": {
      "value": "<p><b>Element</b> universal; <b>Type</b> form infusion; <b>Level</b> 2; <b>Burn</b> 2<br><b>Associated Blasts</b> any<br><b>Saving Throw</b> Reflex negates (see text)</p>\n<p>You throw a long, roughly 5-foot-by-10-foot spindle of elemental matter or energy (or nearby unattended objects in the case of telekineticists) up to 30 feet away, damaging all creatures and objects within any two adjacent 5-foot squares unless they succeed at a Reflex save.</p>\n<p>An energy blast infused with spindle deals its normal damage to each target, while a physical blast infused with spindle deals half its normal damage to each target. The saving throw DC is Dexterity-based.</p>"
    },
    "actions": [
      {
        "_id": "uqazodv1k2qrlvme",
        "name": "Use",
        "img": "systems/pf1/icons/spells/runes-blue-1.jpg",
        "actionType": "save",
        "save": {
          "type": "ref",
          "description": "Reflex negates; see text"
        }
      }
    ],
    "tag": "classFeat_spindleInfusion",
    "useCustomTag": true,
    "subType": "classFeat",
    "associations": {
      "classes": [["Kineticist"]]
    }
  }
}
