{
  "_id": "slMNharbTJNmV9cB",
  "name": "Sprint",
  "type": "feat",
  "img": "systems/pf1/icons/feats/deafening-critical.jpg",
  "system": {
    "description": {
      "value": "<p>Once per rage, the barbarian can use a single full-round run action to move up to 6 times her speed or a single full-round charge action to move up to 3 times her speed.</p>\n<p>A barbarian must have the swift foot rage power and be at least 4th level before selecting this rage power.</p>"
    },
    "tag": "classFeat_sprint",
    "useCustomTag": true,
    "subType": "classFeat",
    "associations": {
      "classes": [["Barbarian"], ["Skald"]]
    },
    "abilityType": "ex"
  }
}
