{
  "_id": "chnM8rF7EfXEJkv9",
  "name": "Stone Stability",
  "type": "feat",
  "img": "systems/pf1/icons/skills/green_03.jpg",
  "system": {
    "description": {
      "value": "<p>The shaman receives a +4 bonus to her CMD when resisting bull rush or trip attempts as long as she is standing on the ground.</p>\n<p>At 5th level, the shaman receives @Compendium[pf1.feats.gTrGPxzN054GfpkM]{Improved Trip} as a bonus feat.</p>\n<p>At 10th level, the shaman receives @Compendium[pf1.feats.lNyMFFQaOxxTOW7M]{Greater Trip} as a bonus feat.</p>\n<p>The shaman does not need to meet the prerequisites of these feats.</p>"
    },
    "tag": "classFeat_stoneStability",
    "useCustomTag": true,
    "subType": "classFeat",
    "associations": {
      "classes": [["Shaman"]]
    },
    "abilityType": "ex"
  }
}
