{
  "_id": "pK6aiBQit85isQ9v",
  "name": "Stone Stability (ORA)",
  "type": "feat",
  "img": "systems/pf1/icons/spells/light-royal-1.jpg",
  "system": {
    "description": {
      "value": "<p>You receive a +4 bonus to your Combat Maneuver Defense when resisting a bull rush or trip attempt while standing on the ground.</p>\n<p>At 5th level, you gain @Compendium[pf1.feats.gTrGPxzN054GfpkM]{Improved Trip} as a bonus feat.</p>\n<p>At 10th level, you gain @Compendium[pf1.feats.lNyMFFQaOxxTOW7M]{Greater Trip} as a bonus feat. You do not need to meet the prerequisites to gain these feats.</p>"
    },
    "actions": [
      {
        "_id": "9zb83jx4f6qm8epq",
        "name": "Use",
        "img": "systems/pf1/icons/spells/light-royal-1.jpg",
        "activation": {
          "type": "passive"
        },
        "unchainedAction": {
          "activation": {
            "type": "passive"
          }
        },
        "actionType": ""
      }
    ],
    "tag": "classFeat_stoneStabilityOra",
    "useCustomTag": true,
    "subType": "classFeat",
    "associations": {
      "classes": [["Oracle"]]
    },
    "abilityType": "ex"
  }
}
