{
  "_id": "Iu8gyBT93dRpGtgH",
  "name": "Strength Surge",
  "type": "feat",
  "img": "systems/pf1/icons/feats/stunning-critical.jpg",
  "system": {
    "description": {
      "value": "<p>As a standard action, you can touch a creature to give it great strength. For 1 round, the target gains an enhancement bonus equal to 1/2 your cleric level (minimum +1) to melee attacks, combat maneuver checks that rely on Strength, Strength-based skills, and Strength checks. You can use this ability a number of times per day equal to 3 + your Wisdom modifier.</p>"
    },
    "actions": [
      {
        "_id": "i6gl6rvs4yqc0rjr",
        "name": "Use",
        "img": "systems/pf1/icons/feats/stunning-critical.jpg",
        "activation": {
          "type": "standard"
        },
        "unchainedAction": {
          "activation": {
            "cost": 2,
            "type": "action"
          }
        },
        "duration": {
          "value": "1",
          "units": "round"
        },
        "target": {
          "value": "creature touched"
        },
        "range": {
          "units": "touch"
        },
        "actionType": ""
      }
    ],
    "uses": {
      "per": "day",
      "maxFormula": "3 + @abilities.wis.mod"
    },
    "tag": "classFeat_strengthSurge",
    "useCustomTag": true,
    "subType": "classFeat",
    "associations": {
      "classes": [["Cleric"]]
    },
    "abilityType": "sp"
  }
}
