{
  "_id": "wO5J51vEaMyWpgWQ",
  "name": "Stunning Shot",
  "type": "feat",
  "img": "systems/pf1/icons/skills/yellow_34.jpg",
  "system": {
    "description": {
      "value": "<p>At 19th level, when a gunslinger hits a creature, she can spend 2 grit points to stun the creature for 1 round. The creature must make a Fortitude saving throw (the DC = 10 + 1/2 the gunslinger’s level + the gunslinger’s Wisdom modifier). If the creature fails, it is stunned for 1 round. Creatures that are immune to critical hits are also immune to this effect.</p>"
    },
    "tags": ["Gunslinger Deed"],
    "actions": [
      {
        "_id": "m7b8vXeE08nQvsai",
        "name": "Use",
        "img": "systems/pf1/icons/skills/yellow_34.jpg",
        "activation": {
          "type": "nonaction"
        },
        "actionType": ""
      }
    ],
    "tag": "classFeat_stunningShot",
    "useCustomTag": true,
    "subType": "classFeat",
    "associations": {
      "classes": [["Gunslinger"]]
    },
    "abilityType": "ex"
  }
}
