{
  "_id": "HpbB52GyItMfemNh",
  "name": "Superior Sniper",
  "type": "feat",
  "img": "systems/pf1/icons/items/weapons/dagger.PNG",
  "system": {
    "description": {
      "value": "<p>A rogue who selects this talent gains Expert Sniper (Dirty Tactics Toolbox 10) as a bonus feat. If she already has this feat, she can instead select any feat that lists Expert Sniper as a prerequisite, as long as she meets the feat’s prerequisites.</p>"
    },
    "tag": "classFeat_superiorSniper",
    "useCustomTag": true,
    "subType": "classFeat",
    "associations": {
      "classes": [["Rogue"]]
    },
    "abilityType": "ex"
  }
}
