{
  "_id": "qMai9cPkBvemSufk",
  "name": "Synergized Energy",
  "type": "feat",
  "img": "systems/pf1/icons/spells/slice-spirit-3.jpg",
  "system": {
    "description": {
      "value": "<p>Whenever you use a battery (Technology Guide 39), a generator (Technology Guide 62), or the ability described in the psychic battery psi-tech discovery to restore charges to any piece of technological equipment, you regain 1 point in your phrenic pool.</p>\n<p>The maximum number of points you can regain in your phrenic pool in this way per day is equal to your Wisdom modifier.</p>"
    },
    "tag": "classFeat_synergizedEnergy",
    "useCustomTag": true,
    "subType": "classFeat",
    "associations": {
      "classes": [["Psychic"]]
    },
    "abilityType": "su"
  }
}
