{
  "_id": "K2C9lv9XcFTUWjHl",
  "name": "Teamwork Tricks",
  "type": "feat",
  "img": "systems/pf1/icons/items/inventory/banner-red.jpg",
  "system": {
    "description": {
      "value": "<p>At 8th level as a free action, the cavalier can use control the herd to handle allied and riderless animals and animal companions. Friendly and helpful animals that the cavalier commands with Handle Animal or his control the herd ability are considered to know any tasks or tricks the cavalier’s mount knows, in addition to any tasks or tricks they already know.</p>"
    },
    "tag": "classFeat_teamworkTricks",
    "useCustomTag": true,
    "subType": "classFeat",
    "associations": {
      "classes": [["Cavalier"]]
    },
    "abilityType": "ex"
  }
}
