{
  "_id": "06d7gc96GM5Idb2o",
  "name": "Telekinetic Deflection",
  "type": "feat",
  "img": "systems/pf1/icons/spells/link-blue-2.jpg",
  "system": {
    "description": {
      "value": "<p><b>Element</b> aether; <b>Type</b> utility (Sp); <b>Level</b> 8; <b>Burn</b> 0</p>\n<p>You can deflect your foes’ attacks, as the spell @Compendium[pf1.spells.oldkskjzzxe6383i]{Deflection} with a duration of 1 round. You can accept 1 point of burn to increase the duration to 1 round per kineticist level you possess.</p>"
    },
    "actions": [
      {
        "_id": "xbma5dmpmngu5v0i",
        "name": "Use",
        "img": "systems/pf1/icons/spells/link-blue-2.jpg",
        "activation": {
          "type": "standard"
        },
        "unchainedAction": {
          "activation": {
            "cost": 2,
            "type": "action"
          }
        },
        "duration": {
          "value": "@classes.kineticist.level",
          "units": "round"
        },
        "target": {
          "value": "self"
        },
        "range": {
          "units": "personal"
        },
        "actionType": ""
      }
    ],
    "tag": "classFeat_telekineticDeflection",
    "useCustomTag": true,
    "subType": "classFeat",
    "associations": {
      "classes": [["Kineticist"]]
    },
    "abilityType": "sp"
  }
}
