{
  "_id": "QXskUuwbmQtFoFti",
  "name": "Third Judgment",
  "type": "feat",
  "img": "systems/pf1/icons/skills/yellow_38.jpg",
  "system": {
    "description": {
      "value": "<p>At 16th level, whenever an inquisitor uses her judgment ability, she selects three different judgments, instead of just two. This only consumes one use of her judgment ability. As a swift action, the inquisitor can change one of these judgments to another type.</p>"
    },
    "tag": "classFeat_thirdJudgment",
    "useCustomTag": true,
    "subType": "classFeat",
    "associations": {
      "classes": [["Inquisitor"]]
    },
    "abilityType": "ex"
  }
}
