{
  "_id": "6rqIMKpnCiimDyLo",
  "name": "Toil Subdomain",
  "type": "feat",
  "img": "systems/pf1/icons/spells/rip-jade-1.jpg",
  "system": {
    "description": {
      "value": "<p><b>Replacement Domain Spells:</b></p>\n<ul>\n<li>1st—@Compendium[pf1.spells.2p6fzj5t03oivndd]{Command}</li>\n<li>5th—@Compendium[pf1.spells.ijvb1exko6dskalz]{Waves of Fatigue}</li>\n<li>7th—@Compendium[pf1.spells.9f3hf9h3j8q8062b]{Waves of Exhaustion}</li>\n</ul>"
    },
    "tag": "classFeat_toilSubdomain",
    "useCustomTag": true,
    "subType": "classFeat",
    "associations": {
      "classes": [["Cleric"]]
    }
  }
}
