{
  "_id": "NKzRm45051DUHkd5",
  "name": "Tongue of the Sun and Moon",
  "type": "feat",
  "img": "systems/pf1/icons/feats/natural-spell.jpg",
  "system": {
    "description": {
      "value": "<p>A monk of 17th level or higher can speak with any living creature.</p>"
    },
    "actions": [
      {
        "_id": "vrc0whrx6i8j3oo5",
        "name": "Use",
        "img": "systems/pf1/icons/feats/natural-spell.jpg",
        "activation": {
          "type": "passive"
        },
        "unchainedAction": {
          "activation": {
            "type": "passive"
          }
        },
        "actionType": ""
      }
    ],
    "tag": "classFeat_tongueOfTheSunAndMoon",
    "useCustomTag": true,
    "subType": "classFeat",
    "associations": {
      "classes": [["Monk"]]
    },
    "abilityType": "ex"
  }
}
