{
  "_id": "jjZ7LpQZEskB8X4v",
  "name": "Tornado Blessing: Dust Devil",
  "type": "feat",
  "img": "systems/pf1/icons/spells/wind-sky-2.jpg",
  "system": {
    "description": {
      "value": "<p>When you hit with a weapon attack, you can use a swift action to cause a sudden burst of wind and debris to swirl around your target. The target is dazzled for 1 minute.</p>"
    },
    "actions": [
      {
        "_id": "ihlfb65jb0lwvd47",
        "name": "Use",
        "img": "systems/pf1/icons/spells/wind-sky-2.jpg",
        "activation": {
          "type": "swift"
        },
        "unchainedAction": {
          "activation": {
            "type": "action"
          }
        },
        "duration": {
          "value": "1",
          "units": "minute"
        },
        "target": {
          "value": "foe struke"
        },
        "actionType": ""
      }
    ],
    "tag": "classFeat_tornadoBlessingDustDevil",
    "useCustomTag": true,
    "subType": "classFeat",
    "associations": {
      "classes": [["Warpriest"]]
    }
  }
}
