{
  "_id": "q059IbvYqYLncBTM",
  "name": "Trade Subdomain",
  "type": "feat",
  "img": "systems/pf1/icons/skills/gray_05.jpg",
  "system": {
    "description": {
      "value": "<p><b>Replacement Domain Spells:</b> </p>\n<ul>\n<li>1st—@Compendium[pf1.spells.gdyto5az5aveibsb]{Floating Disk}</li>\n<li>5th—@Compendium[pf1.spells.wqvy12w1xgk6l9b0]{Overland Flight}</li>\n<li>9th—@Compendium[pf1.spells.ursm11405zobemi3]{Gate}</li>\n</ul>"
    },
    "tag": "classFeat_tradeSubdomain",
    "useCustomTag": true,
    "subType": "classFeat",
    "associations": {
      "classes": [["Cleric"]]
    }
  }
}
