{
  "_id": "NHMFpVAXvR6jBOio",
  "name": "Trance of Three",
  "type": "feat",
  "img": "systems/pf1/icons/skills/violet_03.jpg",
  "system": {
    "description": {
      "value": "<p>At 15th level, as a swift action, a medium can allow his spirit to gain 1 point of influence over him in order to allow a portion of a legendary spirit from another legend to enter him for 1 round per level, granting him the intermediate spirit power from another legend. If that power has a limited number of uses per day, the medium must keep track of the remaining uses even after the secondary spirit is gone; if the medium calls the secondary spirit again that day, it can grant the remaining uses of that power.</p>\n<p>If the medium uses an ability that incurs influence, the medium’s primary spirit gains that amount of influence over him, not the secondary spirit. The medium doesn’t gain the benefits of his spirit bonus from the secondary spirit. The medium can end the trance of three early as a free action.</p>"
    },
    "actions": [
      {
        "_id": "imkv4vnv2oqc47sf",
        "name": "Use",
        "img": "systems/pf1/icons/skills/violet_03.jpg",
        "activation": {
          "type": "swift"
        },
        "unchainedAction": {
          "activation": {
            "type": "action"
          }
        },
        "duration": {
          "value": "@classes.medium.level",
          "units": "round"
        },
        "target": {
          "value": "self"
        },
        "range": {
          "units": "personal"
        },
        "uses": {
          "autoDeductChargesCost": "0"
        },
        "actionType": ""
      }
    ],
    "tag": "classFeat_tranceOfThree",
    "useCustomTag": true,
    "subType": "classFeat",
    "associations": {
      "classes": [["Medium"]]
    },
    "abilityType": "su"
  }
}
