{
  "_id": "NTVLfTQhHRGPrKka",
  "name": "Tremorsense (UC) (2 pts)",
  "type": "feat",
  "img": "systems/pf1/icons/skills/blue_26.jpg",
  "system": {
    "description": {
      "value": "<p><b>Requirements:</b> Summoner level 7th.</p>\n<p>The eidolon becomes attuned to vibrations in the ground, gaining tremorsense with a range of 30 feet. This works like the blindsense evolution, but only if both the eidolon and the creature to be pinpointed are in contact with the ground.</p>"
    },
    "tag": "classFeat_tremorsenseUc2Pts",
    "useCustomTag": true,
    "subType": "classFeat",
    "associations": {
      "classes": [["Eidolon (Unchained)"]]
    },
    "abilityType": "ex"
  }
}
