{
  "_id": "cPMhRFsqbvBllkMY",
  "name": "Unexpected Strike",
  "type": "feat",
  "img": "systems/pf1/icons/feats/deafening-critical.jpg",
  "system": {
    "description": {
      "value": "<p>The barbarian can make an attack of opportunity against a foe that moves into any square threatened by the barbarian, regardless of whether or not that movement would normally provoke an attack of opportunity. This power can only be used once per rage.</p>\n<p>A barbarian must be at least 8th level before selecting this power.</p>"
    },
    "tag": "classFeat_unexpectedStrike",
    "useCustomTag": true,
    "subType": "classFeat",
    "associations": {
      "classes": [["Barbarian"], ["Skald"]]
    },
    "abilityType": "ex"
  }
}
