{
  "_id": "UDCx3sK3A4Wm3Thp",
  "name": "Unlock Ki",
  "type": "feat",
  "img": "systems/pf1/icons/items/weapons/butterfly-knife.PNG",
  "system": {
    "description": {
      "value": "<p>A rogue with this advanced talent increases the number of points in the ki pool that she gains from the ki pool rogue talent to be equal to 1/2 her rogue level + her highest mental ability score modifier (Intelligence, Wisdom, or Charisma). In addition, she can spend 2 points from her ki pool as a swift action to gain the skill unlocks (Pathfinder Unchained 82) for one skill of her choice as appropriate for her number of ranks in that skill. This benefit lasts for 1 minute. The rogue must have a ki pool before selecting this advanced talent.</p>"
    },
    "tag": "classFeat_unlockKi",
    "useCustomTag": true,
    "subType": "classFeat",
    "associations": {
      "classes": [["Rogue"]]
    },
    "abilityType": "su"
  }
}
