{
  "_id": "B4JmfVzDXwL3Jeb5",
  "name": "Up Close and Personal",
  "type": "feat",
  "img": "systems/pf1/icons/feats/deceitful.jpg",
  "system": {
    "description": {
      "value": "<p>When the vigilante attempts an Acrobatics check to move through an opponent’s space during a move action, he can attempt a single melee attack against that opponent as a swift action. If the Acrobatics check succeeds, this attack applies the vigilante’s hidden strike damage as if the foe were unaware of the vigilante. Otherwise, the vigilante applies the hidden strike damage he would deal if the target were denied its Dexterity bonus to AC.</p>\n<p>Only a stalker vigilante of at least 4th level can select this talent.</p>"
    },
    "tag": "classFeat_upCloseAndPersonal",
    "useCustomTag": true,
    "subType": "classFeat",
    "associations": {
      "classes": [["Vigilante"]]
    },
    "abilityType": "ex"
  }
}
