{
  "_id": "2UoAjbdNzZJEjCq2",
  "name": "Vanishing Trick",
  "type": "feat",
  "img": "systems/pf1/icons/items/weapons/kunai.png",
  "system": {
    "description": {
      "value": "<p>As a swift action, the ninja can disappear for 1 round per level. This ability functions as @Compendium[pf1.spells.oylikodnyku2zewu]{Invisibility}.</p>\n<p>Using this ability uses up 1 ki point.</p>"
    },
    "tags": ["Ninja Trick"],
    "actions": [
      {
        "_id": "3v98ic1sa3wukpqe",
        "name": "Use",
        "img": "systems/pf1/icons/items/weapons/kunai.png",
        "activation": {
          "type": "swift"
        },
        "unchainedAction": {
          "activation": {
            "type": "action"
          }
        },
        "duration": {
          "value": "@classes.ninja.level",
          "units": "round"
        },
        "target": {
          "value": "self"
        },
        "range": {
          "units": "personal"
        },
        "actionType": ""
      }
    ],
    "tag": "classFeat_vanishingTrick",
    "useCustomTag": true,
    "subType": "classFeat",
    "associations": {
      "classes": [["Ninja"]]
    },
    "abilityType": "su"
  }
}
