{
  "_id": "8FyDZRO9tQPmvnkL",
  "name": "Venom Admixture Infusion",
  "type": "feat",
  "img": "systems/pf1/icons/spells/runes-blue-1.jpg",
  "system": {
    "description": {
      "value": "<p><b>Element</b> universal; <b>Type</b> substance infusion; <b>Level</b> 2; <b>Burn</b> 2<br><b>Prerequisite</b> venom speaker<br><b>Saving Throw</b> see text</p>\n<p>You can infuse your kinetic blast with poison. To use this infusion, you must be holding a dose of poison or have at least one use of a feat or racial trait that produces poison (such as the <a href=\"https://aonprd.com/FeatDisplay.aspx?ItemName=Spit%20Venom\">Spit Venom</a> feat or the <a href=\"https://aonprd.com/RacesDisplay.aspx?ItemName=Grippli\">toxic skin grippli alternate racial trait</a>). One dose of poison or one use of your feat or racial trait is consumed if applicable, and creatures damaged by the infused blast are affected by the poison. Use the same type, save, save DC, frequency, effect, and cure as the consumed poison.</p>"
    },
    "actions": [
      {
        "_id": "1nschqtrq1bwioi3",
        "name": "Use",
        "img": "systems/pf1/icons/spells/runes-blue-1.jpg",
        "actionType": "save",
        "save": {
          "description": "see text"
        }
      }
    ],
    "tag": "classFeat_venomAdmixtureInfusion",
    "useCustomTag": true,
    "subType": "classFeat",
    "associations": {
      "classes": [["Kineticist"]]
    }
  }
}
