{
  "_id": "g7vw0kmmtGrjkEiB",
  "name": "Ventriloquism",
  "type": "feat",
  "img": "systems/pf1/icons/items/weapons/kunai.png",
  "system": {
    "description": {
      "value": "<p>As a swift action, the ninja can throw her voice as if using the spell @Compendium[pf1.spells.0onqjy8gfgop1xsi]{Ventriloquism}. She can use this ability for 1 minute per ninja level.</p>\n<p>Each use of this ability uses up 1 ki point.</p>"
    },
    "tags": ["Ninja Trick"],
    "actions": [
      {
        "_id": "q89quqmwxr5ou3zd",
        "name": "Use",
        "img": "systems/pf1/icons/items/weapons/kunai.png",
        "activation": {
          "type": "swift"
        },
        "unchainedAction": {
          "activation": {
            "type": "action"
          }
        },
        "duration": {
          "value": "@classes.ninja.level",
          "units": "minute"
        },
        "actionType": ""
      }
    ],
    "tag": "classFeat_ventriloquism",
    "useCustomTag": true,
    "subType": "classFeat",
    "associations": {
      "classes": [["Ninja"]]
    },
    "abilityType": "su"
  }
}
