{
  "_id": "fsolfNh28jx9C33e",
  "name": "Vicious Claws",
  "type": "feat",
  "img": "systems/pf1/icons/items/weapons/dagger.PNG",
  "system": {
    "description": {
      "value": "<p>A catfolk with this talent uses d8s to roll sneak attack damage instead of d6s, but only when she uses her claws to make the sneak attack. A catfolk rogue must have the cat’s claws racial trait before taking this talent.</p>"
    },
    "tag": "classFeat_viciousClaws",
    "useCustomTag": true,
    "subType": "classFeat",
    "associations": {
      "classes": [["Rogue"]]
    },
    "abilityType": "ex"
  }
}
