{
  "_id": "qMb5X1mUV9qqv7Lp",
  "name": "Void Healer",
  "type": "feat",
  "img": "systems/pf1/icons/spells/rip-sky-1.jpg",
  "system": {
    "description": {
      "value": "<p><b>Element</b> void; <b>Type</b> utility (Sp); <b>Level</b> 1; <b>Burn</b> 1</p>\n<p>This functions as kinetic healer, except it heals undead (and others healed by negative energy).</p>"
    },
    "actions": [
      {
        "_id": "7ulbc7bk1chqitie",
        "name": "Use",
        "img": "systems/pf1/icons/spells/rip-sky-1.jpg",
        "activation": {
          "type": "standard"
        },
        "unchainedAction": {
          "activation": {
            "cost": 2,
            "type": "action"
          }
        },
        "duration": {
          "units": "inst"
        },
        "target": {
          "value": "creature touched"
        },
        "range": {
          "units": "touch"
        },
        "actionType": "heal",
        "damage": {
          "parts": [
            {
              "formula": "(ceil(@classes.kineticist.level / 2))d6 + floor(@abilities.con.mod / 2) + min(@resources.classFeat_burn.value, floor(@classes.kineticist.level / 3)) * 2",
              "type": {
                "values": ["negative"],
                "custom": ""
              }
            }
          ]
        }
      }
    ],
    "tag": "classFeat_voidHealer",
    "useCustomTag": true,
    "subType": "classFeat",
    "associations": {
      "classes": [["Kineticist"]]
    },
    "abilityType": "sp"
  }
}
