{
  "_id": "zwBoEKawXyUfwd7h",
  "name": "Void Form",
  "type": "feat",
  "img": "systems/pf1/icons/skills/blue_36.jpg",
  "system": {
    "description": {
      "value": "<p>At 6th level, you can become semi-tangible as a standard action. While in this form, you are immune to critical hits and gain a +1 def lection bonus to AC. This bonus increases by 1 at 8th level and every 4 levels thereafter. You can use this power a number of rounds per day equal to your cleric level. These rounds need not be consecutive.</p>\n<p>This power replaces the Remote Viewing power of the Knowledge Domain.</p>"
    },
    "actions": [
      {
        "_id": "l5a3rr230jbv20xz",
        "name": "Use",
        "img": "systems/pf1/icons/skills/blue_36.jpg",
        "activation": {
          "type": "standard"
        },
        "unchainedAction": {
          "activation": {
            "cost": 2,
            "type": "action"
          }
        },
        "duration": {
          "value": "1",
          "units": "round"
        },
        "target": {
          "value": "self"
        },
        "range": {
          "units": "personal"
        },
        "actionType": ""
      }
    ],
    "uses": {
      "per": "day",
      "maxFormula": "@classes.cleric.level"
    },
    "tag": "classFeat_voidForm",
    "useCustomTag": true,
    "subType": "classFeat",
    "associations": {
      "classes": [["Cleric"]]
    },
    "abilityType": "su"
  }
}
