{
  "_id": "nCay5vdoWUADCeoJ",
  "name": "Wall Climber",
  "type": "feat",
  "img": "systems/pf1/icons/items/weapons/kunai.png",
  "system": {
    "description": {
      "value": "<p>A ninja with this ability gains a climb speed of 20 feet, but only on vertical surfaces. This ability cannot be used to scale perfectly smooth surfaces or to climb on the underside of horizontal surfaces.</p>"
    },
    "tags": ["Ninja Trick"],
    "changes": [
      {
        "_id": "t6iwoorx",
        "formula": "20",
        "subTarget": "climbSpeed",
        "modifier": "base"
      }
    ],
    "tag": "classFeat_wallClimber",
    "useCustomTag": true,
    "subType": "classFeat",
    "associations": {
      "classes": [["Ninja"]]
    },
    "abilityType": "su"
  }
}
