{
  "_id": "pTDOpVtl2oMWNj0i",
  "name": "Wand Mastery",
  "type": "feat",
  "img": "systems/pf1/icons/spells/enchant-red-3.jpg",
  "system": {
    "description": {
      "value": "<p>Whenever The magus uses a wand, he calculates the DC for any spell it contains using his Intelligence modifier, instead of the minimum modifier needed to cast a spell of that level.</p>"
    },
    "tag": "classFeat_wandMastery",
    "useCustomTag": true,
    "subType": "classFeat",
    "associations": {
      "classes": [["Magus"]]
    },
    "abilityType": "su"
  }
}
