{
  "_id": "uOB9roWJxd58DQhm",
  "name": "Wand Wielder",
  "type": "feat",
  "img": "systems/pf1/icons/spells/enchant-red-3.jpg",
  "system": {
    "description": {
      "value": "<p>The magus can activate a wand or staff in place of casting a spell when using spell combat.</p>"
    },
    "tag": "classFeat_wandWielder",
    "useCustomTag": true,
    "subType": "classFeat",
    "associations": {
      "classes": [["Magus"]]
    },
    "abilityType": "su"
  }
}
