{
  "_id": "2a9giLaMUP7K9aDQ",
  "name": "Warding Rune",
  "type": "feat",
  "img": "systems/pf1/icons/spells/runes-magenta-2.jpg",
  "system": {
    "description": {
      "value": "<p>At 6th level, when a creature is damaged by your blast rune, it cannot attack you for a number of rounds equal to 1/2 your cleric level unless it succeeds at a Will save, as per the spell sanctuary. Using this ability is an immediate action when a creature triggers one of your blast runes. The ability does not prevent you from being attacked or affected by area of effect spells or abilities. You can use this ability once per day at 8th level, plus one additional time per day at 14th level and 20th level.</p>\n<p>This power replaces the Spell Rune power of the Rune Domain.</p>"
    },
    "actions": [
      {
        "_id": "5c9vxqyyaz6tm3jz",
        "name": "Use",
        "img": "systems/pf1/icons/spells/runes-magenta-2.jpg",
        "activation": {
          "type": "immediate"
        },
        "unchainedAction": {
          "activation": {
            "type": "reaction"
          }
        },
        "actionType": ""
      }
    ],
    "uses": {
      "per": "day",
      "maxFormula": "floor((@classes.cleric.level - 2) / 6)"
    },
    "tag": "classFeat_wardingRune",
    "useCustomTag": true,
    "subType": "classFeat",
    "associations": {
      "classes": [["Cleric"]]
    },
    "abilityType": "su"
  }
}
