{
  "_id": "e97dxJ4IGDS9uLai",
  "name": "Water Adaptation",
  "type": "feat",
  "img": "systems/pf1/icons/spells/ice-blue-2.jpg",
  "system": {
    "description": {
      "value": "<p><b>Element</b> water; <b>Type</b> utility (Sp); <b>Level</b> 1; <b>Burn</b> 0</p>\n<p>You can turn fresh water into seawater, and vice versa. This can affect a volume of water equal to 2 gallons per kineticist level, allowing sea creatures to survive in water that was fresh and freshwater creatures to survive in water that was briny.</p>\n<p>Additionally, when you alter water’s salinity with this talent, you can adjust the water’s temperature so that a creature can survive in it more easily (or simply be more comfortable). Water altered in this way must be confined within an appropriately sized container; attempts to alter a larger quantity of water fail.</p>"
    },
    "tag": "classFeat_waterAdaptation",
    "useCustomTag": true,
    "subType": "classFeat",
    "associations": {
      "classes": [["Kineticist"]]
    },
    "abilityType": "sp"
  }
}
