{
  "_id": "EDsGNepC0JjWgfQZ",
  "name": "Wave of Gloom",
  "type": "feat",
  "img": "systems/pf1/icons/spells/slice-spirit-3.jpg",
  "system": {
    "description": {
      "value": "<p>At 5th level, by expending 1 use of your despair ability as a standard action, you can project a strong feeling of dejection. All creatures within 30 feet of you must succeed at a Will save or take a penalty on attack rolls, saves against fear effects, and skill checks for 1d4 minutes. The penalty is equal to (but doesn’t stack with) the penalty provided by your despair ability. The DC of the saving throw equals 10 + half your psychic level + your Charisma modifier.</p>\n<p>You’re immune to your own wave of gloom. This is a mind-affecting emotion effect.</p>"
    },
    "actions": [
      {
        "_id": "ahn742bkljigytew",
        "name": "Use",
        "img": "systems/pf1/icons/spells/slice-spirit-3.jpg",
        "activation": {
          "type": "standard"
        },
        "unchainedAction": {
          "activation": {
            "cost": 2,
            "type": "action"
          }
        },
        "range": {
          "value": "30",
          "units": "ft"
        },
        "actionType": ""
      }
    ],
    "tag": "classFeat_waveOfGloom",
    "useCustomTag": true,
    "subType": "classFeat",
    "associations": {
      "classes": [["Psychic"]]
    },
    "abilityType": "su"
  }
}
