{
  "_id": "9lg0RmVr8Qw2kkI9",
  "name": "Whimsy Subdomain",
  "type": "feat",
  "img": "systems/pf1/icons/spells/fog-air-2.jpg",
  "system": {
    "description": {
      "value": "<p><b>Replacement Domain Spells:</b></p>\n<ul>\n<li>1st—@Compendium[pf1.spells.5nr9o7o0it6ewf17]{Hideous Laughter}</li>\n<li>4th—@Compendium[pf1.spells.n0bsyxchnigkkuqo]{Confusion}</li>\n<li>6th—@Compendium[pf1.spells.pzwe3gxjz8gthyaj]{Cloak of Dreams}</li>\n</ul>"
    },
    "tag": "classFeat_whimsySubdomain",
    "useCustomTag": true,
    "subType": "classFeat",
    "associations": {
      "classes": [["Cleric"]]
    }
  }
}
