{
  "_id": "l5ay4bI1EPgg6Nzv",
  "name": "Whimsical Prank",
  "type": "feat",
  "img": "systems/pf1/icons/spells/light-royal-1.jpg",
  "system": {
    "description": {
      "value": "<p>As a standard action, you can call upon fey to play a prank on a creature within 30 feet as a dirty trick combat maneuver. Resolve this attempt as normal, except that it doesn’t provoke attacks of opportunity, you use your oracle level in place of your Combat Maneuver Bonus, and you add your Charisma modifier in place of your Strength or Dexterity modifier. No save is allowed against this attempt, but a creature affected by this revelation cannot be the target of this revelation again for 1 day.</p>"
    },
    "actions": [
      {
        "_id": "9qy30toaxscix11p",
        "name": "Use",
        "img": "systems/pf1/icons/spells/light-royal-1.jpg",
        "activation": {
          "type": "standard"
        },
        "unchainedAction": {
          "activation": {
            "cost": 2,
            "type": "action"
          }
        },
        "duration": {
          "units": "inst"
        },
        "target": {
          "value": "one creature"
        },
        "range": {
          "value": "30",
          "units": "ft"
        },
        "actionType": ""
      }
    ],
    "tag": "classFeat_whimsicalPrank",
    "useCustomTag": true,
    "subType": "classFeat",
    "associations": {
      "classes": [["Oracle"]]
    },
    "abilityType": "su"
  }
}
