{
  "_id": "Xroh8yti2tcCehjz",
  "name": "Wisdom Patron",
  "type": "feat",
  "img": "systems/pf1/icons/feats/improved-familiar.jpg",
  "system": {
    "description": {
      "value": "<ul>\n<li>2nd — @Compendium[pf1.spells.y2uhoqr4itdbw5g4]{Shield Of Faith}</li>\n<li>4th — @Compendium[pf1.spells.b9ggsagifzk4fwut]{Owl's Wisdom}</li>\n<li>6th — @Compendium[pf1.spells.73han2zqxg59u18g]{Magic Vestment}</li>\n<li>8th — @Compendium[pf1.spells.exwa9xra4u82j0sx]{Globe of Invulnerability, Lesser}</li>\n<li>10th — @Compendium[pf1.spells.ifcnx1yyw6e7ousm]{Dream}</li>\n<li>12th — @Compendium[pf1.spells.w6ttezzz9rt4qnh7]{Globe Of Invulnerability}</li>\n<li>14th — @Compendium[pf1.spells.uyn64zazmaydnk7o]{Spell Turning}</li>\n<li>16th — @Compendium[pf1.spells.0kppkhsencd6tzvh]{Protection from Spells}</li>\n<li>18th — @Compendium[pf1.spells.19p4nr8rsvt42lmn]{Mage's Disjunction}</li>\n</ul>"
    },
    "tag": "classFeat_wisdomPatron",
    "useCustomTag": true,
    "subType": "classFeat",
    "associations": {
      "classes": [["Witch"]]
    }
  }
}
