{
  "_id": "1qA0W7xIIRGxOEdA",
  "name": "Wounding Blade",
  "type": "feat",
  "img": "systems/pf1/icons/skills/red_13.jpg",
  "system": {
    "description": {
      "value": "<p>At 8th level, you can give a weapon that you touch the wounding special weapon quality for a number of rounds equal to 1/2 your cleric level. You can use this ability once per day at 8th level, and an additional time per day for every four levels beyond 8th.</p>\n<p>This power replaces the Weapon Master power of the War Domain.</p>"
    },
    "actions": [
      {
        "_id": "vwug5hhh9e85tr8e",
        "name": "Use",
        "img": "systems/pf1/icons/skills/red_13.jpg",
        "activation": {
          "type": "standard"
        },
        "unchainedAction": {
          "activation": {
            "cost": 2,
            "type": "action"
          }
        },
        "duration": {
          "value": "floor(@classes.cleric.level / 2)",
          "units": "round"
        },
        "target": {
          "value": "weapon held"
        },
        "range": {
          "units": "touch"
        },
        "actionType": ""
      }
    ],
    "uses": {
      "per": "day",
      "maxFormula": "floor((@classes.cleric.level - 4) / 4)"
    },
    "tag": "classFeat_woundingBlade",
    "useCustomTag": true,
    "subType": "classFeat",
    "associations": {
      "classes": [["Cleric"]]
    },
    "abilityType": "su"
  }
}
