{
  "_id": "qtvfx7jpccec52vc",
  "name": "Ablative Sphere",
  "type": "spell",
  "img": "systems/pf1/icons/misc/magic-swirl.png",
  "system": {
    "actions": [
      {
        "_id": "1yz6pjkvc9mv4ota",
        "name": "Use",
        "img": "systems/pf1/icons/misc/magic-swirl.png",
        "activation": {
          "type": "standard"
        },
        "unchainedAction": {
          "activation": {
            "cost": 2,
            "type": "action"
          }
        },
        "duration": {
          "value": "1 minute/level (D)"
        },
        "target": {
          "value": "you"
        },
        "range": {
          "units": "personal"
        },
        "actionType": ""
      }
    ],
    "learnedAt": {
      "class": {
        "sorcerer": 3,
        "wizard": 3
      }
    },
    "level": 3,
    "school": "abj",
    "components": {
      "verbal": true,
      "somatic": true,
      "material": true
    },
    "materials": {
      "value": "a crystalline sphere worth 10 gp",
      "gpValue": 10
    },
    "spellbook": "",
    "preparation": {
      "spontaneousPrepared": false
    },
    "sr": false,
    "shortDescription": "<p>The Garundi tenaciously protect their homes, and through the years they have perfected magic to aid them in their defense.</p><p>An immobile, crystalline, weblike globe surrounds you.</p><p>When the <i><i>ablative</i> sphere</i> winks into existence, it provides you with improved cover (<i>Pathfinder RPG Core Rulebook</i> 196). The barrier does not impede a spell's line of sight or effect.</p><p>The sphere is 1 inch thick per caster level, has hardness 5, and 3 hit points per inch of thickness. When an <i><i>ablative</i> sphere</i> loses hit points, the level of cover it provides is reduced. When the <i><i>ablative</i> sphere</i> has lost one-third of its hit points, it provides cover instead of improved cover. Once it has lost two-thirds of its hit points, it provides only partial cover. Finally, when the <i><i>ablative</i> sphere</i>'s hit points reach 0, the globe is destroyed. When an attack reduces an <i><i>ablative</i> sphere</i>'s hit points to 0, you take any remaining damage.</p>"
  }
}
