{
  "_id": "li8zwqjorsww6o82",
  "name": "Age Resistance",
  "type": "spell",
  "img": "systems/pf1/icons/misc/magic-swirl.png",
  "system": {
    "actions": [
      {
        "_id": "yjs9hczx3f9p90id",
        "name": "Use",
        "img": "systems/pf1/icons/misc/magic-swirl.png",
        "activation": {
          "type": "standard"
        },
        "unchainedAction": {
          "activation": {
            "cost": 2,
            "type": "action"
          }
        },
        "duration": {
          "value": "24 hours"
        },
        "target": {
          "value": "you"
        },
        "range": {
          "units": "personal"
        },
        "actionType": ""
      }
    ],
    "learnedAt": {
      "class": {
        "sorcerer": 6,
        "wizard": 6,
        "druid": 6,
        "alchemist": 4,
        "witch": 6,
        "psychic": 6,
        "occultist": 4,
        "hunter": 6
      }
    },
    "level": 6,
    "school": "trs",
    "components": {
      "verbal": true,
      "somatic": true
    },
    "sr": false,
    "shortDescription": "<p>This spell functions as <i>lesser age resistance</i>, except you ignore the Strength, Dexterity, and Constitution penalties gained at middle age and old age.</p>"
  }
}
