{
  "_id": "k9iu3d82hlo7coct",
  "name": "Animate Objects",
  "type": "spell",
  "img": "systems/pf1/icons/misc/magic-swirl.png",
  "system": {
    "actions": [
      {
        "_id": "amlf0mnv2zbg6o05",
        "name": "Use",
        "img": "systems/pf1/icons/misc/magic-swirl.png",
        "activation": {
          "type": "standard"
        },
        "unchainedAction": {
          "activation": {
            "cost": 2,
            "type": "action"
          }
        },
        "duration": {
          "value": "1 round/level"
        },
        "target": {
          "value": "one Small object per caster level; see text"
        },
        "range": {
          "units": "medium"
        },
        "actionType": ""
      }
    ],
    "learnedAt": {
      "class": {
        "cleric": 6,
        "oracle": 6,
        "bard": 6,
        "witch": 6,
        "psychic": 6,
        "occultist": 6
      },
      "domain": {
        "Chaos": 6
      },
      "subDomain": {
        "Flotsam": 6
      },
      "bloodline": {
        "Impossible": 6
      }
    },
    "level": 6,
    "school": "trs",
    "components": {
      "verbal": true,
      "somatic": true
    },
    "sr": false,
    "shortDescription": "<p>You imbue inanimate objects with mobility and a semblance of life. Each such animated object then immediately attacks whomever or whatever you initially designate.</p><p>An animated object can be of any nonmagical material. You may animate one Small or smaller object or a corresponding number of larger objects as follows: A Medium object counts as two Small or smaller objects, a Large object as four, a Huge object as eight, a Gargantuan object as 16, and a Colossal object as 32. You can change the designated target or targets as a move action, as if directing an active spell. See the <i>Pathfinder RPG Bestiary</i> for the statistics of animated objects.</p><p>This spell cannot affect objects carried or worn by a creature.</p><p><i>Animate objects</i> can be made permanent with a <i>permanency</i> spell.</p>"
  }
}
