{
  "_id": "rq2jsb061wjpzf3s",
  "name": "Apport Animal",
  "type": "spell",
  "img": "systems/pf1/icons/misc/magic-swirl.png",
  "system": {
    "actions": [
      {
        "_id": "6wy8zo2xrlms4r9v",
        "name": "Use",
        "img": "systems/pf1/icons/misc/magic-swirl.png",
        "activation": {
          "type": "standard"
        },
        "unchainedAction": {
          "activation": {
            "cost": 2,
            "type": "action"
          }
        },
        "duration": {
          "value": "instantaneous or 1 hour/level"
        },
        "target": {
          "value": "one touched animal of Tiny or smaller size"
        },
        "range": {
          "units": "touch"
        },
        "actionType": "spellsave",
        "save": {
          "type": "will",
          "description": "Will negates"
        }
      }
    ],
    "learnedAt": {
      "class": {
        "sorcerer": 3,
        "wizard": 3,
        "druid": 3,
        "ranger": 3,
        "summoner": 3,
        "witch": 3,
        "psychic": 3,
        "medium": 3,
        "mesmerist": 3,
        "hunter": 3,
        "unchained Summoner": 3
      }
    },
    "level": 3,
    "school": "con",
    "subschool": "teleportation",
    "components": {
      "verbal": true
    },
    "shortDescription": "<p>This spell functions like <i>apport object</i> except the target is an animal. Only normal, nonmagical creatures of the animal type can be teleported.</p>"
  }
}
