{
  "_id": "tj3amjrh75dlniwy",
  "name": "Arcane Disruption",
  "type": "spell",
  "img": "systems/pf1/icons/misc/magic-swirl.png",
  "system": {
    "actions": [
      {
        "_id": "u2w5kb7detsxanfa",
        "name": "Use",
        "img": "systems/pf1/icons/misc/magic-swirl.png",
        "activation": {
          "type": "standard"
        },
        "unchainedAction": {
          "activation": {
            "cost": 2,
            "type": "action"
          }
        },
        "duration": {
          "value": "1 round/level"
        },
        "target": {
          "value": "one creature"
        },
        "range": {
          "units": "close"
        },
        "actionType": "spellsave",
        "save": {
          "type": "will",
          "description": "Will negates"
        }
      }
    ],
    "learnedAt": {
      "class": {
        "sorcerer": 2,
        "wizard": 2,
        "bard": 2,
        "witch": 2,
        "magus": 2,
        "bloodrager": 2
      }
    },
    "level": 2,
    "school": "enc",
    "subschool": "compulsion",
    "types": "curse, mind-affecting",
    "components": {
      "verbal": true,
      "somatic": true,
      "material": true
    },
    "materials": {
      "value": "a pinch of pepper"
    },
    "shortDescription": "<p>This spell makes it difficult for the subject to cast arcane spells, use spell-like abilities, and use some abilities granted by arcane spellcasting classes. The subject must succeed at a concentration check (DC = 10 + 1/2 its caster level) in order to cast an arcane spell, use any spell-like ability (even those that come from a divine source), use arcane spell completion or spell trigger magic items, or use any of the following class features that come from an arcane spellcasting class: arcane school powers, arcanist exploits, bardic performances, magus arcana, or witch hexes. Spells, spell-like abilities, or class features that take a free, swift, or immediate action aren't affected by this spell, nor are mythic spells or mythic powers.  While under the effect of this spell, if the subject must attempt a concentration check to cast an arcane spell or use an arcane spell-like ability for any reason other than the effect of this spell (such as casting defensively, being injured while casting, and so on), it takes a penalty on that check equal to 1/2 its caster level.</p>"
  }
}
