{
  "_id": "6ghblcoddfa4y9yt",
  "name": "Archon's Aura",
  "type": "spell",
  "img": "systems/pf1/icons/misc/magic-swirl.png",
  "system": {
    "actions": [
      {
        "_id": "m9butblosqofmoxr",
        "name": "Use",
        "img": "systems/pf1/icons/misc/magic-swirl.png",
        "activation": {
          "type": "standard"
        },
        "unchainedAction": {
          "activation": {
            "cost": 2,
            "type": "action"
          }
        },
        "duration": {
          "value": "1 minute/level"
        },
        "range": {
          "value": "20",
          "units": "ft"
        },
        "actionType": "spellsave",
        "save": {
          "type": "will",
          "description": "Will negates"
        },
        "spellArea": "20-ft. radius centered on you"
      }
    ],
    "learnedAt": {
      "class": {
        "cleric": 3,
        "oracle": 3,
        "paladin": 3
      }
    },
    "level": 3,
    "school": "evo",
    "types": "good, lawful",
    "components": {
      "verbal": true,
      "somatic": true
    },
    "shortDescription": "<p>You gain a powerful aura, similar to an archon's aura of menace.</p><p>Any hostile creature within a 20-foot radius of you must make a Will save to resist the effects of this aura. If the creature fails, it takes a -2 penalty on attack rolls and saving throws and to Armor Class for the duration of this spell, or until it successfully hits you with an attack. A creature that has resisted or broken the cannot be affected again by this particular casting of archon's aura.</p>"
  }
}
