{
  "_id": "6hza06xvxah95k5u",
  "name": "Ascension",
  "type": "spell",
  "img": "systems/pf1/icons/misc/magic-swirl.png",
  "system": {
    "actions": [
      {
        "_id": "p6p7w31i3khmhi3v",
        "name": "Use",
        "img": "systems/pf1/icons/misc/magic-swirl.png",
        "activation": {
          "type": "hour"
        },
        "unchainedAction": {
          "activation": {
            "type": "hour"
          }
        },
        "duration": {
          "value": "2 hours/level; see text"
        },
        "target": {
          "value": "one non-mythic creature/3 levels"
        },
        "range": {
          "units": "close"
        },
        "actionType": "spellsave",
        "save": {
          "type": "will",
          "description": "Will negates (harmless)"
        }
      }
    ],
    "learnedAt": {
      "class": {
        "sorcerer": 9,
        "wizard": 9,
        "cleric": 9,
        "oracle": 9,
        "druid": 9,
        "witch": 9,
        "psychic": 9
      }
    },
    "level": 9,
    "school": "uni",
    "components": {
      "verbal": true,
      "somatic": true,
      "material": true,
      "focus": true
    },
    "materials": {
      "value": "10,000 gp in rare herbs, gems, and other exotic materials",
      "focus": "minor artifact",
      "gpValue": 10000
    },
    "spellbook": "",
    "preparation": {
      "spontaneousPrepared": false
    },
    "shortDescription": "<p>You imbue a number of creatures with mythic power, granting each of them 1st tier in a mythic path of its choice. The creatures immediately gain the benefits of their chosen paths. Divide the duration evenly among all targets.  The targets retain their mythic tier only while they're within 100 feet of the spell's focus component. A target that goes outside this range loses its mythic tier, but instantly regains it if it moves into range again. If the focus component is destroyed while the spell is in effect, the spell immediately ends and all targets gain 1d4 permanent negative levels.</p>"
  }
}
