{
  "_id": "5bkqxi1071265kdi",
  "name": "Assumed Likeness",
  "type": "spell",
  "img": "systems/pf1/icons/misc/magic-swirl.png",
  "system": {
    "actions": [
      {
        "_id": "33bqkvqv5hwnsnat",
        "name": "Use",
        "img": "systems/pf1/icons/misc/magic-swirl.png",
        "activation": {
          "type": "standard"
        },
        "unchainedAction": {
          "activation": {
            "cost": 2,
            "type": "action"
          }
        },
        "duration": {
          "value": "10 minutes/level (D)"
        },
        "target": {
          "value": "one creature/level, no two of which can be more than 30 ft. apart"
        },
        "range": {
          "units": "close"
        },
        "measureTemplate": {
          "type": "circle",
          "size": "15"
        },
        "actionType": "spellsave",
        "save": {
          "type": "will",
          "description": "Will disbelief"
        }
      }
    ],
    "learnedAt": {
      "class": {
        "sorcerer": 2,
        "wizard": 2,
        "bard": 1,
        "magus": 2,
        "psychic": 2,
        "medium": 1,
        "mesmerist": 1,
        "occultist": 2
      }
    },
    "level": 2,
    "school": "ill",
    "subschool": "phantasm",
    "types": "emotion, mind-affecting",
    "components": {
      "verbal": true,
      "somatic": true
    },
    "shortDescription": "<p>You draw upon the memories of the targets to create a visual disguise for yourself that only they can see. When you cast the spell, you choose an emotion from the table below. Each target perceives you as a creature it feels that way toward. If it doesn't feel that way toward anyone, it instead perceives you as a stranger with features likely to  evoke that emotion (e.g., if you choose respect, a guard who was taught to respect her elders but who currently knows no elders might see you as an elderly version of yourself). Since you don't know how you will appear to each target, you must match your actions and statements to fit with the illusion as best you can. While the spell grants a +10 bonus on Disguise checks like <i>disguise self</i> does, you also take a -5 penalty on Disguise checks until you can get a sense of who the target thinks you are. Each target who fails to disbelieve the phantasm and is fooled by your Disguise check takes a -2 penalty on Sense Motive checks to notice your lies, and each emotion choice grants you an additional benefit against such targets, as listed in the table below. <table border ='1'><tr><th>Emotion</th><th>Effect</th></tr><tr><td>Fear</td><td>+4 bonus on Intimidate checks</td></tr><tr><td>Hate</td><td>+2 bonus on attack rolls, -2 penalty to AC</td></tr><tr><td>Lust</td><td>+4 bonus on Sleight of Hand checks</td></tr><tr><td>Respect</td><td>+4 bonus on Diplomacy checks</td></tr><tr><td>Trust</td><td>+4 bonus on Bluff checks</td></tr></table>"
  }
}
