{
  "_id": "ojeb2bik1bcl9z0g",
  "name": "Barbed Chains",
  "type": "spell",
  "img": "systems/pf1/icons/misc/magic-swirl.png",
  "system": {
    "actions": [
      {
        "_id": "li0k3zob38syrgnj",
        "name": "Use",
        "img": "systems/pf1/icons/misc/magic-swirl.png",
        "activation": {
          "type": "standard"
        },
        "unchainedAction": {
          "activation": {
            "cost": 2,
            "type": "action"
          }
        },
        "duration": {
          "value": "instantaneous"
        },
        "range": {
          "units": "close"
        },
        "actionType": "spellsave",
        "save": {
          "type": "will",
          "description": "Will partial (see text)"
        },
        "spellEffect": "a chain sharpened at one end"
      }
    ],
    "learnedAt": {
      "class": {
        "cleric": 1,
        "oracle": 1,
        "summoner": 1,
        "inquisitor": 1,
        "antipaladin": 1,
        "bloodrager": 1,
        "shaman": 1,
        "occultist": 1,
        "unchained Summoner": 1
      }
    },
    "school": "con",
    "subschool": "summoning",
    "types": "emotion, fear, mind-affecting",
    "components": {
      "verbal": true,
      "somatic": true,
      "material": true
    },
    "materials": {
      "value": "a length of chain doused with fresh blood"
    },
    "sr": false,
    "shortDescription": "<p>You summon a chain from another realm, causing it to burst out from the ground and strike a target within the spell's range. You can have the chain either make a melee attack (dealing 1d6 points of slashing damage) or attempt a trip combat maneuver against the target. The chain uses your base attack bonus plus your key spellcasting ability score modifier as its attack bonus and combat maneuver bonus. On a successful hit or combat maneuver check, the target must attempt a Will save. If it fails its save, the creature is shaken for 1d4 rounds. You summon one additional chain every 3 levels after 1st, for a total of two chains at 4th level, three at 7th level, and a maximum of four at 10th level. Multiple chains can attack the same target but the shaken effect doesn't stack.</p>"
  }
}
