{
  "_id": "la7kuehewu85ybnt",
  "name": "Barkskin",
  "type": "spell",
  "img": "systems/pf1/icons/misc/magic-swirl.png",
  "system": {
    "actions": [
      {
        "_id": "snnwucn8lrrty663",
        "name": "Use",
        "img": "systems/pf1/icons/misc/magic-swirl.png",
        "activation": {
          "type": "standard"
        },
        "unchainedAction": {
          "activation": {
            "cost": 2,
            "type": "action"
          }
        },
        "duration": {
          "value": "10 min./level"
        },
        "target": {
          "value": "living creature touched"
        },
        "range": {
          "units": "touch"
        },
        "actionType": ""
      }
    ],
    "learnedAt": {
      "class": {
        "druid": 2,
        "ranger": 2,
        "alchemist": 2,
        "summoner": 2,
        "shaman": 2,
        "hunter": 2,
        "unchained Summoner": 2
      },
      "domain": {
        "Plant": 2
      },
      "subDomain": {
        "Defense": 2
      },
      "bloodline": {
        "Verdant": 2
      }
    },
    "level": 2,
    "school": "trs",
    "components": {
      "verbal": true,
      "somatic": true,
      "divineFocus": 1
    },
    "shortDescription": "<p><i>Barkskin</i> toughens a creature's skin. The effect grants a +2 enhancement bonus to the creature's existing natural armor bonus. This enhancement bonus increases by 1 for every three caster levels above 3rd, to a maximum of +5 at 12th level.</p><p>The enhancement bonus provided by <i>barkskin</i> stacks with the target's natural armor bonus, but not with other enhancement bonuses to natural armor. A creature without natural armor has an effective natural armor bonus of +0.</p>"
  }
}
