{
  "_id": "fc7glgr01tgej071",
  "name": "Binding Earth",
  "type": "spell",
  "img": "systems/pf1/icons/misc/magic-swirl.png",
  "system": {
    "actions": [
      {
        "_id": "5n529r7fh9gyi1gh",
        "name": "Use",
        "img": "systems/pf1/icons/misc/magic-swirl.png",
        "activation": {
          "type": "standard"
        },
        "unchainedAction": {
          "activation": {
            "cost": 2,
            "type": "action"
          }
        },
        "duration": {
          "value": "1 round/level"
        },
        "target": {
          "value": "one creature or unattended object (see text)"
        },
        "range": {
          "units": "close"
        },
        "actionType": "spellsave",
        "save": {
          "type": "fort",
          "description": "Fortitude negates"
        }
      }
    ],
    "learnedAt": {
      "class": {
        "druid": 2,
        "witch": 2,
        "hunter": 2
      }
    },
    "level": 2,
    "school": "trs",
    "types": "earth",
    "components": {
      "verbal": true,
      "somatic": true,
      "divineFocus": 1
    },
    "shortDescription": "<p>If the target of this spell fails its Fortitude save, areas of earth and stone floor act as a snapping quagmire that pulls the target down and damages it if it attempts to move through such terrain.  If the target is a creature, it treats all areas of earth and stone it moves through as difficult terrain. Furthermore, for each 5 feet a creature moves through such areas, it takes 1d6 points of damage. Creatures with a burrow speed or the earth glide ability are unaffected by <i>binding earth</i>.  If cast on an unattended object resting on an area of stone or earth, the stone or earth warps and wraps around it, pulling it firmly to the ground. A DC 15 Strength check is required to pull the object free from snapping earth or stone.</p>"
  }
}
