{
  "_id": "6ihxyoha1bkh1hw6",
  "name": "Bite the Hand, Mass",
  "type": "spell",
  "img": "systems/pf1/icons/misc/magic-swirl.png",
  "system": {
    "actions": [
      {
        "_id": "holcmpxdess1d38t",
        "name": "Use",
        "img": "systems/pf1/icons/misc/magic-swirl.png",
        "activation": {
          "type": "standard"
        },
        "unchainedAction": {
          "activation": {
            "cost": 2,
            "type": "action"
          }
        },
        "duration": {
          "value": "1 round/level (D)"
        },
        "target": {
          "value": "one creature summoned by a spell or spell-like ability/level, no two of which can be more than 30 ft. apart"
        },
        "range": {
          "units": "medium"
        },
        "actionType": "spellsave",
        "save": {
          "type": "will",
          "description": "Will negates"
        }
      }
    ],
    "learnedAt": {
      "class": {
        "sorcerer": 7,
        "wizard": 7,
        "druid": 6,
        "summoner": 6,
        "witch": 7,
        "inquisitor": 6,
        "hunter": 6,
        "unchained Summoner": 6
      }
    },
    "level": 7,
    "school": "enc",
    "subschool": "compulsion",
    "components": {
      "verbal": true,
      "somatic": true,
      "divineFocus": 1
    },
    "shortDescription": "<p>This spell functions like <i>bite the hand</i>, except as noted above.</p><p>The target creatures do not need to have all been summoned by the same being.</p>"
  }
}
