{
  "_id": "z1j8oc2291czpinh",
  "name": "Blade Barrier",
  "type": "spell",
  "img": "systems/pf1/icons/misc/magic-swirl.png",
  "system": {
    "actions": [
      {
        "_id": "pv61obeu2ayq1b4k",
        "name": "Use",
        "img": "systems/pf1/icons/misc/magic-swirl.png",
        "activation": {
          "type": "standard"
        },
        "unchainedAction": {
          "activation": {
            "cost": 2,
            "type": "action"
          }
        },
        "duration": {
          "value": "1 min./level (D)"
        },
        "range": {
          "units": "medium"
        },
        "actionType": "spellsave",
        "save": {
          "type": "ref",
          "description": "Reflex half or Reflex negates; see text"
        },
        "spellEffect": "wall of whirling blades up to 20 ft. long/level, or a ringed wall of whirling blades with a radius of up to 5 ft. per two levels; either form is 20 ft. high"
      }
    ],
    "learnedAt": {
      "class": {
        "cleric": 6,
        "oracle": 6,
        "inquisitor": 6,
        "psychic": 6,
        "occultist": 6
      },
      "domain": {
        "Good": 6,
        "War": 6
      }
    },
    "level": 6,
    "school": "evo",
    "types": "force",
    "components": {
      "verbal": true,
      "somatic": true
    },
    "shortDescription": "<p>An immobile, vertical curtain of whirling blades shaped of pure force springs into existence. Any creature passing through the wall takes 1d6 points of damage per caster level (maximum 15d6), with a Reflex save for half damage.</p><p>If you evoke the barrier so that it appears where creatures are, each creature takes damage as if passing through the wall.</p><p>Each such creature can avoid the wall (ending up on the side of its choice) and thus take no damage by making a successful Reflex save.</p><p>A <i>blade barrier</i> provides cover (+4 bonus to AC, +2 bonus on Reflex saves) against attacks made through it.</p>"
  }
}
