{
  "_id": "iqivxdht4kuo5kkm",
  "name": "Blood Armor",
  "type": "spell",
  "img": "systems/pf1/icons/misc/magic-swirl.png",
  "system": {
    "actions": [
      {
        "_id": "pu4c73mfgj6695gq",
        "name": "Use",
        "img": "systems/pf1/icons/misc/magic-swirl.png",
        "activation": {
          "type": "standard"
        },
        "unchainedAction": {
          "activation": {
            "cost": 2,
            "type": "action"
          }
        },
        "duration": {
          "value": "1 minute/level"
        },
        "target": {
          "value": "you"
        },
        "range": {
          "units": "personal"
        },
        "actionType": ""
      }
    ],
    "learnedAt": {
      "class": {
        "sorcerer": 2,
        "wizard": 2,
        "alchemist": 2,
        "summoner": 2,
        "witch": 2,
        "bloodrager": 2,
        "psychic": 2,
        "unchained Summoner": 2
      }
    },
    "level": 2,
    "school": "trs",
    "components": {
      "verbal": true,
      "somatic": true
    },
    "sr": false,
    "shortDescription": "<p>Your blood becomes as hard as iron upon contact with air.</p><p>Each time you take at least 5 points of piercing or slashing damage, your armor gains a +1 enhancement bonus to your AC. An outfit of regular clothing counts as armor that grants no AC bonus for the purpose of this spell. This enhancement bonus stacks with itself to a maximum enhancement bonus of +5. This spell has no effect while underwater or in environments that lack air.</p>"
  }
}
