{
  "_id": "m5m1vz5dq3tt1pqe",
  "name": "Bloody Claws",
  "type": "spell",
  "img": "systems/pf1/icons/misc/magic-swirl.png",
  "system": {
    "actions": [
      {
        "_id": "manhd1ap6qrbabzk",
        "name": "Use",
        "img": "systems/pf1/icons/misc/magic-swirl.png",
        "activation": {
          "type": "standard"
        },
        "unchainedAction": {
          "activation": {
            "cost": 2,
            "type": "action"
          }
        },
        "duration": {
          "value": "1 minute/level"
        },
        "target": {
          "value": "living creature touched"
        },
        "range": {
          "units": "touch"
        },
        "actionType": "spellsave",
        "save": {
          "type": "fort",
          "description": "Fortitude negates (harmless)"
        }
      }
    ],
    "learnedAt": {
      "class": {
        "druid": 4,
        "ranger": 3,
        "hunter": 3
      }
    },
    "level": 4,
    "school": "nec",
    "components": {
      "verbal": true,
      "somatic": true,
      "divineFocus": 1
    },
    "shortDescription": "<p>You give a creature the ability to deal bleed damage when making natural attacks so long as the attack deals slashing or piercing damage. This bleed damage for each attack is equal to one-half your caster level (limited to the creature's maximum damage with that attack), though bleed damage does not stack. When two or more attacks deal bleed damage, take the worse effect.</p>"
  }
}
