{
  "_id": "27c1lt6aws5f63yk",
  "name": "Bloodhound",
  "type": "spell",
  "img": "systems/pf1/icons/misc/magic-swirl.png",
  "system": {
    "actions": [
      {
        "_id": "b8dcztbg9hd1almh",
        "name": "Use",
        "img": "systems/pf1/icons/misc/magic-swirl.png",
        "activation": {
          "type": "standard"
        },
        "unchainedAction": {
          "activation": {
            "cost": 2,
            "type": "action"
          }
        },
        "duration": {
          "value": "1 hour/level"
        },
        "target": {
          "value": "you"
        },
        "range": {
          "units": "personal"
        },
        "actionType": ""
      }
    ],
    "learnedAt": {
      "class": {
        "ranger": 2,
        "alchemist": 3,
        "inquisitor": 2,
        "occultist": 3,
        "hunter": 2
      }
    },
    "level": 2,
    "school": "trs",
    "components": {
      "verbal": true,
      "somatic": true,
      "material": true
    },
    "materials": {
      "value": "a drop of blood and a pinch of cinnamon"
    },
    "sr": false,
    "shortDescription": "<p>You gain the scent special quality, including the ability to track by scent. You receive a +8 competence bonus on Perception checks involving smell and a +4 competence bonus on Survival checks to track using scent. You take a -4 penalty on saving throws against odor-related effects such as the stench ability and <i>stinking cloud</i>. A creature under the effects of <i>bloodhound</i> can detect poison by scent with a DC 20 Perception check.</p>"
  }
}
