{
  "_id": "v4q4jzl82labfckc",
  "name": "Borrow Fortune",
  "type": "spell",
  "img": "systems/pf1/icons/misc/magic-swirl.png",
  "system": {
    "actions": [
      {
        "_id": "ndgq3k1jxakeigs7",
        "name": "Use",
        "img": "systems/pf1/icons/misc/magic-swirl.png",
        "activation": {
          "type": "immediate"
        },
        "unchainedAction": {
          "activation": {
            "type": "reaction"
          }
        },
        "duration": {
          "value": "instantaneous; see text"
        },
        "target": {
          "value": "you"
        },
        "range": {
          "units": "personal"
        },
        "actionType": ""
      }
    ],
    "learnedAt": {
      "class": {
        "psychic": 3,
        "medium": 3
      },
      "subDomain": {
        "Fate": 3
      }
    },
    "level": 3,
    "school": "evo",
    "components": {
      "verbal": true
    },
    "sr": false,
    "shortDescription": "<p>When you make a d20 roll, you may choose to immediately cast this spell to reroll that die before success or failure is known, keeping the more favorable result. For the next two rounds following your casting of the spell, you must roll two dice each time a d20 roll is called for, keeping the less favorable result.</p>"
  }
}
