{
  "_id": "ndvks6ztnxhj6oxh",
  "name": "Burst of Insight",
  "type": "spell",
  "img": "systems/pf1/icons/misc/magic-swirl.png",
  "system": {
    "actions": [
      {
        "_id": "rbevc8ggrq8mznc9",
        "name": "Use",
        "img": "systems/pf1/icons/misc/magic-swirl.png",
        "activation": {
          "type": "immediate"
        },
        "unchainedAction": {
          "activation": {
            "type": "reaction"
          }
        },
        "duration": {
          "value": "instantaneous"
        },
        "target": {
          "value": "you"
        },
        "range": {
          "units": "personal"
        },
        "actionType": ""
      }
    ],
    "learnedAt": {
      "class": {
        "psychic": 1,
        "medium": 1,
        "mesmerist": 1,
        "spiritualist": 1
      }
    },
    "school": "trs",
    "components": {
      "verbal": true,
      "somatic": true
    },
    "sr": false,
    "shortDescription": "<p>You plumb the depths of your mind for insight, leaving you momentarily frazzled. When you are about to make a d20 roll based on Intelligence, Wisdom, or Charisma, you can cast this spell to gain a +8 enhancement bonus to Intelligence, Wisdom, or Charisma for that roll, but you are dazed for 1 round afterward.</p>"
  }
}
