{
  "_id": "jzz22fm5kk08uda3",
  "name": "Calculated Luck",
  "type": "spell",
  "img": "systems/pf1/icons/misc/magic-swirl.png",
  "system": {
    "actions": [
      {
        "_id": "fpijmyys3de0kxzx",
        "name": "Use",
        "img": "systems/pf1/icons/misc/magic-swirl.png",
        "activation": {
          "type": "standard"
        },
        "unchainedAction": {
          "activation": {
            "cost": 2,
            "type": "action"
          }
        },
        "duration": {
          "value": "1 round/level (D)"
        },
        "target": {
          "value": "you"
        },
        "range": {
          "units": "personal"
        },
        "actionType": ""
      }
    ],
    "learnedAt": {
      "class": {
        "cleric": 3,
        "oracle": 3,
        "witch": 4
      }
    },
    "level": 3,
    "school": "div",
    "components": {
      "verbal": true,
      "somatic": true
    },
    "sr": false,
    "shortDescription": "<p>You are able to use the Path of Numbers to substantially boost your combat preparedness, but your foresight comes at a price.</p><p>Roll 3d8 and refer to the Eight Basic Energies table on page 51.</p><p>After rolling ,assign each die to one of the following.</p><p><ul><li> <i>Energy Type</i>: You gain vulnerability to the energy type that matches the die's result for the duration of the spell. You take half again as much damage (+50%) from that energy type, regardless of whether you successfully saved against the damaging spell or effect.</p><p><li> <i>Magic School</i>: For the spell's duration, you cast all spells from the school that matches the die's result at +1 caster level.</p><p><li> <i>d20 Roll Type</i>: You receive a +2 luck bonus on the d20 roll that matches the die's result for the duration of the spell.</ul></p>"
  }
}
