{
  "_id": "bzrvvdbmpr9lbrvr",
  "name": "Cognitive Block",
  "type": "spell",
  "img": "systems/pf1/icons/misc/magic-swirl.png",
  "system": {
    "actions": [
      {
        "_id": "eaajb0q1l8fyufbm",
        "name": "Use",
        "img": "systems/pf1/icons/misc/magic-swirl.png",
        "activation": {
          "type": "standard"
        },
        "unchainedAction": {
          "activation": {
            "cost": 2,
            "type": "action"
          }
        },
        "duration": {
          "value": "1 round/level (D)"
        },
        "target": {
          "value": "one creature"
        },
        "range": {
          "units": "close"
        },
        "actionType": "spellsave",
        "save": {
          "type": "will",
          "description": "Will negates"
        }
      }
    ],
    "learnedAt": {
      "class": {
        "psychic": 3,
        "medium": 2,
        "mesmerist": 2
      }
    },
    "level": 3,
    "school": "enc",
    "subschool": "compulsion",
    "types": "mind-affecting",
    "components": {
      "verbal": true
    },
    "shortDescription": "<p>You create a mental block in the target's mind, impeding the flow of his mental spellcasting process and forcing him to incorporate a thought component into any spell or spell-like ability he uses. This is in addition to any other components the spell already requires, and doesn't replace the verbal component. Spell-like abilities require this thought component, even though they normally don't need spell components.  As usual with thought components, this addition increases the DC of any concentration checks the target attempts by 10 unless the target takes a move action to center his mind and satisfy the spell's thought component.</p>"
  }
}
