{
  "_id": "gq2ereen2neiyaxb",
  "name": "Compel Tongue, Mass",
  "type": "spell",
  "img": "systems/pf1/icons/misc/magic-swirl.png",
  "system": {
    "actions": [
      {
        "_id": "iz9ik9bbtnnia1hw",
        "name": "Use",
        "img": "systems/pf1/icons/misc/magic-swirl.png",
        "activation": {
          "type": "standard"
        },
        "unchainedAction": {
          "activation": {
            "cost": 2,
            "type": "action"
          }
        },
        "duration": {
          "value": "1 hour/level (D)"
        },
        "target": {
          "value": "one creature/level, no two of which can be more than 30 ft. apart"
        },
        "range": {
          "units": "touch"
        },
        "measureTemplate": {
          "type": "circle",
          "size": "15"
        },
        "actionType": "spellsave",
        "save": {
          "type": "will",
          "description": "Will negates"
        }
      }
    ],
    "learnedAt": {
      "class": {
        "sorcerer": 5,
        "wizard": 5,
        "cleric": 5,
        "oracle": 5,
        "druid": 5,
        "bard": 4,
        "witch": 5,
        "medium": 4,
        "mesmerist": 4,
        "hunter": 5
      }
    },
    "level": 5,
    "school": "enc",
    "subschool": "compulsion",
    "types": "mind-affecting",
    "components": {
      "verbal": true,
      "somatic": true,
      "material": true
    },
    "materials": {
      "value": "a wooden block carved with a letter"
    },
    "shortDescription": "<p>This spell functions as <i>compel tongue</i>, except it affects multiple creatures. The same language restriction applies to all creatures, and the same language must be imparted to all creatures affected by the same casting of this spell.</p>"
  }
}
