{
  "_id": "vslg7dh266cz28uh",
  "name": "Companion Transposition",
  "type": "spell",
  "img": "systems/pf1/icons/misc/magic-swirl.png",
  "system": {
    "actions": [
      {
        "_id": "a156j9o7e87wmday",
        "name": "Use",
        "img": "systems/pf1/icons/misc/magic-swirl.png",
        "activation": {
          "type": "standard"
        },
        "unchainedAction": {
          "activation": {
            "cost": 2,
            "type": "action"
          }
        },
        "duration": {
          "value": "instantaneous"
        },
        "target": {
          "value": "yourself and one animal companion, familiar, or spirit animal within range"
        },
        "range": {
          "units": "long"
        },
        "actionType": "spellsave",
        "save": {
          "description": "none (harmless)"
        }
      }
    ],
    "learnedAt": {
      "class": {
        "sorcerer": 5,
        "wizard": 5,
        "druid": 5,
        "ranger": 4,
        "paladin": 4,
        "witch": 5,
        "antipaladin": 4,
        "shaman": 5,
        "hunter": 4
      }
    },
    "level": 5,
    "school": "con",
    "subschool": "teleportation",
    "components": {
      "verbal": true,
      "somatic": true,
      "focus": true
    },
    "materials": {
      "focus": "a feather, tuft of fur, or similar memento from your target"
    },
    "sr": false,
    "shortDescription": "<p>You trade places with the other target, teleporting as if you were both affected by dimension door. Both you and the other target arrive in a square you choose in the other's former space. If the targets are different sizes, they must appear in locations that cover previously occupied squares. As with dimension door, after casting this spell, you can't take any other actions until your next turn, and the other target is staggered until the end of its next turn due to the transposition.</p>"
  }
}
