{
  "_id": "hv1vqeuh5eji28rz",
  "name": "Contagion, Greater",
  "type": "spell",
  "img": "systems/pf1/icons/misc/magic-swirl.png",
  "system": {
    "actions": [
      {
        "_id": "sd6nyuqtbdk8szys",
        "name": "Use",
        "img": "systems/pf1/icons/misc/magic-swirl.png",
        "activation": {
          "type": "standard"
        },
        "unchainedAction": {
          "activation": {
            "cost": 2,
            "type": "action"
          }
        },
        "duration": {
          "value": "instantaneous"
        },
        "target": {
          "value": "one living creature"
        },
        "range": {
          "units": "close"
        },
        "actionType": "spellsave",
        "save": {
          "type": "fort",
          "description": "Fortitude negates"
        }
      }
    ],
    "learnedAt": {
      "class": {
        "sorcerer": 6,
        "wizard": 6,
        "cleric": 5,
        "oracle": 5,
        "druid": 5,
        "witch": 5,
        "hunter": 5
      }
    },
    "level": 6,
    "school": "nec",
    "types": "disease, evil",
    "components": {
      "verbal": true,
      "somatic": true
    },
    "spellbook": "",
    "shortDescription": "<p>This spell functions as @Compendium[pf1.spells.ppeb97nxg1rmdpme]{contagion}, except the victim cannot overcome the disease without magic-making the required number of saves does not cure it. The DC to remove the disease with magic is equal to the save DC + 5.</p>"
  }
}
