{
  "_id": "6g7x08y9nl7vlffv",
  "name": "Contact Entity II",
  "type": "spell",
  "img": "systems/pf1/icons/misc/magic-swirl.png",
  "system": {
    "actions": [
      {
        "_id": "drum41xjw8837qlt",
        "name": "Use",
        "img": "systems/pf1/icons/misc/magic-swirl.png",
        "activation": {
          "type": "minute"
        },
        "unchainedAction": {
          "activation": {
            "type": "minute"
          }
        },
        "duration": {
          "value": "instantaneous"
        },
        "target": {
          "value": "up to 20 entities of 12 HD or fewer"
        },
        "range": {
          "value": "200",
          "units": "mi"
        },
        "actionType": ""
      }
    ],
    "learnedAt": {
      "class": {
        "sorcerer": 3,
        "wizard": 3,
        "cleric": 3,
        "oracle": 3,
        "summoner": 3,
        "witch": 3,
        "shaman": 3,
        "psychic": 3,
        "medium": 2,
        "occultist": 3,
        "unchained Summoner": 3
      }
    },
    "level": 3,
    "school": "evo",
    "components": {
      "verbal": true,
      "somatic": true,
      "material": true
    },
    "materials": {
      "value": "see text"
    },
    "sr": false,
    "shortDescription": "<p>This spell functions like <i>contact entity I</i>, except that you can contact creatures from the <i>contact entity II</i> list, and as noted above.</p>"
  }
}
