{
  "_id": "nk55jadwbyimbp4y",
  "name": "Corruption Resistance",
  "type": "spell",
  "img": "systems/pf1/icons/misc/magic-swirl.png",
  "system": {
    "actions": [
      {
        "_id": "bn47d205s1yo8vrm",
        "name": "Use",
        "img": "systems/pf1/icons/misc/magic-swirl.png",
        "activation": {
          "type": "standard"
        },
        "unchainedAction": {
          "activation": {
            "cost": 2,
            "type": "action"
          }
        },
        "duration": {
          "value": "10 minutes/level"
        },
        "target": {
          "value": "creature touched"
        },
        "range": {
          "units": "touch"
        },
        "actionType": "spellsave",
        "save": {
          "type": "fort",
          "description": "Fortitude negates (harmless)"
        }
      }
    ],
    "learnedAt": {
      "class": {
        "paladin": 2,
        "inquisitor": 2,
        "antipaladin": 2
      }
    },
    "level": 2,
    "school": "abj",
    "types": "chaotic, evil, good, or lawful",
    "components": {
      "verbal": true,
      "somatic": true,
      "divineFocus": 1
    },
    "shortDescription": "<p>You grant the touched creature limited protection from magical effects that inflict damage based on the target creature's alignment, such as <i>holy smite</i>, order's wrath, a paladin's smite evil attack, or an <i>unholy</i> weapon. Choose one alignment type: chaos, evil, good, or law. The subject takes 5 less points of damage from effects that specifically harm creatures of that alignment. The value of the protection increases to 10 points at 7th level and 15 points at 11th level. The spell protects the recipient's equipment as well.</p><p><i>Corruption resistance</i> protects against spells, spell-like abilities, and special abilities, not physical attacks. <i>Corruption resistance</i> only protects against damage. The subject can still suffer side effects from such attacks. When you use this spell to protect an alignment, it gains the descriptor of that alignment.</p>"
  }
}
