{
  "_id": "c1e7f0ct04k270wy",
  "name": "Create Undead",
  "type": "spell",
  "img": "systems/pf1/icons/misc/magic-swirl.png",
  "system": {
    "actions": [
      {
        "_id": "wsmotpzqcqp0fq1x",
        "name": "Use",
        "img": "systems/pf1/icons/misc/magic-swirl.png",
        "activation": {
          "type": "hour"
        },
        "unchainedAction": {
          "activation": {
            "type": "hour"
          }
        },
        "duration": {
          "value": "instantaneous"
        },
        "target": {
          "value": "one corpse"
        },
        "range": {
          "units": "close"
        },
        "actionType": ""
      }
    ],
    "learnedAt": {
      "class": {
        "sorcerer": 6,
        "wizard": 6,
        "cleric": 6,
        "oracle": 6,
        "shaman": 6,
        "spiritualist": 6
      },
      "domain": {
        "Death": 6,
        "Evil": 6
      }
    },
    "level": 6,
    "school": "nec",
    "types": "evil",
    "components": {
      "verbal": true,
      "somatic": true,
      "material": true
    },
    "materials": {
      "value": "a clay pot filled with grave dirt and an onyx gem worth at least 50 gp per HD of the undead to be created"
    },
    "sr": false,
    "shortDescription": "<p>A much more potent spell than <i>animate dead</i>, this evil spell allows you to infuse a dead body with negative energy to create more powerful sorts of undead: ghouls, ghasts, mummies, and mohrgs. The type or types of undead you can create are based on your caster level, as shown on the table below.</p><table><thead><tr><th>Caster Level</th><th>Undead Created</th></tr> <tbody><tr><td>11th or lower</td><td>Ghoul</td></tr> <tr><td>12th-14th</td><td>Ghast</td></tr> <tr><td>15th-17th</td><td>Mummy</td></tr> <tr><td>18th or higher</td><td>Mohrg</td></tr></tbody></table> You may create less powerful undead than your level would allow if you choose. Created undead are not automatically under the control of their animator. If you are capable of commanding undead, you may attempt to command the undead creature as it forms.</p><p>This spell must be cast at night.</p>"
  }
}
