{
  "_id": "8d355ac8allqcfwm",
  "name": "Dark-Light",
  "type": "spell",
  "img": "systems/pf1/icons/misc/magic-swirl.png",
  "system": {
    "actions": [
      {
        "_id": "ayeyu1nou2a6hyin",
        "name": "Use",
        "img": "systems/pf1/icons/misc/magic-swirl.png",
        "activation": {
          "type": "standard"
        },
        "unchainedAction": {
          "activation": {
            "cost": 2,
            "type": "action"
          }
        },
        "duration": {
          "value": "instantaneous"
        },
        "target": {
          "value": "living creatures without light sensitivity"
        },
        "range": {
          "units": "medium"
        },
        "actionType": "spellsave",
        "save": {
          "type": "fort",
          "description": "Fortitude partial"
        },
        "spellArea": "20-ft.-radius burst"
      }
    ],
    "learnedAt": {
      "class": {
        "sorcerer": 3,
        "wizard": 3,
        "cleric": 3,
        "oracle": 3,
        "druid": 3,
        "hunter": 3
      }
    },
    "level": 3,
    "school": "evo",
    "types": "light",
    "components": {
      "verbal": true,
      "somatic": true,
      "material": true,
      "divineFocus": 2
    },
    "materials": {
      "value": "a pinch of Darklands earth"
    },
    "shortDescription": "<p>You evoke a powerful light that affects all sighted creatures that do not posses light sensitivity. Those that succeed on their saves are dazzled for 1 round per level; those who fail are blinded for the same duration.</p>"
  }
}
