{
  "_id": "tu4khwqbkcnel7zq",
  "name": "Deadly Juggernaut",
  "type": "spell",
  "img": "systems/pf1/icons/misc/magic-swirl.png",
  "system": {
    "actions": [
      {
        "_id": "psqa7dx2thccivt9",
        "name": "Use",
        "img": "systems/pf1/icons/misc/magic-swirl.png",
        "activation": {
          "type": "standard"
        },
        "unchainedAction": {
          "activation": {
            "cost": 2,
            "type": "action"
          }
        },
        "duration": {
          "value": "1 minute/level"
        },
        "target": {
          "value": "you"
        },
        "range": {
          "units": "personal"
        },
        "actionType": ""
      }
    ],
    "learnedAt": {
      "class": {
        "cleric": 3,
        "oracle": 3,
        "paladin": 3,
        "inquisitor": 3,
        "antipaladin": 3
      }
    },
    "level": 3,
    "school": "nec",
    "types": "death",
    "components": {
      "verbal": true,
      "somatic": true
    },
    "sr": false,
    "shortDescription": "<p>With every enemy life you take, you become increasingly dangerous and difficult to stop. During the duration of the spell, you gain a cumulative +1 luck bonus on melee attack rolls, melee weapon damage rolls, Strength checks, and Strength-based skill checks as well as DR 2/- each time you reduce a qualifying opponent to 0 or few hit points (maximum +5 bonus and DR 10/-) with a melee attack. A qualifying opponent has a number of Hit Dice equal to or greater than your Hit Dice -4.</p>"
  }
}
