{
  "_id": "62eepdqfnmyrawcn",
  "name": "Deadly Finale",
  "type": "spell",
  "img": "systems/pf1/icons/misc/magic-swirl.png",
  "system": {
    "actions": [
      {
        "_id": "ghnfs1b0ria5rheq",
        "name": "Use",
        "img": "systems/pf1/icons/misc/magic-swirl.png",
        "activation": {
          "type": "standard"
        },
        "unchainedAction": {
          "activation": {
            "cost": 2,
            "type": "action"
          }
        },
        "duration": {
          "value": "instantaneous"
        },
        "target": {
          "value": "1 creature/3 levels no two of which can be more than 30 ft. apart"
        },
        "range": {
          "units": "close"
        },
        "actionType": "spellsave",
        "save": {
          "type": "fort",
          "description": "Fortitude partial"
        }
      }
    ],
    "learnedAt": {
      "class": {
        "bard": 6
      }
    },
    "level": 6,
    "school": "evo",
    "types": "sonic",
    "components": {
      "verbal": true,
      "somatic": true
    },
    "shortDescription": "<p>You must have a bardic performance in effect to cast this spell.</p><p>With a flourish, you immediately end your performance, dealing 2d8 points of sonic damage to each target. In addition, each target takes 3d6 points of bleed damage for 1d6 rounds. A save negates the bleed damage but not the sonic damage.</p>"
  }
}
