{
  "_id": "e0rlki4hwu76l5ya",
  "name": "Death Ward",
  "type": "spell",
  "img": "systems/pf1/icons/misc/magic-swirl.png",
  "system": {
    "actions": [
      {
        "_id": "zktttx05makm5abl",
        "name": "Use",
        "img": "systems/pf1/icons/misc/magic-swirl.png",
        "activation": {
          "type": "standard"
        },
        "unchainedAction": {
          "activation": {
            "cost": 2,
            "type": "action"
          }
        },
        "duration": {
          "value": "1 min./level"
        },
        "target": {
          "value": "living creature touched"
        },
        "range": {
          "units": "touch"
        },
        "actionType": "spellsave",
        "save": {
          "type": "will",
          "description": "Will negates (harmless)"
        }
      }
    ],
    "learnedAt": {
      "class": {
        "cleric": 4,
        "oracle": 4,
        "druid": 5,
        "paladin": 4,
        "alchemist": 4,
        "witch": 4,
        "inquisitor": 4,
        "medium": 4,
        "occultist": 4,
        "spiritualist": 4,
        "hunter": 5
      },
      "domain": {
        "Death": 4,
        "Repose": 4
      }
    },
    "level": 4,
    "school": "nec",
    "components": {
      "verbal": true,
      "somatic": true,
      "divineFocus": 1
    },
    "shortDescription": "<p>The subject gains a +4 morale bonus on saves against all death spells and magical death effects. The subject is granted a save to negate such effects even if one is not normally allowed. The subject is immune to energy drain and any negative energy effects, including channeled negative energy.</p><p>This spell does not remove negative levels that the subject has already gained, but it does remove the penalties from negative levels for the duration of its effect.</p><p><i>Death ward</i> does not protect against other sorts of attacks, even if those attacks might be lethal.</p>"
  }
}
