{
  "_id": "mku1agyg64jjkh3e",
  "name": "Debilitating Pain, Mass",
  "type": "spell",
  "img": "systems/pf1/icons/misc/magic-swirl.png",
  "system": {
    "actions": [
      {
        "_id": "p43r49tz6vfsg31w",
        "name": "Use",
        "img": "systems/pf1/icons/misc/magic-swirl.png",
        "activation": {
          "type": "standard"
        },
        "unchainedAction": {
          "activation": {
            "cost": 2,
            "type": "action"
          }
        },
        "duration": {
          "value": "1 round/3 levels"
        },
        "target": {
          "value": "one creature/4 levels"
        },
        "range": {
          "units": "close"
        },
        "actionType": "spellsave",
        "save": {
          "type": "will",
          "description": "Will partial (see text)"
        }
      }
    ],
    "learnedAt": {
      "class": {
        "witch": 5,
        "psychic": 5
      }
    },
    "level": 5,
    "school": "enc",
    "subschool": "compulsion",
    "types": "mind-affecting, pain",
    "components": {
      "verbal": true,
      "somatic": true
    },
    "shortDescription": "<p>This spell functions as per <i>debilitating pain</i>, except you can target one creature for every 4 caster levels you have.</p>"
  }
}
