{
  "_id": "sds6f78h5xnfhjpg",
  "name": "Discharge, Greater",
  "type": "spell",
  "img": "systems/pf1/icons/misc/magic-swirl.png",
  "system": {
    "actions": [
      {
        "_id": "6muvpxlx1z359s5q",
        "name": "Use",
        "img": "systems/pf1/icons/misc/magic-swirl.png",
        "activation": {
          "type": "standard"
        },
        "unchainedAction": {
          "activation": {
            "cost": 2,
            "type": "action"
          }
        },
        "duration": {
          "value": "instantaneous"
        },
        "target": {
          "value": "one creature or technological object, or a 20-ft.-radius burst"
        },
        "range": {
          "units": "medium"
        },
        "actionType": "spellsave",
        "save": {
          "type": "fort",
          "description": "Fortitude negates"
        },
        "spellArea": "one creature or technological object, or a 20-ft.-radius burst"
      }
    ],
    "learnedAt": {
      "class": {
        "sorcerer": 6,
        "wizard": 6,
        "cleric": 6,
        "oracle": 6,
        "bard": 6,
        "witch": 6,
        "magus": 6
      }
    },
    "level": 6,
    "school": "abj",
    "components": {
      "verbal": true,
      "somatic": true
    },
    "spellbook": "",
    "sr": false,
    "shortDescription": "<p>This spell functions as @Compendium[pf1.spells.cnn3hvm9e4bub6pr]{discharge}, except it can discharge multiple technological objects and can be used to target an area.</p>\n<p>You choose to use greater <em>discharge</em> in one of two ways: an area <em>discharge</em> or a targeted <em>discharge</em>.</p>\n<p><em>Area</em> <em><b>Discharge</b></em>: When greater <em>discharge</em> is used in this way, the spell affects everything within a 20-foot-radius burst.</p>\n<p>Each creature in the area is affected as though by <em>discharge</em> (affecting only one object in the creature's possession), and each unattended object is similarly affected.</p>\n<p><em>Targeted</em> <em><b>Discharge</b></em>: This spell functions as <em>discharge</em>, but if the target is a creature, it can <em>discharge</em> one randomly determined object from the target's charged or electrically powered possessions for every 4 caster levels you possess.</p>"
  }
}
