{
  "_id": "bc3nc0ri47egssht",
  "name": "Enervation",
  "type": "spell",
  "img": "systems/pf1/icons/misc/magic-swirl.png",
  "system": {
    "actions": [
      {
        "_id": "9hn29dukbzskkowz",
        "name": "Use",
        "img": "systems/pf1/icons/misc/magic-swirl.png",
        "activation": {
          "type": "standard"
        },
        "unchainedAction": {
          "activation": {
            "cost": 2,
            "type": "action"
          }
        },
        "duration": {
          "value": "instantaneous"
        },
        "range": {
          "units": "close"
        },
        "actionType": "other",
        "spellEffect": "ray of negative energy"
      }
    ],
    "learnedAt": {
      "class": {
        "sorcerer": 4,
        "wizard": 4,
        "witch": 4,
        "bloodrager": 4,
        "mesmerist": 4,
        "spiritualist": 4
      },
      "subDomain": {
        "Loss": 5,
        "Undead": 4
      }
    },
    "level": 4,
    "school": "nec",
    "components": {
      "verbal": true,
      "somatic": true
    },
    "shortDescription": "<p>You point your finger and fire a black ray of negative energy that suppresses the life force of any living creature it strikes. You must make a ranged touch attack to hit. If you hit, the subject gains 1d4 temporary negative levels (see Appendix 1). Negative levels stack.</p><p>Assuming the subject survives, it regains lost levels after a number of hours equal to your caster level (maximum 15 hours).</p><p>Usually, negative levels have a chance of becoming permanent, but the negative levels from <i>enervation</i> don't last long enough to do so.</p><p>An undead creature struck by the ray gains 1d4 x 5 temporary hit points for 1 hour.</p>"
  }
}
