{
  "_id": "ZAi4VWhpaLp8LYNr",
  "name": "Enhanced Diplomacy",
  "type": "spell",
  "img": "icons/skills/social/diplomacy-handshake.webp",
  "system": {
    "actions": [
      {
        "_id": "jquo0obufod5h9ld",
        "name": "Use",
        "img": "icons/skills/social/diplomacy-handshake.webp",
        "activation": {
          "type": "standard"
        },
        "duration": {
          "value": "1 minute or until discharged"
        },
        "target": {
          "value": "creature touched"
        },
        "range": {
          "units": "touch"
        },
        "uses": {
          "autoDeductChargesCost": "1 + @sl"
        },
        "actionType": "spellsave",
        "save": {
          "type": "will",
          "description": "Will negates (harmless)"
        }
      }
    ],
    "uses": {
      "autoDeductChargesCost": "0"
    },
    "learnedAt": {
      "class": {
        "cleric": 0,
        "oracle": 0,
        "druid": 0,
        "hunter": 0,
        "warpriest": 0
      }
    },
    "level": 0,
    "school": "div",
    "components": {
      "verbal": true,
      "somatic": true
    },
    "spellbook": "",
    "shortDescription": "<p>You imbue the subject with divine diplomacy skills. The creature gets a +2 competence bonus on a single Diplomacy or Intimidate check. It must choose to use the bonus before making the roll to which it applies.</p>"
  }
}
