{
  "_id": "85seyvrlrputrpe7",
  "name": "Erase Impressions",
  "type": "spell",
  "img": "systems/pf1/icons/misc/magic-swirl.png",
  "system": {
    "actions": [
      {
        "_id": "6fo8l8piyg3aotpe",
        "name": "Use",
        "img": "systems/pf1/icons/misc/magic-swirl.png",
        "activation": {
          "type": "round"
        },
        "unchainedAction": {
          "activation": {
            "cost": 3,
            "type": "action"
          }
        },
        "duration": {
          "value": "instantaneous"
        },
        "target": {
          "value": "object touched"
        },
        "range": {
          "units": "touch"
        },
        "actionType": "spellsave",
        "save": {
          "type": "will",
          "description": "Will negates (object)"
        }
      }
    ],
    "learnedAt": {
      "class": {
        "psychic": 5,
        "medium": 3,
        "mesmerist": 4,
        "occultist": 3,
        "spiritualist": 4
      }
    },
    "level": 5,
    "school": "abj",
    "components": {
      "verbal": true,
      "somatic": true
    },
    "shortDescription": "<p>You banish psychic impressions from the object touched, rendering it devoid of recent history. You choose how much time to erase, up to a maximum of 1 day per caster level. You must <i>erase impressions</i> from the present time back; you cannot choose to leave recent events untouched. Impressions erased in this manner cannot be recovered via <i>object reading</i>, <i>legend lore</i>, or similar measures.  Casting <i>erase impressions</i> o n a corpse r emoves recent psychic impressions from when the creature was alive as well, making those memories unavailable to <i>speak with dead</i>. For example, a 5th-level caster casting the spell on a 2-day-old corpse could erase the past 2 days of psychic impressions from the corpse and 3 additional days of information from just before the creature died.</p>"
  }
}
