{
  "_id": "8yxau0x46jky1xgq",
  "name": "Fallback Strategy",
  "type": "spell",
  "img": "systems/pf1/icons/misc/magic-swirl.png",
  "system": {
    "actions": [
      {
        "_id": "kp2engsexh84ivr7",
        "name": "Use",
        "img": "systems/pf1/icons/misc/magic-swirl.png",
        "activation": {
          "type": "standard"
        },
        "unchainedAction": {
          "activation": {
            "cost": 2,
            "type": "action"
          }
        },
        "duration": {
          "value": "1 minute/level or until discharged; see text"
        },
        "target": {
          "value": "you"
        },
        "range": {
          "units": "personal"
        },
        "actionType": ""
      }
    ],
    "learnedAt": {
      "class": {
        "cleric": 1,
        "oracle": 1,
        "paladin": 1,
        "inquisitor": 1,
        "magus": 1
      }
    },
    "school": "abj",
    "components": {
      "verbal": true,
      "somatic": true,
      "divineFocus": 1
    },
    "sr": false,
    "shortDescription": "<p>While this spell is active, you may reroll one attack roll, combat maneuver check, or skill check before the result of the roll or check is known. You must take the result of the reroll, even if it's worse than the original roll. Once the reroll is used, the spell ends.</p><p>You can have no more than one <i>fallback strategy</i> active on you at the same time.</p>"
  }
}
