{
  "_id": "ytyr7ttgr5xyk92t",
  "name": "False Life, Greater",
  "type": "spell",
  "img": "systems/pf1/icons/misc/magic-swirl.png",
  "system": {
    "actions": [
      {
        "_id": "qo76t3tkknjzo7bw",
        "name": "Use",
        "img": "systems/pf1/icons/misc/magic-swirl.png",
        "activation": {
          "type": "standard"
        },
        "unchainedAction": {
          "activation": {
            "cost": 2,
            "type": "action"
          }
        },
        "duration": {
          "value": "1 hour/level or until discharged; see text"
        },
        "target": {
          "value": "you"
        },
        "range": {
          "units": "personal"
        },
        "actionType": "heal",
        "damage": {
          "parts": [
            {
              "formula": "2d10 + min(20, @cl)",
              "type": {
                "values": ["untyped"],
                "custom": ""
              }
            }
          ]
        }
      }
    ],
    "learnedAt": {
      "class": {
        "sorcerer": 4,
        "wizard": 4,
        "alchemist": 4,
        "witch": 4,
        "bloodrager": 4,
        "shaman": 4,
        "psychic": 4,
        "medium": 3,
        "mesmerist": 3,
        "occultist": 4,
        "spiritualist": 4
      }
    },
    "level": 4,
    "school": "nec",
    "components": {
      "verbal": true,
      "somatic": true,
      "material": true
    },
    "materials": {
      "value": "a drop of blood"
    },
    "spellbook": "",
    "sr": false,
    "shortDescription": "<p>This spell functions as @Compendium[pf1.spells.3ze0kso9hxff5u2f]{false life}, except you gain temporary hit points equal to 2d10 + 1 point per caster level (maximum +20). The effects of this spell do not stack with those of <em>false life</em>.</p>"
  }
}
