{
  "_id": "cfztz4xbdlo5yqjd",
  "name": "Fiendish Wrath",
  "type": "spell",
  "img": "systems/pf1/icons/misc/magic-swirl.png",
  "system": {
    "actions": [
      {
        "_id": "u887kb2iikddrs3q",
        "name": "Use",
        "img": "systems/pf1/icons/misc/magic-swirl.png",
        "activation": {
          "type": "standard"
        },
        "unchainedAction": {
          "activation": {
            "cost": 2,
            "type": "action"
          }
        },
        "duration": {
          "value": "concentration + 1 round/level (D)"
        },
        "target": {
          "value": "one willing living creature per 3 levels, no two of which can be more than 30 ft. apart"
        },
        "range": {
          "units": "medium"
        },
        "actionType": ""
      }
    ],
    "learnedAt": {
      "class": {
        "sorcerer": 4,
        "wizard": 4,
        "bard": 3,
        "alchemist": 3,
        "summoner": 3,
        "witch": 4,
        "bloodrager": 3,
        "psychic": 4,
        "mesmerist": 3
      }
    },
    "level": 4,
    "school": "enc",
    "subschool": "compulsion",
    "types": "emotion, mind-affecting",
    "components": {
      "verbal": true,
      "somatic": true
    },
    "shortDescription": "<p>Each affected creature flies into a combat frenzy. The target gains a +2 morale bonus to Strength and Constitution, and a +1 morale bonus on Will saves. If an affected creature strikes an enemy with two claw attacks or two unarmed strikes while in this frenzy, it can use the rend ability, dealing an additional amount of damage equal to its claw or unarmed strike damage plus 1-1/2 times its Strength bonus.</p>"
  }
}
