{
  "_id": "12rk9htb1zta0o00",
  "name": "Fire's Friend",
  "type": "spell",
  "img": "systems/pf1/icons/misc/magic-swirl.png",
  "system": {
    "actions": [
      {
        "_id": "fau4jvvmt4v6g9c9",
        "name": "Use",
        "img": "systems/pf1/icons/misc/magic-swirl.png",
        "activation": {
          "type": "standard"
        },
        "unchainedAction": {
          "activation": {
            "cost": 2,
            "type": "action"
          }
        },
        "duration": {
          "value": "1 round/level"
        },
        "target": {
          "value": "you"
        },
        "range": {
          "units": "personal"
        },
        "actionType": ""
      }
    ],
    "learnedAt": {
      "class": {
        "alchemist": 2,
        "magus": 2,
        "bloodrager": 2
      }
    },
    "level": 2,
    "school": "evo",
    "types": "fire",
    "components": {
      "verbal": true,
      "somatic": true,
      "material": true
    },
    "materials": {
      "value": "a flame of any size"
    },
    "sr": false,
    "shortDescription": "<p>You cloak yourself in flames that do not harm you or your carried equipment but damage other creatures and objects. The flames cast light as a torch. Any creature that attacks you with a non-reach melee weapon or that begins its turn engaged in a grapple with you takes 1d6 points of fire damage and must succeed at a Reflex save or catch fire. The creature can negate the damage (and avoid catching fire) with spell resistance. Any time you end your movement in the same square as a flammable object or creature, that creature or object must succeed at a Reflex save or catch fire.</p>"
  }
}
