{
  "_id": "m2n9oyc9f0pkk6vn",
  "name": "Fox's Cunning, Mass",
  "type": "spell",
  "img": "systems/pf1/icons/misc/magic-swirl.png",
  "system": {
    "actions": [
      {
        "_id": "3ct3jmcgc2ofd4i0",
        "name": "Use",
        "img": "systems/pf1/icons/misc/magic-swirl.png",
        "activation": {
          "type": "standard"
        },
        "unchainedAction": {
          "activation": {
            "cost": 2,
            "type": "action"
          }
        },
        "duration": {
          "value": "1 min./level"
        },
        "target": {
          "value": "one creature/level, no two of which can be more than 30 ft. apart"
        },
        "range": {
          "units": "close"
        },
        "measureTemplate": {
          "type": "circle",
          "size": "15"
        },
        "actionType": "spellsave",
        "save": {
          "type": "will",
          "description": "Will negates (harmless)"
        }
      }
    ],
    "learnedAt": {
      "class": {
        "sorcerer": 6,
        "wizard": 6,
        "bard": 6,
        "summoner": 4,
        "psychic": 6,
        "unchained Summoner": 6
      }
    },
    "level": 6,
    "school": "trs",
    "components": {
      "verbal": true,
      "somatic": true,
      "material": true,
      "divineFocus": 2
    },
    "materials": {
      "value": "hairs or dung from a fox"
    },
    "shortDescription": "<p>This spell functions like fox's cunning, except that it affects multiple creatures.</p>"
  }
}
