{
  "_id": "kkavl1iwfjhuurl9",
  "name": "Free Spirit",
  "type": "spell",
  "img": "systems/pf1/icons/misc/magic-swirl.png",
  "system": {
    "actions": [
      {
        "_id": "5d19xaazaer3mkqz",
        "name": "Use",
        "img": "systems/pf1/icons/misc/magic-swirl.png",
        "activation": {
          "type": "standard"
        },
        "unchainedAction": {
          "activation": {
            "cost": 2,
            "type": "action"
          }
        },
        "duration": {
          "value": "1 minute/level"
        },
        "target": {
          "value": "you"
        },
        "range": {
          "units": "personal"
        },
        "actionType": ""
      }
    ],
    "learnedAt": {
      "class": {
        "cleric": 3,
        "oracle": 3,
        "druid": 3,
        "bard": 3,
        "witch": 3,
        "shaman": 3,
        "medium": 3,
        "spiritualist": 3,
        "hunter": 3
      }
    },
    "level": 3,
    "school": "abj",
    "components": {
      "verbal": true,
      "somatic": true
    },
    "sr": false,
    "shortDescription": "<p>This spell allows you to channel the essence of Cayden Cailean's philosophy, giving you the benefits of a <i>freedom of movement</i> spell and granting you a +4 bonus on saving throws against fear effects. The spell also makes you drunk. For the duration of the spell, you take a -2 penalty on attack rolls, ability checks, skill checks, and concentration checks. If you somehow remove or avoid these penalties, the spell's duration ends.</p>"
  }
}
