{
  "_id": "pq1nz7xxscjyl8ob",
  "name": "Ghoul Hunger",
  "type": "spell",
  "img": "systems/pf1/icons/misc/magic-swirl.png",
  "system": {
    "actions": [
      {
        "_id": "7yfb4xcn2l4wq2h9",
        "name": "Use",
        "img": "systems/pf1/icons/misc/magic-swirl.png",
        "activation": {
          "type": "standard"
        },
        "unchainedAction": {
          "activation": {
            "cost": 2,
            "type": "action"
          }
        },
        "duration": {
          "value": "1 round/level; see text"
        },
        "target": {
          "value": "one humanoid creature"
        },
        "range": {
          "units": "close"
        },
        "actionType": "spellsave",
        "save": {
          "type": "will",
          "description": "Will negates; see text"
        }
      }
    ],
    "learnedAt": {
      "class": {
        "sorcerer": 2,
        "wizard": 2,
        "cleric": 2,
        "oracle": 2,
        "witch": 2,
        "antipaladin": 2
      }
    },
    "level": 2,
    "school": "nec",
    "types": "evil, mind-affecting",
    "components": {
      "verbal": true,
      "somatic": true
    },
    "shortDescription": "<p>You awaken an unnatural hunger in the target, compelling it to fall upon a nearby helpless or dead humanoid creature and begin eating its flesh. The target defends itself normally but takes no other actions while eating. The target does not take extraordinary risks to satisfy this urge (it wouldn't jump over a pit or swim through lava to reach a suitable victim). If the target can't fulfill this urge on its next turn, the spell fails. Each round on its turn, the target can attempt a new saving throw to end the effect.</p>"
  }
}
