{
  "_id": "y4oyspjsp6cc7btp",
  "name": "Giant Form II",
  "type": "spell",
  "img": "systems/pf1/icons/misc/magic-swirl.png",
  "system": {
    "actions": [
      {
        "_id": "zytbg8khgyldmgrm",
        "name": "Use",
        "img": "systems/pf1/icons/misc/magic-swirl.png",
        "activation": {
          "type": "standard"
        },
        "unchainedAction": {
          "activation": {
            "cost": 2,
            "type": "action"
          }
        },
        "duration": {
          "value": "1 min./level"
        },
        "target": {
          "value": "you"
        },
        "range": {
          "units": "personal"
        },
        "actionType": ""
      }
    ],
    "learnedAt": {
      "class": {
        "sorcerer": 8,
        "wizard": 8
      },
      "bloodline": {
        "Efreeti": 8
      }
    },
    "level": 8,
    "school": "trs",
    "subschool": "polymorph",
    "components": {
      "verbal": true,
      "somatic": true,
      "material": true
    },
    "materials": {
      "value": "a piece of the creature whose form you plan to assume"
    },
    "sr": false,
    "shortDescription": "<p>This spell functions as <i>giant form I</i> except that it also allows you to assume the form of any Huge creature of the giant type. You gain the following abilities: a +8 size bonus to Strength, a -2 penalty to Dexterity, a +6 size bonus to Constitution, a +6 natural armor bonus, low-light vision, and a +10 foot enhancement bonus to your speed. If the form you assume has any of the following abilities, you gain the listed ability: swim 60 feet, darkvision 60 feet, rend (2d8 damage), regeneration 5, rock catching, and rock throwing (range 120 feet, 2d10 damage). If the creature has immunity or resistance to one element, you gain that immunity or resistance. If the creature has vulnerability to an element, you gain that vulnerability.</p>"
  }
}
