{
  "name": "Glimpse the Hidden",
  "type": "spell",
  "img": "systems/pf1/icons/skills/shadow_12.jpg",
  "system": {
    "actions": [
      {
        "_id": "ZtJYdvwTVpsk755P",
        "name": "Use",
        "img": "systems/pf1/icons/skills/shadow_12.jpg",
        "activation": {
          "type": "standard"
        },
        "unchainedAction": {
          "activation": {
            "cost": 2,
            "type": "action"
          }
        },
        "duration": {
          "value": "1 round/level (D)"
        },
        "target": {
          "value": "creature touched"
        },
        "range": {
          "units": "touch"
        },
        "actionType": "msak",
        "formulaicAttacks": {
          "label": ""
        },
        "save": {
          "type": "will",
          "description": "Will negates (harmless)"
        },
        "touch": true
      }
    ],
    "uses": {
      "autoDeductChargesCost": ""
    },
    "learnedAt": {
      "class": {
        "alchemist": 3,
        "arcanist": 3,
        "inquisitor": 3,
        "investigator": 3,
        "sorcerer": 3,
        "summoner": 3,
        "summoner (unchained)": 3,
        "wizard": 3
      }
    },
    "level": 3,
    "school": "div",
    "components": {
      "verbal": true,
      "somatic": true,
      "material": true
    },
    "materials": {
      "value": "a pinch of magnesium and platinum"
    },
    "spellbook": "",
    "shortDescription": "<p>This spell functions as @Compendium[pf1.spells.nokru6mxk9p3r513]{see invisibility}, except as noted here. This spell cannot be made permanent.</p>"
  },
  "_id": "iYQzGc5XdUPoXNqS"
}
