{
  "_id": "n1cer3qxz8dkqk73",
  "name": "Gravel Vortex",
  "type": "spell",
  "img": "systems/pf1/icons/misc/magic-swirl.png",
  "system": {
    "actions": [
      {
        "_id": "ii0u7ig9mftrkdag",
        "name": "Use",
        "img": "systems/pf1/icons/misc/magic-swirl.png",
        "activation": {
          "type": "standard"
        },
        "unchainedAction": {
          "activation": {
            "cost": 2,
            "type": "action"
          }
        },
        "duration": {
          "value": "1 round/level (D)"
        },
        "range": {
          "units": "long"
        },
        "actionType": "",
        "spellArea": "cylinder (20-ft. radius, 40 ft. high)"
      }
    ],
    "learnedAt": {
      "class": {
        "sorcerer": 4,
        "wizard": 4,
        "druid": 4,
        "hunter": 4
      }
    },
    "level": 4,
    "school": "con",
    "subschool": "creation",
    "types": "earth",
    "components": {
      "verbal": true,
      "somatic": true,
      "material": true
    },
    "materials": {
      "value": "handful of pebbles"
    },
    "shortDescription": "<p>You create a hail of tiny pieces of rock and dust that batter and scrape against all things in the area, dealing 5d6 points of bludgeoning damage. This damage is dealt only once, on the round the spell is cast. For the remaining duration of the spell, fine dust rains down in the area. Creatures other than stone giants inside this area take a -4 penalty on Perception skill checks, and the entire area is treated as difficult terrain. At the end of the spell's duration, the gravel and dust disappear, leaving no trace of their presence.</p>"
  }
}
