{
  "_id": "o8ds5jtvf0hf92dw",
  "name": "Guidance",
  "type": "spell",
  "img": "systems/pf1/icons/misc/magic-swirl.png",
  "system": {
    "actions": [
      {
        "_id": "dhqbeeasitjcmmyn",
        "name": "Use",
        "img": "systems/pf1/icons/misc/magic-swirl.png",
        "activation": {
          "type": "standard"
        },
        "unchainedAction": {
          "activation": {
            "cost": 2,
            "type": "action"
          }
        },
        "duration": {
          "value": "1 minute or until discharged"
        },
        "target": {
          "value": "creature touched"
        },
        "range": {
          "units": "touch"
        },
        "actionType": "spellsave",
        "save": {
          "type": "will",
          "description": "Will negates (harmless)"
        }
      }
    ],
    "uses": {
      "autoDeductChargesCost": "0"
    },
    "learnedAt": {
      "class": {
        "cleric": 0,
        "oracle": 0,
        "druid": 0,
        "summoner": 0,
        "witch": 0,
        "inquisitor": 0,
        "adept": 0,
        "shaman": 0,
        "medium": 0,
        "occultist": 0,
        "spiritualist": 0,
        "hunter": 0,
        "unchained Summoner": 0
      }
    },
    "level": 0,
    "school": "div",
    "components": {
      "verbal": true,
      "somatic": true
    },
    "shortDescription": "<p>This spell imbues the subject with a touch of divine guidance.</p><p>The creature gets a +1 competence bonus on a single attack roll, saving throw, or skill check. It must choose to use the bonus before making the roll to which it applies.</p>"
  }
}
