{
  "_id": "bsms9vykw483t0iz",
  "name": "Hairline Fractures",
  "type": "spell",
  "img": "systems/pf1/icons/misc/magic-swirl.png",
  "system": {
    "actions": [
      {
        "_id": "sd7bnivhzyoulgqt",
        "name": "Use",
        "img": "systems/pf1/icons/misc/magic-swirl.png",
        "activation": {
          "type": "standard"
        },
        "unchainedAction": {
          "activation": {
            "cost": 2,
            "type": "action"
          }
        },
        "duration": {
          "value": "1 round/level"
        },
        "target": {
          "value": "5-foot-square section of stone or a creature with the  earth subtype"
        },
        "range": {
          "units": "touch"
        },
        "actionType": "spellsave",
        "save": {
          "type": "fort",
          "description": "Fortitude negates (object)"
        }
      }
    ],
    "learnedAt": {
      "class": {
        "cleric": 1,
        "oracle": 1,
        "druid": 1,
        "witch": 1,
        "hunter": 1
      }
    },
    "school": "trs",
    "types": "earth",
    "components": {
      "verbal": true,
      "somatic": true,
      "material": true
    },
    "materials": {
      "value": "a broken twig"
    },
    "shortDescription": "<p>With a single touch, you create temporary hairline fractures in a piece of stone or a creature with the earth subtype. If you cast this spell on a section of stone, you reduce its hardness to 5 and its hit points to 10/inch of thickness. If you cast this spell on a creature with the earth subtype, that creature takes a -2 penalty to AC for the spell's duration. <i>Make whole</i> reverses this spell's effect.</p>"
  }
}
