{
  "_id": "jtqieggxovrfju34",
  "name": "Hanspur's Flotsam Vessel",
  "type": "spell",
  "img": "systems/pf1/icons/misc/magic-swirl.png",
  "system": {
    "actions": [
      {
        "_id": "vgwwaz6susouhmyo",
        "name": "Use",
        "img": "systems/pf1/icons/misc/magic-swirl.png",
        "activation": {
          "type": "minute"
        },
        "unchainedAction": {
          "activation": {
            "type": "minute"
          }
        },
        "duration": {
          "value": "1 hour/level (D)"
        },
        "range": {
          "units": "close"
        },
        "actionType": "other",
        "spellEffect": "raft large enough for caster and one passenger/2 levels"
      }
    ],
    "learnedAt": {
      "class": {
        "cleric": 2,
        "oracle": 2,
        "druid": 2,
        "ranger": 1,
        "summoner": 1,
        "hunter": 1,
        "unchained Summoner": 1
      }
    },
    "level": 2,
    "school": "con",
    "subschool": "creation",
    "components": {
      "verbal": true,
      "somatic": true,
      "material": true
    },
    "materials": {
      "value": "driftwood branch or river rat's tail"
    },
    "sr": false,
    "shortDescription": "<p>This spell assembles a sturdy raft and oars from driftwood, reeds, and other river detritus. The smallest raft created by the spell is roughly 5 feet square, increasing by an additional 5 feet square for every 2 caster levels you possess. Each 5-foot section of the raft can carry two Medium passengers or 300 pounds of cargo. The vessel functions as a normal raft, except it is not slowed or damaged by nonmagical river hazards such as rapids or shallows, and it is always considered to be traveling downstream for the purpose of calculating travel speed, regardless of its actual direction.</p>"
  }
}
