{
  "_id": "dvwyzofd0yifs1ac",
  "name": "Harm",
  "type": "spell",
  "img": "systems/pf1/icons/misc/magic-swirl.png",
  "system": {
    "actions": [
      {
        "_id": "ftpjo5ucu3gr4v4w",
        "name": "Use",
        "img": "systems/pf1/icons/misc/magic-swirl.png",
        "activation": {
          "type": "standard"
        },
        "unchainedAction": {
          "activation": {
            "cost": 2,
            "type": "action"
          }
        },
        "duration": {
          "value": "instantaneous"
        },
        "target": {
          "value": "creature touched"
        },
        "range": {
          "units": "touch"
        },
        "actionType": "spellsave",
        "save": {
          "type": "will",
          "description": "Will half; see text"
        }
      }
    ],
    "learnedAt": {
      "class": {
        "cleric": 6,
        "oracle": 6,
        "witch": 7,
        "inquisitor": 6,
        "shaman": 7,
        "occultist": 6,
        "spiritualist": 6
      },
      "domain": {
        "Destruction": 6
      },
      "subDomain": {
        "Decay": 6
      }
    },
    "level": 6,
    "school": "nec",
    "components": {
      "verbal": true,
      "somatic": true
    },
    "shortDescription": "<p><i>Harm</i> charges a subject with negative energy that deals 10 points of damage per caster level (to a maximum of 150 points at 15th level). If the creature successfully saves, <i>harm</i> deals half this amount. <i>Harm</i> cannot reduce the target's hit points to less than 1.</p><p>If used on an undead creature, <i>harm</i> acts like <i>heal</i>.</p>"
  }
}
