{
  "_id": "mlya2f32teqy6jpl",
  "name": "Haunted Fey Aspect",
  "type": "spell",
  "img": "systems/pf1/icons/misc/magic-swirl.png",
  "system": {
    "actions": [
      {
        "_id": "emj5b5qe6zi6rbg0",
        "name": "Use",
        "img": "systems/pf1/icons/misc/magic-swirl.png",
        "activation": {
          "type": "standard"
        },
        "unchainedAction": {
          "activation": {
            "cost": 2,
            "type": "action"
          }
        },
        "duration": {
          "value": "1 round/level (D)"
        },
        "target": {
          "value": "You"
        },
        "actionType": ""
      }
    ],
    "uses": {
      "autoDeductChargesCost": "0"
    },
    "learnedAt": {
      "class": {
        "sorcerer": 0,
        "wizard": 0,
        "bard": 0,
        "psychic": 0,
        "medium": 0,
        "mesmerist": 0
      }
    },
    "level": 0,
    "school": "ill",
    "subschool": "glamer",
    "components": {
      "somatic": true
    },
    "sr": false,
    "shortDescription": "<p>You surround yourself with disturbing illusions, making you look and sound like a bizarre, insane fey creature. You gain DR 1/cold iron against a single opponent until the end of the spell, or until you take damage.</p>"
  }
}
