{
  "_id": "yayqw7v1bpb370by",
  "name": "Healing Warmth",
  "type": "spell",
  "img": "systems/pf1/icons/misc/magic-swirl.png",
  "system": {
    "actions": [
      {
        "_id": "msdhktgl5nmvoorr",
        "name": "Use",
        "img": "systems/pf1/icons/misc/magic-swirl.png",
        "activation": {
          "type": "standard"
        },
        "unchainedAction": {
          "activation": {
            "cost": 2,
            "type": "action"
          }
        },
        "duration": {
          "value": "1 minute/level"
        },
        "target": {
          "value": "you"
        },
        "range": {
          "units": "personal"
        },
        "actionType": ""
      }
    ],
    "learnedAt": {
      "class": {
        "cleric": 4,
        "oracle": 4,
        "druid": 4,
        "alchemist": 4,
        "inquisitor": 4,
        "psychic": 4,
        "hunter": 4
      }
    },
    "level": 4,
    "school": "abj",
    "components": {
      "verbal": true,
      "somatic": true
    },
    "sr": false,
    "shortDescription": "<p>This spell grants you temporary immunity to fire damage as <i>protection from energy</i>. As a standard action, you may sacrifice 12 points of remaining energy absorption from the spell to heal a touched creature of 1d8 points of damage. Healing a creature provokes an attack of opportunity. When the spell has absorbed 12 points of fire damage per caster level (to a maximum of 120 points at 10th level), it is discharged.</p>"
  }
}
