{
  "_id": "17j3ttrl49u5k69b",
  "name": "Hobbling Bomb Admixture",
  "type": "spell",
  "img": "systems/pf1/icons/misc/magic-swirl.png",
  "system": {
    "actions": [
      {
        "_id": "5kl8xwdjogddtxsf",
        "name": "Use",
        "img": "systems/pf1/icons/misc/magic-swirl.png",
        "activation": {
          "type": "standard"
        },
        "unchainedAction": {
          "activation": {
            "cost": 2,
            "type": "action"
          }
        },
        "duration": {
          "value": "1 round/level"
        },
        "target": {
          "value": "you"
        },
        "range": {
          "units": "personal"
        },
        "actionType": ""
      }
    ],
    "learnedAt": {
      "class": {
        "alchemist": 4
      }
    },
    "level": 4,
    "school": "trs",
    "components": {
      "verbal": true,
      "somatic": true
    },
    "sr": false,
    "shortDescription": "<p>Upon drinking an extract created with this formula, you make a significant change to your magical reserve that modifies the nature of all bombs you create and throw during this extract's duration. This effect on your magical reserve has no effect on any discoveries that you use to modify your bombs, but you can have only one admixture effect (formula with the words \"bomb admixture\" in its title) active at  a time. If you drink another bomb admixture, the effects of the former bomb admixture end and the new one becomes active.  When you throw a bomb and hit a target directly, it affects up to three targets-the creature the bomb hit directly, and up to two other creatures that take damage from the splash damage (alchemist's choice). Each targeted creature must succeed at a Fortitude saving throw or have its speed reduced by 20 feet (minimum 0 feet).</p>"
  }
}
