{
  "_id": "j7l8cd9r8qog3jpl",
  "name": "Id Insinuation II",
  "type": "spell",
  "img": "systems/pf1/icons/misc/magic-swirl.png",
  "system": {
    "actions": [
      {
        "_id": "4pg45hd5nufy6s24",
        "name": "Use",
        "img": "systems/pf1/icons/misc/magic-swirl.png",
        "activation": {
          "type": "standard"
        },
        "unchainedAction": {
          "activation": {
            "cost": 2,
            "type": "action"
          }
        },
        "duration": {
          "value": "concentration + 1 round"
        },
        "target": {
          "value": "two creatures"
        },
        "range": {
          "units": "close"
        },
        "actionType": "spellsave",
        "save": {
          "type": "will",
          "description": "Will negates"
        }
      }
    ],
    "learnedAt": {
      "class": {
        "psychic": 3
      }
    },
    "level": 3,
    "school": "enc",
    "subschool": "compulsion",
    "types": "mind-affecting",
    "components": {
      "somatic": true
    },
    "shortDescription": "<p>This functions as <i>id insinuation I</i>, except as noted above. In addition, on the first round of the effect, the targets of this spell must roll twice to determine the result of their confused condition. You select which roll is used. This spell can be undercast.</p>"
  }
}
