{
  "_id": "11wik2btna8987g0",
  "name": "Illusory Poison",
  "type": "spell",
  "img": "systems/pf1/icons/misc/magic-swirl.png",
  "system": {
    "actions": [
      {
        "_id": "uneikbj2ektygu6a",
        "name": "Use",
        "img": "systems/pf1/icons/misc/magic-swirl.png",
        "activation": {
          "type": "standard"
        },
        "unchainedAction": {
          "activation": {
            "cost": 2,
            "type": "action"
          }
        },
        "duration": {
          "value": "1 minute/level or until discharged (see text)"
        },
        "target": {
          "value": "weapon touched"
        },
        "range": {
          "units": "touch"
        },
        "actionType": "spellsave",
        "save": {
          "type": "fort",
          "description": "Will disbelief, then Fortitude (see text)"
        }
      }
    ],
    "learnedAt": {
      "class": {
        "sorcerer": 3,
        "wizard": 3
      }
    },
    "level": 3,
    "school": "ill",
    "subschool": "phantasm",
    "types": "mind-affecting",
    "components": {
      "verbal": true,
      "somatic": true
    },
    "shortDescription": "<p>You create a phantasm of an oily green phantasmal poison on the target weapon. The first creature hit by the poisoned weapon must make a Will save against the illusion spell; success means the spell has no effect and is expended from the weapon. If the creature fails its save, it believes it has been poisoned and must make Fortitude saves at the spell's DC to avoid suffering illusory poison damage.</p><p><i>Delay poison</i> allows the target to ignore the effects of the phantasmal poison until the <i>delay poison</i> spell ends, at which time it may make a Will save to realize the poison is illusory and recover all illusory poison damage. <i>Neutralize poison</i>, <i>lesser restoration</i>, <i>or restoration</i> immediately recovers all damage from the spell. A successful <i>dispel magic</i> spell ends the effect of the illusion, as do spells that penetrate illusions (such as <i>true</i> seeing).</p><p>The target automatically recovers all illusory poison damage after 1 hour.</p>"
  }
}
