{
  "_id": "xooxcffqnx8rbgf7",
  "name": "Infuse Self",
  "type": "spell",
  "img": "systems/pf1/icons/misc/magic-swirl.png",
  "system": {
    "actions": [
      {
        "_id": "2prb22p4qe2ztp5u",
        "name": "Use",
        "img": "systems/pf1/icons/misc/magic-swirl.png",
        "activation": {
          "type": "standard"
        },
        "unchainedAction": {
          "activation": {
            "cost": 2,
            "type": "action"
          }
        },
        "duration": {
          "value": "10 minutes/level (D)"
        },
        "target": {
          "value": "you"
        },
        "range": {
          "units": "personal"
        },
        "actionType": ""
      }
    ],
    "learnedAt": {
      "class": {
        "sorcerer": 3,
        "wizard": 3,
        "bard": 3,
        "alchemist": 3,
        "magus": 3,
        "bloodrager": 3
      }
    },
    "level": 3,
    "school": "trs",
    "subschool": "polymorph",
    "components": {
      "verbal": true,
      "somatic": true,
      "material": true
    },
    "materials": {
      "value": "a piece of the creature whose form you plan to assume"
    },
    "sr": false,
    "shortDescription": "<p>When you cast this spell, you assume the form of a native outsider from the following list: aasimar, aphorite (see page 224), duskwalker (see page 230), fetchlingB2, ganzi (see page 234), ifritB2, oreadB2, shabtiB5, suliB3, sylphB2, tiefling, or undineB2. You gain a +2 size bonus to one physical ability score of your choice. If the race has resistance to one or more energy types, you gain energy resistance 5 to your choice of one of those types. If the race gains a racial bonus on saving throws or skills, you gain those bonuses. If the race has darkvision or low-light vision, you gain those qualities.</p>"
  }
}
