{
  "_id": "bnfgghdvdvlea6wr",
  "name": "Inheritor's Smite",
  "type": "spell",
  "img": "systems/pf1/icons/misc/magic-swirl.png",
  "system": {
    "actions": [
      {
        "_id": "c593e3e6yh3njwku",
        "name": "Use",
        "img": "systems/pf1/icons/misc/magic-swirl.png",
        "activation": {
          "type": "swift"
        },
        "unchainedAction": {
          "activation": {
            "type": "action"
          }
        },
        "duration": {
          "value": "see text"
        },
        "target": {
          "value": "you"
        },
        "range": {
          "units": "personal"
        },
        "actionType": ""
      }
    ],
    "learnedAt": {
      "class": {
        "cleric": 2,
        "oracle": 2,
        "paladin": 2,
        "inquisitor": 2
      }
    },
    "level": 2,
    "school": "trs",
    "components": {
      "verbal": true,
      "somatic": true,
      "divineFocus": 1
    },
    "sr": false,
    "shortDescription": "<p>You channel the power of righteousness into your weapon arm, allowing you to strike with great force. Your next melee attack (if made before the end of your next turn) gains a +5 sacred bonus on the attack roll. If the attack hits, you may immediately attempt a bull rush combat maneuver (with a +5 sacred bonus on your combat maneuver check) against the target without provoking an attack of opportunity; if your combat maneuver check exceeds the defender's CMD by more than 5, you do not need to move with the target to push it back more than 5 feet.</p>"
  }
}
