{
  "_id": "jdp0mts5razk0qms",
  "name": "Insect Plague",
  "type": "spell",
  "img": "systems/pf1/icons/misc/magic-swirl.png",
  "system": {
    "actions": [
      {
        "_id": "ek8koh3v5tlt3lc2",
        "name": "Use",
        "img": "systems/pf1/icons/misc/magic-swirl.png",
        "activation": {
          "type": "round"
        },
        "unchainedAction": {
          "activation": {
            "cost": 3,
            "type": "action"
          }
        },
        "duration": {
          "value": "1 min./level"
        },
        "range": {
          "units": "long"
        },
        "actionType": "other",
        "spellEffect": "one swarm of wasps per three levels, each of which must be adjacent to at least one other swarm"
      }
    ],
    "learnedAt": {
      "class": {
        "cleric": 5,
        "oracle": 5,
        "druid": 5,
        "summoner": 4,
        "shaman": 5,
        "hunter": 5,
        "unchained Summoner": 5
      },
      "domain": {
        "Vermin": 4
      },
      "bloodline": {
        "Pestilence": 5,
        "Div": 7
      }
    },
    "level": 5,
    "school": "con",
    "subschool": "summoning",
    "components": {
      "verbal": true,
      "somatic": true,
      "divineFocus": 1
    },
    "sr": false,
    "shortDescription": "<p>You summon a number of swarms of wasps (one per three levels, to a maximum of six swarms at 18th level, see the <i>Pathfinder RPG Bestiary</i>). The swarms must be summoned so that each one is adjacent to at least one other swarm (that is, the swarms must fill one contiguous area). You may summon the wasp swarms so that they share the area of other creatures. Each swarm attacks any creatures occupying its area. The swarms are stationary after being summoned, and won't pursue creatures that flee.</p>"
  }
}
