{
  "_id": "8x0y3dyxmvdku35p",
  "name": "Intellect Fortress II",
  "type": "spell",
  "img": "systems/pf1/icons/misc/magic-swirl.png",
  "system": {
    "actions": [
      {
        "_id": "bqql17k7tgror23w",
        "name": "Use",
        "img": "systems/pf1/icons/misc/magic-swirl.png",
        "activation": {
          "type": "immediate"
        },
        "unchainedAction": {
          "activation": {
            "type": "reaction"
          }
        },
        "duration": {
          "value": "1 round"
        },
        "range": {
          "value": "20",
          "units": "ft"
        },
        "actionType": "",
        "spellArea": "20-ft.-radius emanation centered on you"
      }
    ],
    "learnedAt": {
      "class": {
        "psychic": 5
      }
    },
    "level": 5,
    "school": "abj",
    "components": {
      "verbal": true
    },
    "shortDescription": "<p>This spell functions as <i>intellect fortress I</i>, but in addition, any mind-affecting effects that deal damage have their damage reduced by half (before any reduction due to a successful save or other effect). This applies to both hit point damage and ability score damage. This spell can be undercast.</p>"
  }
}
