{
  "_id": "kd3ju8a3qy84bjau",
  "name": "Investigative Mind",
  "type": "spell",
  "img": "systems/pf1/icons/misc/magic-swirl.png",
  "system": {
    "actions": [
      {
        "_id": "m75ny12bvdk95b49",
        "name": "Use",
        "img": "systems/pf1/icons/misc/magic-swirl.png",
        "activation": {
          "type": "standard"
        },
        "unchainedAction": {
          "activation": {
            "cost": 2,
            "type": "action"
          }
        },
        "duration": {
          "value": "10 minutes/level or until discharged"
        },
        "target": {
          "value": "you"
        },
        "range": {
          "units": "personal"
        },
        "actionType": ""
      }
    ],
    "learnedAt": {
      "class": {
        "sorcerer": 2,
        "wizard": 2,
        "bard": 2,
        "alchemist": 2,
        "witch": 2,
        "psychic": 2,
        "medium": 2,
        "mesmerist": 2,
        "occultist": 2
      }
    },
    "level": 2,
    "school": "enc",
    "subschool": "compulsion",
    "types": "mind-affecting",
    "components": {
      "verbal": true,
      "somatic": true
    },
    "sr": false,
    "shortDescription": "<p>Your mind is able to correlate information effectively. When attempting an Appraise, Knowledge, Linguistics, or Spellcraft check, you can roll twice and take the higher result. If you have an ability that allows you to roll twice, you cannot use that ability and this benefit on the same roll.</p><p>The spell is discharged once you have used its benefit a number of times equal to your caster level.</p>"
  }
}
