{
  "_id": "xsecnbuvc3rbrefu",
  "name": "Invisibility Purge",
  "type": "spell",
  "img": "systems/pf1/icons/misc/magic-swirl.png",
  "system": {
    "actions": [
      {
        "_id": "fzyposxkyv7af0t1",
        "name": "Use",
        "img": "systems/pf1/icons/misc/magic-swirl.png",
        "activation": {
          "type": "standard"
        },
        "unchainedAction": {
          "activation": {
            "cost": 2,
            "type": "action"
          }
        },
        "duration": {
          "value": "1 min./level"
        },
        "target": {
          "value": "you"
        },
        "range": {
          "units": "personal"
        },
        "actionType": ""
      }
    ],
    "learnedAt": {
      "class": {
        "cleric": 3,
        "oracle": 3,
        "inquisitor": 3,
        "occultist": 3,
        "spiritualist": 3
      }
    },
    "level": 3,
    "school": "evo",
    "components": {
      "verbal": true,
      "somatic": true
    },
    "sr": false,
    "shortDescription": "<p>You surround yourself with a sphere of power with a radius of 5 feet per caster level that negates all forms of invisibility.</p><p>Anything invisible becomes visible while in the area.</p>"
  }
}
