{
  "_id": "gavdmur6ozd5cbig",
  "name": "Itching Curse",
  "type": "spell",
  "img": "systems/pf1/icons/misc/magic-swirl.png",
  "system": {
    "actions": [
      {
        "_id": "uwg805guut4t94eg",
        "name": "Use",
        "img": "systems/pf1/icons/misc/magic-swirl.png",
        "activation": {
          "type": "standard"
        },
        "unchainedAction": {
          "activation": {
            "cost": 2,
            "type": "action"
          }
        },
        "duration": {
          "value": "1 hour/level (D)"
        },
        "target": {
          "value": "one living creature with 5 HD or fewer"
        },
        "range": {
          "units": "close"
        },
        "actionType": "spellsave",
        "save": {
          "type": "will",
          "description": "Will negates"
        }
      }
    ],
    "learnedAt": {
      "class": {
        "sorcerer": 1,
        "wizard": 1,
        "druid": 1,
        "bard": 1,
        "witch": 1,
        "inquisitor": 1,
        "antipaladin": 1,
        "shaman": 1,
        "occultist": 1,
        "hunter": 1
      }
    },
    "school": "nec",
    "types": "curse",
    "components": {
      "verbal": true,
      "somatic": true
    },
    "shortDescription": "<p>You curse the target with a distracting, unbearable itch. Unless the target scratches as a move action, it takes a -1 penalty on attack rolls, saving throws, skill checks, and ability checks.</p>"
  }
}
