{
  "name": "Knell of the Depths",
  "type": "spell",
  "img": "icons/magic/water/waves-water-blue.webp",
  "system": {
    "actions": [
      {
        "_id": "RJIjR59ZSCWXvznu",
        "name": "Use",
        "img": "icons/magic/water/waves-water-blue.webp",
        "activation": {
          "type": "round"
        },
        "unchainedAction": {
          "activation": {
            "cost": 3,
            "type": "action"
          }
        },
        "duration": {
          "value": "permanent"
        },
        "range": {
          "units": "touch"
        },
        "actionType": "spellsave",
        "save": {
          "type": "will",
          "description": "Will negates"
        },
        "touch": true
      }
    ],
    "uses": {
      "autoDeductChargesCost": ""
    },
    "learnedAt": {
      "class": {
        "arcanist": 3,
        "druid": 3,
        "hunter": 3,
        "magus": 2,
        "shaman": 3,
        "sorcerer": 3,
        "summoner": 3,
        "witch": 2,
        "wizard": 3
      }
    },
    "level": 3,
    "school": "con",
    "types": "curse, water",
    "components": {
      "verbal": true,
      "somatic": true
    },
    "spellbook": "",
    "shortDescription": "<p>You invest a target with cursed elemental energy, causing nearby bodies of water to roil when the target draw nears and tendrils of water to drag it deeper under the waves. The target takes a –10 penalty on @UUID[Compendium.pf1.pf1e-rules.x175kVqUfLGPt8tC.JournalEntryPage.xhmDhOXuBbfVcD0Q]{Swim} checks and automatically sinks 15 feet per round when in any body of liquid. The creature does not sink if standing upon a solid surface capable of supporting its weight, even if it is submerged.</p>"
  },
  "_id": "wcKbbzudKI2A2cUc"
}
