{
  "name": "Leshy Swarm",
  "type": "spell",
  "img": "icons/creatures/magical/humanoid-silhouette-aliens-green.webp",
  "system": {
    "actions": [
      {
        "_id": "zdnrPY3r3BuYGSiN",
        "name": "Use",
        "img": "icons/creatures/magical/humanoid-silhouette-aliens-green.webp",
        "activation": {
          "type": "round"
        },
        "unchainedAction": {
          "activation": {
            "cost": 3,
            "type": "action"
          }
        },
        "duration": {
          "value": "1 round/level"
        },
        "range": {
          "units": "close"
        },
        "measureTemplate": {
          "type": "rect",
          "size": "10"
        },
        "actionType": "other",
        "spellEffect": "10-ft.-square swarm of leshys"
      }
    ],
    "uses": {
      "autoDeductChargesCost": ""
    },
    "learnedAt": {
      "class": {
        "arcanist": 3,
        "bard": 3,
        "druid": 3,
        "hunter": 3,
        "skald": 3,
        "sorcerer": 3,
        "summoner": 3,
        "wizard": 3
      }
    },
    "level": 3,
    "school": "con",
    "subschool": "summoning",
    "components": {
      "verbal": true,
      "somatic": true,
      "material": true,
      "divineFocus": 2
    },
    "materials": {
      "value": "a bundle of seeds"
    },
    "spellbook": "",
    "sr": false,
    "shortDescription": "<p>You call out to nearby nature spirits and grant them temporary plant bodies. These creatures are similar to leshys, except they are Tiny and far more simpleminded. The swarm uses the statistics for a rat swarm, except it does not carry a disease or have scent. The leshy swarm has darkvision with a range of 60 feet and is immune to electricity, mind-affecting effects, paralysis, poison, polymorph, sleep effects, sonic, and stunning.</p><p>You can direct the leshy swarm to move up to its speed along a path for your choice by spending a standard action to communicate your desires through the spell, or by spending a move action if you can speak to creatures that understand only Druidic and Sylvan. The leshys are confused by their sudden possession of new bodies and assume that nearly any creature you direct them toward is a threat. They attack all creatures within their area except for you and other creatures with the plant type.</p>"
  },
  "_id": "dCg1ecr5Ofguqq5x"
}
