{
  "_id": "s2p7a4biy7bl4ks2",
  "name": "Limited Wish",
  "type": "spell",
  "img": "systems/pf1/icons/misc/magic-swirl.png",
  "system": {
    "actions": [
      {
        "_id": "zj39v2qcxy3828vj",
        "name": "Use",
        "img": "systems/pf1/icons/misc/magic-swirl.png",
        "activation": {
          "type": "standard"
        },
        "unchainedAction": {
          "activation": {
            "cost": 2,
            "type": "action"
          }
        },
        "duration": {
          "value": "see text"
        },
        "target": {
          "value": "see text"
        },
        "actionType": "spellsave",
        "save": {
          "description": "none, see text"
        },
        "spellEffect": "see text",
        "spellArea": "see text"
      }
    ],
    "learnedAt": {
      "class": {
        "sorcerer": 7,
        "wizard": 7,
        "psychic": 7
      },
      "subDomain": {
        "Construct": 7
      }
    },
    "level": 7,
    "school": "uni",
    "components": {
      "verbal": true,
      "somatic": true,
      "material": true
    },
    "materials": {
      "value": "diamond worth 1,500 gp",
      "gpValue": 1500
    },
    "spellbook": "",
    "preparation": {
      "spontaneousPrepared": false
    },
    "shortDescription": "<p>A <i>limited wish</i> lets you create nearly any type of effect. For example, a <i>limited wish</i> can do any of the following things.</p><p><ul><li> Duplicate any sorcerer/wizard spell of 6th level or lower, provided the spell does not belong to one of your opposition schools.</p><p><li> Duplicate any non-sorcerer/wizard spell of 5th level or lower, provided the spell does not belong to one of your opposition schools.</p><p><li> Duplicate any sorcerer/wizard spell of 5th level or lower, even if it belongs to one of your opposition schools.</p><p><li> Duplicate any non-sorcerer/wizard spell of 4th level or lower, even if it belongs to one of your opposition schools.</p><p><li> Undo the harmful effects of many spells, such as <i>geas/quest</i> or <i>insanity</i>.</p><p><li> Produce any other effect whose power level is in line with the above effects, such as a single creature automatically hitting on its next attack or taking a -7 penalty on its next saving throw.</p><p>A duplicated spell allows saving throws and spell resistance as normal, but the save DC is for a 7th-level spell. When a <i>limited wish</i> spell duplicates a spell with a material component that costs more than 1,000 gp, you must provide that component (in addition to the 1,500 gp diamond component for this spell).</ul></p>"
  }
}
