{
  "_id": "8u47mrsvdw4ssinw",
  "name": "Lost Locale",
  "type": "spell",
  "img": "systems/pf1/icons/misc/magic-swirl.png",
  "system": {
    "actions": [
      {
        "_id": "7ycsb14i2t2sgp8g",
        "name": "Use",
        "img": "systems/pf1/icons/misc/magic-swirl.png",
        "activation": {
          "cost": 24,
          "type": "hour"
        },
        "unchainedAction": {
          "activation": {
            "cost": 24,
            "type": "hour"
          }
        },
        "duration": {
          "value": "2 hours/level (D)"
        },
        "range": {
          "value": "1",
          "units": "mi"
        },
        "actionType": "spellsave",
        "save": {
          "type": "will",
          "description": "Will partial"
        },
        "spellArea": "one 1-mile cube/level"
      }
    ],
    "learnedAt": {
      "class": {
        "sorcerer": 9,
        "wizard": 9,
        "psychic": 9
      }
    },
    "level": 9,
    "school": "enc",
    "subschool": "compulsion",
    "types": "mind-affecting",
    "components": {
      "verbal": true,
      "somatic": true
    },
    "shortDescription": "<p>This spell functions as <i>lost passage</i> (see below), except that it affects a larger area. <i>Lost locale</i> can be made permanent with <i>permanency</i> at a cost of 90,000 gp.</p>"
  }
}
