{
  "_id": "has7d0289ajnkuoe",
  "name": "Lover's Vengeance",
  "type": "spell",
  "img": "systems/pf1/icons/misc/magic-swirl.png",
  "system": {
    "actions": [
      {
        "_id": "yw9w7ge7mfohmc2e",
        "name": "Use",
        "img": "systems/pf1/icons/misc/magic-swirl.png",
        "activation": {
          "type": "minute"
        },
        "unchainedAction": {
          "activation": {
            "type": "minute"
          }
        },
        "duration": {
          "value": "up to 1 day/level (D) or until discharged"
        },
        "target": {
          "value": "creature touched"
        },
        "range": {
          "units": "touch"
        },
        "actionType": "spellsave",
        "save": {
          "type": "will",
          "description": "Will negates (harmless)"
        }
      }
    ],
    "learnedAt": {
      "class": {
        "sorcerer": 3,
        "wizard": 3,
        "cleric": 3,
        "oracle": 3,
        "bard": 3,
        "witch": 3
      }
    },
    "level": 3,
    "school": "enc",
    "subschool": "compulsion",
    "types": "mind-affecting",
    "components": {
      "verbal": true,
      "material": true
    },
    "materials": {
      "value": "a piece of jewelry worth at least 100 gp",
      "gpValue": 100
    },
    "spellbook": "",
    "preparation": {
      "spontaneousPrepared": false
    },
    "sr": false,
    "shortDescription": "<p>You inspire yourself or a lover to a vengeful <i>rage</i> against a chosen enemy, who must be a creature that has wronged you in some way. If cast on you, the next time you are in combat with that enemy, you gain the benefits of a <i>rage</i> spell. If cast on a lover, he or she gains the benefits of a <i>rage</i> spell the next time the lover is in combat against your enemy. This variant of the spell must be cast within 1 hour of an intimate encounter with the target. The <i>rage</i> effect lasts 1 round per level. If the creature that triggers the <i>rage</i> effect is one of your lovers or ex-lovers, the benefits granted by the <i>rage</i> spell double. This spell counts as a <i>contingency</i> spell on the target for the purpose of multiple contingent effects. Worshipers of Calistria are fond of using this spell, and many keep the effect running whenever possible.</p>"
  }
}
