{
  "_id": "cfzk3vkv1c7ncaug",
  "name": "Magic Fang",
  "type": "spell",
  "img": "systems/pf1/icons/misc/magic-swirl.png",
  "system": {
    "actions": [
      {
        "_id": "kkny581hkqojkhyx",
        "name": "Use",
        "img": "systems/pf1/icons/misc/magic-swirl.png",
        "activation": {
          "type": "standard"
        },
        "unchainedAction": {
          "activation": {
            "cost": 2,
            "type": "action"
          }
        },
        "duration": {
          "value": "1 min./level"
        },
        "target": {
          "value": "living creature touched"
        },
        "range": {
          "units": "touch"
        },
        "actionType": "spellsave",
        "save": {
          "type": "will",
          "description": "Will negates (harmless)"
        }
      }
    ],
    "learnedAt": {
      "class": {
        "druid": 1,
        "ranger": 1,
        "summoner": 1,
        "spiritualist": 1,
        "hunter": 1,
        "unchained Summoner": 1
      },
      "domain": {
        "Scalykind": 1
      },
      "subDomain": {
        "Fur": 1,
        "Cannibalism": 1
      }
    },
    "school": "trs",
    "components": {
      "verbal": true,
      "somatic": true,
      "divineFocus": 1
    },
    "shortDescription": "<p><i>Magic fang</i> gives one natural weapon or unarmed strike of the subject a +1 enhancement bonus on attack and damage rolls. The spell can affect a slam attack, fist, bite, or other natural weapon.</p><p>The spell does not change an unarmed strike's damage from nonlethal damage to lethal damage.</p><p><i>Magic fang</i> can be made permanent with a <i>permanency</i> spell.</p>"
  }
}
