{
  "_id": "qy6sn5a4wrsa36yb",
  "name": "Majestic Image",
  "type": "spell",
  "img": "systems/pf1/icons/misc/magic-swirl.png",
  "system": {
    "actions": [
      {
        "_id": "8zru37ien0pjf8jx",
        "name": "Use",
        "img": "systems/pf1/icons/misc/magic-swirl.png",
        "activation": {
          "type": "standard"
        },
        "unchainedAction": {
          "activation": {
            "cost": 2,
            "type": "action"
          }
        },
        "duration": {
          "value": "concentration"
        },
        "range": {
          "value": "200",
          "units": "ft"
        },
        "actionType": "spellsave",
        "save": {
          "type": "will",
          "description": "Will negates (see text)"
        },
        "spellEffect": "transfer consciousness to an object bearing your likeness"
      }
    ],
    "learnedAt": {
      "class": {
        "sorcerer": 4,
        "wizard": 4,
        "cleric": 4,
        "oracle": 4,
        "bard": 4,
        "medium": 4,
        "mesmerist": 4,
        "occultist": 4,
        "spiritualist": 4
      }
    },
    "level": 4,
    "school": "trs",
    "components": {
      "verbal": true,
      "somatic": true,
      "material": true
    },
    "materials": {
      "value": "a drop of paint and a ball of clay"
    },
    "shortDescription": "<p>You cast your consciousness into a single object within range that bears your likeness, as if choosing a specific image with the spell <i>enter</i> imageAPG. In addition to observing your surroundings, speaking, and manipulating the image you inhabit, however, you can converse with nearby creatures and use your normal social skills.  You gain a +5 bonus on Bluff checks to tell lies and Diplomacy checks to make a request. You gain a +2 bonus on Intimidate checks and use the object's size to determine whether you gain a bonus or penalty on Intimidate checks for size.</p>"
  }
}
