{
  "_id": "msaqovkgfxi6q8s8",
  "name": "Message",
  "type": "spell",
  "img": "systems/pf1/icons/misc/magic-swirl.png",
  "system": {
    "actions": [
      {
        "_id": "qrfjoj5amgspmwjp",
        "name": "Use",
        "img": "systems/pf1/icons/misc/magic-swirl.png",
        "activation": {
          "type": "standard"
        },
        "unchainedAction": {
          "activation": {
            "cost": 2,
            "type": "action"
          }
        },
        "duration": {
          "value": "10 min./level"
        },
        "target": {
          "value": "one creature/level"
        },
        "range": {
          "units": "medium"
        },
        "actionType": ""
      }
    ],
    "uses": {
      "autoDeductChargesCost": "0"
    },
    "learnedAt": {
      "class": {
        "sorcerer": 0,
        "wizard": 0,
        "bard": 0,
        "summoner": 0,
        "witch": 0,
        "psychic": 0,
        "medium": 0,
        "mesmerist": 0,
        "occultist": 0,
        "spiritualist": 0,
        "unchained Summoner": 0
      }
    },
    "level": 0,
    "school": "trs",
    "types": "language-dependent",
    "components": {
      "verbal": true,
      "somatic": true,
      "focus": true
    },
    "materials": {
      "focus": "a piece of copper wire"
    },
    "sr": false,
    "shortDescription": "<p>You can whisper messages and receive whispered replies.</p><p>Those nearby can hear these messages with a DC 25 Perception check. You point your finger at each creature you want to receive the message. When you whisper, the whispered message is audible to all targeted creatures within range.</p><p>Magical <i>silence,</i> 1 foot of stone, 1 inch of common metal (or a thin sheet of lead), or 3 feet of wood or dirt blocks the spell.</p><p>The message does not have to travel in a straight line. It can circumvent a barrier if there is an open path between you and the subject, and the path's entire length lies within the spell's range. The creatures that receive the message can whisper a reply that you hear. The spell transmits sound, not meaning; it doesn't transcend language barriers. To speak a message, you must mouth the words and whisper.</p>"
  }
}
