{
  "_id": "ozj5i12k17ieufpq",
  "name": "Monstrous Physique III",
  "type": "spell",
  "img": "systems/pf1/icons/misc/magic-swirl.png",
  "system": {
    "actions": [
      {
        "_id": "3e51m97ry0hea6m9",
        "name": "Use",
        "img": "systems/pf1/icons/misc/magic-swirl.png",
        "activation": {
          "type": "standard"
        },
        "unchainedAction": {
          "activation": {
            "cost": 2,
            "type": "action"
          }
        },
        "duration": {
          "value": "1 minute/level (D)"
        },
        "target": {
          "value": "you"
        },
        "range": {
          "units": "personal"
        },
        "actionType": ""
      }
    ],
    "learnedAt": {
      "class": {
        "sorcerer": 5,
        "wizard": 5,
        "alchemist": 5,
        "magus": 5
      }
    },
    "level": 5,
    "school": "trs",
    "subschool": "polymorph",
    "components": {
      "verbal": true,
      "somatic": true,
      "material": true
    },
    "materials": {
      "value": "a piece of the creature whose form you plan to assume"
    },
    "sr": false,
    "shortDescription": "<p>This spell functions as <i><i>monstrous physique</i> II</i>, except it also allows you to assume the form of a Diminutive or Huge creature of the monstrous humanoid type. If the form you assume has any of the following abilities, you gain the listed ability: burrow 30 feet, climb 90 feet, fly 90 feet (good maneuverability), swim 90 feet, all-around vision, blindsense 30 feet, darkvision 60 feet, low-light vision, scent, blood frenzy, cold vigor, constrict, ferocity, freeze, grab, horrific appearance, jet, leap attack, mimicry, natural cunning, overwhelming, poison, pounce, rake, sound mimicry, speak with sharks, trample, trip, and web. If the creature has the undersized weapons special quality, you gain that quality. <br><i>Diminutive monstrous humanoid</i>: If the form you take is that of a <i>Diminutive monstrous humanoid</i>, you gain a +6 size bonus to your Dexterity, a -4 penalty to your Strength, and a +1 natural armor bonus. <br><i>Huge monstrous humanoid</i>: If the form you take is that of a <i>Huge monstrous humanoid</i>, you gain a +6 size bonus to your Strength, a -4 penalty to your Dexterity, and a +6 natural armor bonus.</p>"
  }
}
