{
  "_id": "um0zanw53vf4m7sn",
  "name": "Oath of Justice",
  "type": "spell",
  "img": "systems/pf1/icons/misc/magic-swirl.png",
  "system": {
    "actions": [
      {
        "_id": "krizjjk377i3p9i5",
        "name": "Use",
        "img": "systems/pf1/icons/misc/magic-swirl.png",
        "activation": {
          "type": "standard"
        },
        "unchainedAction": {
          "activation": {
            "cost": 2,
            "type": "action"
          }
        },
        "duration": {
          "value": "permanent (see text)"
        },
        "target": {
          "value": "two creatures touched"
        },
        "range": {
          "units": "touch"
        },
        "actionType": ""
      }
    ],
    "uses": {
      "autoDeductChargesCost": ""
    },
    "learnedAt": {
      "class": {
        "cleric": 3,
        "oracle": 3,
        "paladin": 2
      }
    },
    "level": 3,
    "school": "nec",
    "components": {
      "verbal": true,
      "somatic": true,
      "divineFocus": 1
    },
    "spellbook": "",
    "sr": false,
    "shortDescription": "<p><em>Editor's Note:</em> In order to prepare this spell, the caster must spend an hour performing a ritual in which he beseeches <b>Kols</b>. Further details can be found in <em>Pathfinder Companion: Dwarves of Golarion.</em></p><p>This spell seals a solemn vow between two creatures. When this spell is cast, the targets must clasp hands and swear their oath in Kols's name. The spell functions like @Compendium[pf1.spells.3jaumkutti1ytulq]{mark of justice}, except as noted above and rather than being cursed, the oath-breaker gains a mark on the face indicating to all dwarves who see it that the target has broken a sacred oath, which gives the oath-breaker a -4 penalty to influence dwarves. The mark can be removed as described in the <em>mark of justice</em> spell, or the other target can forgive the oath-breaker, which causes the mark to vanish.</p>"
  }
}
