{
  "_id": "tuh5vc2bojaws3ig",
  "name": "Obscuring Mist",
  "type": "spell",
  "img": "systems/pf1/icons/misc/magic-swirl.png",
  "system": {
    "actions": [
      {
        "_id": "a4vcgmz2kjmyx0f1",
        "name": "Use",
        "img": "systems/pf1/icons/misc/magic-swirl.png",
        "activation": {
          "type": "standard"
        },
        "unchainedAction": {
          "activation": {
            "cost": 2,
            "type": "action"
          }
        },
        "duration": {
          "value": "1 min./level"
        },
        "range": {
          "value": "20",
          "units": "ft"
        },
        "actionType": "other",
        "spellEffect": "cloud spreads in 20-ft. radius from you, 20 ft. high"
      }
    ],
    "learnedAt": {
      "class": {
        "sorcerer": 1,
        "wizard": 1,
        "cleric": 1,
        "oracle": 1,
        "druid": 1,
        "witch": 1,
        "magus": 1,
        "adept": 1,
        "shaman": 1,
        "mesmerist": 1,
        "spiritualist": 1,
        "hunter": 1,
        "unchained Summoner": 1
      },
      "domain": {
        "Air": 1,
        "Darkness": 1,
        "Water": 1,
        "Weather": 1
      },
      "bloodline": {
        "Marid": 1,
        "Ectoplasm": 1
      }
    },
    "school": "con",
    "subschool": "creation",
    "components": {
      "verbal": true,
      "somatic": true
    },
    "sr": false,
    "shortDescription": "<p>A misty vapor arises around you. It is stationary. The vapor obscures all sight, including darkvision, beyond 5 feet. A creature 5 feet away has concealment (attacks have a 20% miss chance). Creatures farther away have total concealment (50% miss chance, and the attacker cannot use sight to locate the target).</p><p>A moderate wind (11+ mph), such as from a <i>gust of wind</i> spell, disperses the fog in 4 rounds. A strong wind (21+ mph) disperses the fog in 1 round. A <i>fireball, flame strike</i>, or similar spell burns away the fog in the explosive or fiery spell's area. A <i>Wall of Fire</i> burns away the fog in the area into which it deals damage.</p><p>This spell does not function underwater.</p>"
  }
}
