{
  "_id": "j3hcbhr9a0bv5prc",
  "name": "Overstimulate",
  "type": "spell",
  "img": "systems/pf1/icons/misc/magic-swirl.png",
  "system": {
    "actions": [
      {
        "_id": "itq42bgg9a6i0rou",
        "name": "Use",
        "img": "systems/pf1/icons/misc/magic-swirl.png",
        "activation": {
          "type": "standard"
        },
        "unchainedAction": {
          "activation": {
            "cost": 2,
            "type": "action"
          }
        },
        "duration": {
          "value": "1 round/level"
        },
        "target": {
          "value": "one creature"
        },
        "range": {
          "units": "close"
        },
        "actionType": "spellsave",
        "save": {
          "type": "fort",
          "description": "Fortitude negates (harmless)"
        }
      }
    ],
    "learnedAt": {
      "class": {
        "cleric": 2,
        "oracle": 2,
        "druid": 2,
        "ranger": 2,
        "bard": 2,
        "alchemist": 2,
        "summoner": 2,
        "witch": 2,
        "bloodrager": 2,
        "shaman": 2,
        "psychic": 2,
        "hunter": 2,
        "unchained Summoner": 2
      }
    },
    "level": 2,
    "school": "trs",
    "components": {
      "verbal": true,
      "somatic": true,
      "material": true,
      "divineFocus": 2
    },
    "materials": {
      "value": "smelling salts"
    },
    "shortDescription": "<p>You deprive a creature of the blissful oblivion of unconsciousness, either to keep it going despite grievous injuries or to prolong its suffering. For the duration of the spell, the target gains the ferocity ability (<i>Pathfinder RPG Bestiary</i> 300), allowing it to remain conscious and continue fighting even if its hit point total is below 0. The target is still staggered and loses 1 hit point each round, and the target still dies when its hit point total reaches a negative amount equal to its Constitution score.</p>"
  }
}
