{
  "_id": "5v3j49r4mdq9rbx6",
  "name": "Paragon Surge",
  "type": "spell",
  "img": "systems/pf1/icons/misc/magic-swirl.png",
  "system": {
    "actions": [
      {
        "_id": "c73ob3tmlje61pcu",
        "name": "Use",
        "img": "systems/pf1/icons/misc/magic-swirl.png",
        "activation": {
          "type": "standard"
        },
        "unchainedAction": {
          "activation": {
            "cost": 2,
            "type": "action"
          }
        },
        "duration": {
          "value": "1 minute/level"
        },
        "target": {
          "value": "you"
        },
        "range": {
          "units": "personal"
        },
        "actionType": ""
      }
    ],
    "learnedAt": {
      "class": {
        "sorcerer": 3,
        "wizard": 3,
        "cleric": 3,
        "oracle": 3,
        "paladin": 4,
        "alchemist": 3,
        "witch": 3,
        "magus": 4,
        "medium": 3
      }
    },
    "level": 3,
    "school": "trs",
    "subschool": "polymorph",
    "components": {
      "verbal": true,
      "somatic": true
    },
    "sr": false,
    "shortDescription": "<p>You surge with ancestral power, temporarily embodying all the strengths of both elvenkind and humankind simultaneously, and transforming into a paragon of both races, something greater than elf or human alone. Unlike with most polymorph  effects, your basic form does not change, so you keep all extraordinary and supernatural abilities of your half-elven form as well as all of your gear.  For the duration of the spell, you receive a +2 enhancement bonus to Dexterity and Intelligence and are treated as if you possessed any one feat for which you meet the prerequisites, chosen when you cast this spell. The first time each day that you cast this spell, you must select a feat and make all the associated choices that come with it. Once that choice is made, it is set for the day and additional castings must make the exact same decisions.</p>"
  }
}
