{
  "_id": "mcr56gpsuvugsozi",
  "name": "Plague Bearer",
  "type": "spell",
  "img": "systems/pf1/icons/misc/magic-swirl.png",
  "system": {
    "actions": [
      {
        "_id": "z3dmuixlqyjgtrpg",
        "name": "Use",
        "img": "systems/pf1/icons/misc/magic-swirl.png",
        "activation": {
          "type": "standard"
        },
        "unchainedAction": {
          "activation": {
            "cost": 2,
            "type": "action"
          }
        },
        "duration": {
          "value": "1 round/level; see text"
        },
        "target": {
          "value": "one living creature"
        },
        "range": {
          "units": "touch"
        },
        "actionType": "spellsave",
        "save": {
          "type": "fort",
          "description": "Fortitude negates; see text"
        }
      }
    ],
    "learnedAt": {
      "class": {
        "sorcerer": 7,
        "wizard": 7,
        "cleric": 6,
        "oracle": 6,
        "druid": 6,
        "alchemist": 6,
        "witch": 6,
        "inquisitor": 6,
        "antipaladin": 6,
        "hunter": 6
      }
    },
    "level": 7,
    "school": "nec",
    "types": "disease, evil",
    "components": {
      "verbal": true,
      "somatic": true
    },
    "shortDescription": "<p>You make the target an asymptomatic carrier for a host of virulent diseases. Creatures that end their turn adjacent to the target must succeed at a Fortitude save or be affected as if by the spell <i>contagion</i>. The target itself does not become diseased, and suffers no ill effects from this spell. Once <i>plague bearer</i> ends, the target is no longer contagious, though any creature it infected remains diseased.</p>"
  }
}
