{
  "_id": "ik4riccm7tozdwox",
  "name": "Plant Shape II",
  "type": "spell",
  "img": "systems/pf1/icons/misc/magic-swirl.png",
  "system": {
    "actions": [
      {
        "_id": "fdr5mfsr01u2wc7p",
        "name": "Use",
        "img": "systems/pf1/icons/misc/magic-swirl.png",
        "activation": {
          "type": "standard"
        },
        "unchainedAction": {
          "activation": {
            "cost": 2,
            "type": "action"
          }
        },
        "duration": {
          "value": "1 min./level"
        },
        "target": {
          "value": "you"
        },
        "range": {
          "units": "personal"
        },
        "actionType": ""
      }
    ],
    "learnedAt": {
      "class": {
        "sorcerer": 6,
        "wizard": 6,
        "alchemist": 6
      }
    },
    "level": 6,
    "school": "trs",
    "subschool": "polymorph",
    "components": {
      "verbal": true,
      "somatic": true,
      "material": true
    },
    "materials": {
      "value": "a piece of the creature whose form you plan to assume"
    },
    "sr": false,
    "shortDescription": "<p>This spell functions as <i>plant shape I</i> except that it also allows you to assume the form of a Large creature of the plant type. If the creature has immunity or resistance to any elements, you gain resistance 20 to those elements. If the creature has vulnerability to an element, you gain that vulnerability.</p><p><i>Large plant</i>: If the form you take is that of a <i>Large plant</i>, you gain a +4 size bonus to your Strength, a +2 size bonus to your Constitution, and a +4 natural armor bonus.</p>"
  }
}
