{
  "_id": "y7aqxf7alib6ld6t",
  "name": "Pox Pustules",
  "type": "spell",
  "img": "systems/pf1/icons/misc/magic-swirl.png",
  "system": {
    "actions": [
      {
        "_id": "cmbv9nwn6uexk11y",
        "name": "Use",
        "img": "systems/pf1/icons/misc/magic-swirl.png",
        "activation": {
          "type": "standard"
        },
        "unchainedAction": {
          "activation": {
            "cost": 2,
            "type": "action"
          }
        },
        "duration": {
          "value": "1 minute/level"
        },
        "target": {
          "value": "one creature"
        },
        "range": {
          "units": "close"
        },
        "actionType": "spellsave",
        "save": {
          "type": "fort",
          "description": "Fortitude negates"
        }
      }
    ],
    "learnedAt": {
      "class": {
        "druid": 2,
        "witch": 2,
        "hunter": 2
      }
    },
    "level": 2,
    "school": "nec",
    "components": {
      "verbal": true,
      "somatic": true,
      "material": true
    },
    "materials": {
      "value": "leaves from a toxic plant"
    },
    "shortDescription": "<p>You inflict a painful, itching rash on the target creature. The target is sickened and takes a -4 penalty to Dexterity (this penalty cannot lower Dexterity below 0). The target can spend a move action scratching furiously at the rash to remove the sickened condition (but not the Dexterity penalty) until the start of its next turn.</p>"
  }
}
