{
  "_id": "mb819hvwpk0zmw53",
  "name": "Prismatic Spray",
  "type": "spell",
  "img": "systems/pf1/icons/misc/magic-swirl.png",
  "system": {
    "actions": [
      {
        "_id": "aakapte64ensp049",
        "name": "Use",
        "img": "systems/pf1/icons/misc/magic-swirl.png",
        "activation": {
          "type": "standard"
        },
        "unchainedAction": {
          "activation": {
            "cost": 2,
            "type": "action"
          }
        },
        "duration": {
          "value": "instantaneous"
        },
        "range": {
          "value": "60",
          "units": "ft"
        },
        "measureTemplate": {
          "type": "cone",
          "size": "60"
        },
        "actionType": "spellsave",
        "save": {
          "description": "see text"
        },
        "spellArea": "cone-shaped burst"
      }
    ],
    "learnedAt": {
      "class": {
        "sorcerer": 7,
        "wizard": 7
      }
    },
    "level": 7,
    "school": "evo",
    "components": {
      "verbal": true,
      "somatic": true
    },
    "shortDescription": "<p>This spell causes seven shimmering, multicolored beams of light to spray from your hand. Each beam has a different power. Creatures in the area of the spell with 8 HD or less are automatically blinded for 2d4 rounds. Every creature in the area is randomly struck by one or more beams, which have additional effects.</p> <table border ='1'><tr><th>1d8</th><th>Color of Beam</th></tr><tr><td>1</td><td>Red 20 points fire damage (Reflex half )</td></tr><tr><td>2</td><td>Orange 40 points acid damage (Reflex half )</td></tr><tr><td>3</td><td>Yellow 80 points electricity damage (Reflex half)</td></tr><tr><td>4</td><td>Green Poison (Frequency 1/rd. for 6 rd.; Init. effect death; Sec. effect 1 Con/rd.; Cure 2 consecutive Fort saves)*</td></tr><tr><td>5</td><td>Blue Flesh to stone (Fortitude negates)</td></tr><tr><td>6</td><td>Indigo Insane, as insanity spell (Will negates)</td></tr><tr><td>7</td><td>Violet Sent to another plane (Will negates)</td></tr><tr><td>8</td><td>Struck by Roll twice more, ignoring any \"8\" two rays results</td></tr><tr><td>* See poisons on page 557.</td></tr></table>"
  }
}
