{
  "_id": "yarcdn0xxlarbii5",
  "name": "Protection from Chaos, Communal",
  "type": "spell",
  "img": "systems/pf1/icons/misc/magic-swirl.png",
  "system": {
    "actions": [
      {
        "_id": "mnn8l0q4uwowidvv",
        "name": "Use",
        "img": "systems/pf1/icons/misc/magic-swirl.png",
        "activation": {
          "type": "standard"
        },
        "unchainedAction": {
          "activation": {
            "cost": 2,
            "type": "action"
          }
        },
        "duration": {
          "value": "1 min./level (D)"
        },
        "target": {
          "value": "creatures touched"
        },
        "range": {
          "units": "touch"
        },
        "actionType": "spellsave",
        "save": {
          "type": "will",
          "description": "Will negates (harmless)"
        }
      }
    ],
    "learnedAt": {
      "class": {
        "sorcerer": 2,
        "wizard": 2,
        "cleric": 2,
        "oracle": 2,
        "paladin": 2,
        "summoner": 2,
        "inquisitor": 2,
        "unchained Summoner": 2
      }
    },
    "level": 2,
    "school": "abj",
    "types": "lawful",
    "components": {
      "verbal": true,
      "somatic": true
    },
    "sr": false,
    "shortDescription": "<p>This spell functions like <i>Protection from Chaos</i>, except you divide the duration in 1-minute intervals among the creatures touched.</p>"
  }
}
