{
  "_id": "py959sph0x3jw93n",
  "name": "Psychic Crush III",
  "type": "spell",
  "img": "systems/pf1/icons/misc/magic-swirl.png",
  "system": {
    "actions": [
      {
        "_id": "gud7m94rry09az1b",
        "name": "Use",
        "img": "systems/pf1/icons/misc/magic-swirl.png",
        "activation": {
          "type": "standard"
        },
        "unchainedAction": {
          "activation": {
            "cost": 2,
            "type": "action"
          }
        },
        "duration": {
          "value": "instantaneous"
        },
        "target": {
          "value": "one creature"
        },
        "range": {
          "units": "close"
        },
        "actionType": "spellsave",
        "save": {
          "type": "fort",
          "description": "Will partial and Fortitude partial; see text"
        }
      }
    ],
    "learnedAt": {
      "class": {
        "psychic": 7
      }
    },
    "level": 7,
    "school": "nec",
    "types": "mind-affecting",
    "components": {
      "somatic": true
    },
    "shortDescription": "<p>This functions as <i>psychic crush I</i>, but the target takes 7d6 points of damage + 1 point of damage per caster level on a successful Fortitude save and 1 point of damage per caster level on a successful Will save. The target receives a +2 circumstance bonus on the Fortitude save if it is at full hit points, and no bonus if it has taken any damage. This spell can be undercast.</p>"
  }
}
