{
  "_id": "qz76vjrul6bbvqk6",
  "name": "Purging Finale",
  "type": "spell",
  "img": "systems/pf1/icons/misc/magic-swirl.png",
  "system": {
    "actions": [
      {
        "_id": "o14src31eggp3ev9",
        "name": "Use",
        "img": "systems/pf1/icons/misc/magic-swirl.png",
        "activation": {
          "type": "standard"
        },
        "unchainedAction": {
          "activation": {
            "cost": 2,
            "type": "action"
          }
        },
        "duration": {
          "value": "instantaneous"
        },
        "target": {
          "value": "one living creature"
        },
        "range": {
          "units": "close"
        },
        "actionType": "heal",
        "save": {
          "type": "will",
          "description": "Will negates (harmless)"
        }
      }
    ],
    "learnedAt": {
      "class": {
        "bard": 3
      }
    },
    "level": 3,
    "school": "con",
    "subschool": "healing",
    "components": {
      "verbal": true,
      "somatic": true
    },
    "shortDescription": "<p>You must have a bardic performance in effect to cast this spell. With a flourish, you immediately end your bardic performance, removing one of the following conditions on a creature within range affected by your bardic performance: cowering, dazzled, exhausted, paralyzed, shaken, or stunned.</p>"
  }
}
