{
  "_id": "i973i4haczi7e0xp",
  "name": "Rally Point",
  "type": "spell",
  "img": "systems/pf1/icons/misc/magic-swirl.png",
  "system": {
    "actions": [
      {
        "_id": "2dclzjgu3evr699z",
        "name": "Use",
        "img": "systems/pf1/icons/misc/magic-swirl.png",
        "activation": {
          "type": "standard"
        },
        "unchainedAction": {
          "activation": {
            "cost": 2,
            "type": "action"
          }
        },
        "duration": {
          "value": "1 minute/level (D)"
        },
        "range": {
          "value": "5",
          "units": "ft"
        },
        "actionType": "spellsave",
        "save": {
          "type": "will",
          "description": "Will negates (harmless)"
        },
        "spellArea": "one 5-ft. square"
      }
    ],
    "learnedAt": {
      "class": {
        "paladin": 1
      }
    },
    "school": "enc",
    "subschool": "compulsion",
    "types": "good, mind-affecting, emotion",
    "components": {
      "verbal": true,
      "somatic": true,
      "divineFocus": 1
    },
    "shortDescription": "<p>You create a spot that has the power to briefly hearten any good creature who comes into contact with it. A good creature who enters this square (even if simply as part of its normal move) gains a +2 morale bonus on attacks, saving throws, and 2 temporary hit points per caster level for 1 round. Nongood creatures gain no benefit from this spell.</p><p>A creature cannot benefit more than once from the same casting of this spell.</p>"
  }
}
