{
  "_id": "zonwg3yt8pswj03y",
  "name": "Repel Vermin",
  "type": "spell",
  "img": "systems/pf1/icons/misc/magic-swirl.png",
  "system": {
    "actions": [
      {
        "_id": "35gq22rh0pw7zg2y",
        "name": "Use",
        "img": "systems/pf1/icons/misc/magic-swirl.png",
        "activation": {
          "type": "standard"
        },
        "unchainedAction": {
          "activation": {
            "cost": 2,
            "type": "action"
          }
        },
        "duration": {
          "value": "10 min./level"
        },
        "range": {
          "value": "10",
          "units": "ft"
        },
        "actionType": "spellsave",
        "save": {
          "type": "will",
          "description": "none or Will negates; see text"
        },
        "spellArea": "10-ft.-radius emanation centered on you"
      }
    ],
    "learnedAt": {
      "class": {
        "cleric": 4,
        "oracle": 4,
        "druid": 4,
        "ranger": 3,
        "bard": 4,
        "shaman": 4,
        "hunter": 3
      },
      "bloodline": {
        "Pestilence": 4
      }
    },
    "level": 4,
    "school": "abj",
    "types": "pain",
    "components": {
      "verbal": true,
      "somatic": true,
      "divineFocus": 1
    },
    "shortDescription": "<p>An invisible barrier holds back vermin. A vermin with HD of less than one-third your level cannot penetrate the barrier.</p><p>A vermin with HD of one-third your level or more can penetrate the barrier if it succeeds on a Will save. Even so, crossing the barrier deals the vermin 2d6 points of damage, and pressing against the barrier causes pain, which deters most vermin.</p>"
  }
}
