{
  "_id": "5u2k3n531n9sx8ng",
  "name": "Revelation",
  "type": "spell",
  "img": "systems/pf1/icons/misc/magic-swirl.png",
  "system": {
    "actions": [
      {
        "_id": "m71ofjsqqip0tz53",
        "name": "Use",
        "img": "systems/pf1/icons/misc/magic-swirl.png",
        "activation": {
          "type": "round"
        },
        "unchainedAction": {
          "activation": {
            "cost": 3,
            "type": "action"
          }
        },
        "duration": {
          "value": "1 round/level; see text"
        },
        "target": {
          "value": "you"
        },
        "range": {
          "units": "personal"
        },
        "actionType": ""
      }
    ],
    "learnedAt": {
      "class": {
        "sorcerer": 3,
        "wizard": 3,
        "cleric": 3,
        "oracle": 3,
        "bard": 2
      }
    },
    "level": 3,
    "school": "div",
    "components": {
      "verbal": true,
      "somatic": true
    },
    "sr": false,
    "shortDescription": "<p>You gain a brief understanding of the workings of a single puzzle, device, or trap, gaining an insight bonus equal to your caster level (maximum +10) on checks to disable, manipulate or solve the object in question. Your insight is ineffable; you are unable to communicate your understanding to others.</p><p>At the GM's option, this spell may instead give you a clue or other piece of useful information. In this case you may communicate the clue to others and retain knowledge of it after the spell's duration has expired.</p>"
  }
}
