{
  "_id": "koSRGjgWYiGBpFMH",
  "name": "Sand Whirlwind, Greater",
  "type": "spell",
  "img": "systems/pf1/icons/misc/magic-swirl.png",
  "system": {
    "actions": [
      {
        "_id": "uWUq52yRcn6jgqbD",
        "name": "Use",
        "img": "systems/pf1/icons/misc/magic-swirl.png",
        "activation": {
          "type": "standard"
        },
        "duration": {
          "value": "1 round/level"
        },
        "range": {
          "units": "medium"
        },
        "actionType": "spellsave",
        "save": {
          "type": "will",
          "description": "Will negates (blinding only)"
        },
        "spellArea": "10-ft.-radius spread"
      }
    ],
    "uses": {
      "autoDeductChargesCost": ""
    },
    "learnedAt": {
      "class": {
        "cleric": 5,
        "oracle": 5,
        "warpriest": 5
      }
    },
    "level": 5,
    "school": "con",
    "subschool": "creation",
    "components": {
      "verbal": true,
      "somatic": true,
      "material": true
    },
    "materials": {
      "value": "a handful of sand, dust, or fine powder"
    },
    "spellbook": "",
    "sr": false,
    "shortDescription": "<p>This spell functions as @Compendium[pf1.spells.xX5Xwkv4hrdbRZV3]{sand whirlwind} except as noted above.</p>"
  }
}
