{
  "_id": "sm4amtotmwcrnixf",
  "name": "Scourge of the Horsemen",
  "type": "spell",
  "img": "systems/pf1/icons/misc/magic-swirl.png",
  "system": {
    "actions": [
      {
        "_id": "5mjglo7u93lnsq2y",
        "name": "Use",
        "img": "systems/pf1/icons/misc/magic-swirl.png",
        "activation": {
          "type": "standard"
        },
        "unchainedAction": {
          "activation": {
            "cost": 2,
            "type": "action"
          }
        },
        "duration": {
          "value": "instantaneous"
        },
        "range": {
          "units": "medium"
        },
        "actionType": "spellsave",
        "save": {
          "type": "fort",
          "description": "Fortitude half"
        },
        "spellArea": "30-ft. burst"
      }
    ],
    "learnedAt": {
      "class": {
        "sorcerer": 9,
        "wizard": 9,
        "cleric": 9,
        "oracle": 9
      }
    },
    "level": 9,
    "school": "nec",
    "types": "acid, evil",
    "components": {
      "verbal": true,
      "somatic": true
    },
    "shortDescription": "<p>This spell blasts the area with a horrific combination of soul-rending energy and physical corrosion. Creatures in the area of effect gain 1d4 negative levels, and take 1d6 points of acid damage per caster level (maximum 20d6).</p>"
  }
}
