{
  "_id": "d0d86z521shpman1",
  "name": "Sending",
  "type": "spell",
  "img": "systems/pf1/icons/misc/magic-swirl.png",
  "system": {
    "actions": [
      {
        "_id": "2f2xqi5tbjv3rc4b",
        "name": "Use",
        "img": "systems/pf1/icons/misc/magic-swirl.png",
        "activation": {
          "cost": 10,
          "type": "minute"
        },
        "unchainedAction": {
          "activation": {
            "cost": 10,
            "type": "minute"
          }
        },
        "duration": {
          "value": "1 round; see text"
        },
        "target": {
          "value": "one creature"
        },
        "actionType": ""
      }
    ],
    "learnedAt": {
      "class": {
        "sorcerer": 5,
        "wizard": 5,
        "cleric": 4,
        "oracle": 4,
        "alchemist": 5,
        "summoner": 4,
        "inquisitor": 4,
        "shaman": 4,
        "psychic": 4,
        "medium": 3,
        "mesmerist": 3,
        "occultist": 4,
        "spiritualist": 5,
        "unchained Summoner": 5
      }
    },
    "level": 5,
    "school": "evo",
    "components": {
      "verbal": true,
      "somatic": true,
      "material": true,
      "divineFocus": 2
    },
    "materials": {
      "value": "fine copper wire"
    },
    "sr": false,
    "shortDescription": "<p>You contact a particular creature with which you are familiar and send a short message of 25 words or less to the subject. The subject recognizes you if it knows you. It can answer in like manner immediately. A creature with an Intelligence score as low as 1 can understand the <i><i>sending</i>,</i> though the subject's ability to react is limited as normal by its Intelligence. Even if the <i>sending</i> is received, the subject is not obligated to act upon it in any manner.</p><p>If the creature in question is not on the same plane of existence as you are, there is a 5% chance that the <i>sending</i> does not arrive. (Local conditions on other planes may worsen this chance considerably.)</p>"
  }
}
