{
  "_id": "jf6um3et80aafg8o",
  "name": "Serren's Armor Lock",
  "type": "spell",
  "img": "systems/pf1/icons/misc/magic-swirl.png",
  "system": {
    "actions": [
      {
        "_id": "ofr7ndb80b3wdcjt",
        "name": "Use",
        "img": "systems/pf1/icons/misc/magic-swirl.png",
        "activation": {
          "type": "standard"
        },
        "unchainedAction": {
          "activation": {
            "cost": 2,
            "type": "action"
          }
        },
        "duration": {
          "value": "1 round/level (D)"
        },
        "target": {
          "value": "one armored creature"
        },
        "range": {
          "units": "medium"
        },
        "actionType": "spellsave",
        "save": {
          "type": "ref",
          "description": "Reflex partial; see text"
        }
      }
    ],
    "learnedAt": {
      "class": {
        "sorcerer": 3,
        "wizard": 3,
        "witch": 3,
        "magus": 2
      }
    },
    "level": 3,
    "school": "trs",
    "components": {
      "verbal": true,
      "somatic": true,
      "material": true
    },
    "materials": {
      "value": "a pinch of rust"
    },
    "shortDescription": "<p>Upon pointing at an armored foe, you cause all of the joints of the target's armor to stiffen as otherworldly chains wrap around the target. On a failed Reflex save, a target in heavy metal armor becomes staggered. A target in light or medium metal armor instead becomes entangled. <b>Target</b>s wearing no armor or nonmetallic armor are unaffected. If the target is wearing heavy metal armor and succeeds at its Reflex save, it becomes entangled instead of staggered; a target in light or medium metal armor that succeeds at its saving throw is unaffected by the spell.</p>"
  }
}
