{
  "_id": "4z7u1ne2q0gg4o1d",
  "name": "Shadowform",
  "type": "spell",
  "img": "systems/pf1/icons/misc/magic-swirl.png",
  "system": {
    "actions": [
      {
        "_id": "31txyf8j1ijzg2tx",
        "name": "Use",
        "img": "systems/pf1/icons/misc/magic-swirl.png",
        "activation": {
          "type": "standard"
        },
        "unchainedAction": {
          "activation": {
            "cost": 2,
            "type": "action"
          }
        },
        "duration": {
          "value": "1 round/level (D)"
        },
        "target": {
          "value": "creature touched"
        },
        "range": {
          "units": "touch"
        },
        "actionType": "spellsave",
        "save": {
          "type": "will",
          "description": "Will negates (see text)"
        }
      }
    ],
    "learnedAt": {
      "class": {
        "sorcerer": 4,
        "wizard": 4,
        "bard": 4,
        "witch": 4,
        "antipaladin": 4,
        "psychic": 4,
        "mesmerist": 4,
        "spiritualist": 4
      }
    },
    "level": 4,
    "school": "ill",
    "subschool": "shadow",
    "types": "shadow",
    "components": {
      "verbal": true,
      "somatic": true
    },
    "shortDescription": "<p>You replace the target's body with mystic shadow material drawn from the Shadow Plane, rendering the target's physical form only quasi-real. Whenever a foe tries to directly attack the target of the spell (for instance, with a weapon or a targeted spell), that foe must attempt a Will save to disbelieve. If successful, the opponent can attack the target normally and is unaffected by <i>shadowform</i> for 1 round. If the foe fails, the target takes only one-fifth the normal amount of damage from the foe's successful attack or effect, and if the attack has a special effect other than damage, that effect is one-fifth as strong as normal (if applicable) or only 20% as likely to occur. Objects automatically succeed at their Will saves against this spell.</p>"
  }
}
