{
  "_id": "ty5xgtgds4b4uhhc",
  "name": "Share Glory",
  "type": "spell",
  "img": "systems/pf1/icons/misc/magic-swirl.png",
  "system": {
    "actions": [
      {
        "_id": "skqy6k042k9klnw4",
        "name": "Use",
        "img": "systems/pf1/icons/misc/magic-swirl.png",
        "activation": {
          "type": "standard"
        },
        "unchainedAction": {
          "activation": {
            "cost": 2,
            "type": "action"
          }
        },
        "duration": {
          "value": "1 minute/level"
        },
        "target": {
          "value": "one non-mythic creature/3 levels"
        },
        "range": {
          "units": "close"
        },
        "actionType": "spellsave",
        "save": {
          "type": "will",
          "description": "Will negates (harmless)"
        }
      }
    ],
    "learnedAt": {
      "class": {
        "sorcerer": 3,
        "wizard": 3,
        "cleric": 3,
        "oracle": 3,
        "druid": 3,
        "bard": 2,
        "summoner": 2,
        "witch": 3,
        "psychic": 3,
        "medium": 1,
        "hunter": 3,
        "unchained Summoner": 2
      }
    },
    "level": 3,
    "school": "trs",
    "components": {
      "verbal": true,
      "somatic": true
    },
    "shortDescription": "<p>You imbue the targets with a fraction of your mythic nature. They count as mythic creatures for the purpose of path abilities, spells, and other effects that function differently for mythic creatures. This doesn't grant the targets mythic tiers or any uses of mythic power; it merely gives them a greater advantage when others use abilities that work differently for mythic creatures. You must be at least a 1st-tier mythic character to cast this spell.</p>"
  }
}
