{
  "_id": "ntcb8hjlxps8v212",
  "name": "Sleepwalk",
  "type": "spell",
  "img": "systems/pf1/icons/misc/magic-swirl.png",
  "system": {
    "actions": [
      {
        "_id": "v2pfbit9qghaweph",
        "name": "Use",
        "img": "systems/pf1/icons/misc/magic-swirl.png",
        "activation": {
          "type": "round"
        },
        "unchainedAction": {
          "activation": {
            "cost": 3,
            "type": "action"
          }
        },
        "duration": {
          "value": "1 hour/level (D)"
        },
        "target": {
          "value": "unconscious creature touched"
        },
        "range": {
          "units": "touch"
        },
        "actionType": "spellsave",
        "save": {
          "type": "will",
          "description": "Will negates; see text"
        }
      }
    ],
    "learnedAt": {
      "class": {
        "witch": 4,
        "inquisitor": 4,
        "psychic": 4,
        "mesmerist": 4
      }
    },
    "level": 4,
    "school": "enc",
    "subschool": "compulsion",
    "types": "mind-affecting",
    "components": {
      "verbal": true,
      "somatic": true,
      "material": true
    },
    "materials": {
      "value": "a sprig of belladonna worth 100 gp",
      "gpValue": 100
    },
    "spellbook": "",
    "preparation": {
      "spontaneousPrepared": false
    },
    "shortDescription": "<p>You compel an unconscious or sleeping creature to rise and move in a half-awake state. The target creature staggers about if led or guided, but remains helpless for all other purposes.</p><p>The subject moves at half speed and is limited to a single move action each round. It is not capable of moving at a higher rate of speed or taking actions other than movement except by magical assistance, and automatically fails any Dexterity- or Strength-based skill checks. If the creature takes any damage while <i><i>sleepwalk</i>ing</i> it must make a new saving throw or the spell ends and the creature awakes (if it has more than 0 hit points). When the spell ends or is dismissed, the target remains unconscious and must be awoken normally. While <i>sleepwalk</i> allows an unconscious creature to move, it does not awaken the creature, nor does it stabilize or otherwise heal them. A disabled creature that moves about while under the effects of this spell does not start dying again as a result of this movement.</p>"
  }
}
