{
  "name": "Solidify Earth",
  "type": "spell",
  "img": "icons/commodities/stone/paver-brick-brown.webp",
  "system": {
    "actions": [
      {
        "_id": "HitVAerHTvzqhLbM",
        "name": "Use",
        "img": "icons/commodities/stone/paver-brick-brown.webp",
        "activation": {
          "type": "standard"
        },
        "unchainedAction": {
          "activation": {
            "cost": 2,
            "type": "action"
          }
        },
        "duration": {
          "value": "1 minute/level"
        },
        "range": {
          "units": "close"
        },
        "measureTemplate": {
          "type": "rect",
          "size": "10"
        },
        "actionType": "spellsave",
        "save": {
          "type": "ref",
          "description": "Reflex negates (see text)"
        },
        "spellArea": "up to two 10-foot cubes per level (S)"
      }
    ],
    "uses": {
      "autoDeductChargesCost": ""
    },
    "learnedAt": {
      "class": {
        "arcanist": 2,
        "cleric": 2,
        "druid": 2,
        "hunter": 2,
        "oracle": 2,
        "shaman": 2,
        "sorcerer": 2,
        "warpriest": 2,
        "wizard": 2
      }
    },
    "level": 2,
    "school": "trs",
    "types": "earth",
    "components": {
      "verbal": true,
      "somatic": true,
      "divineFocus": 2
    },
    "spellbook": "",
    "sr": false,
    "shortDescription": "<p>Stone, dirt, and other types of earth within the area become more tightly packed. Burrowing creature (including those using <em>earth glide</em>) treat the area as difficult terrain. Any creature that begins its turn burrowing in the affected area becomes @UUID[Compendium.pf1.pf1e-rules.NSqfXaj4MevUR2uJ.JournalEntryPage.oxmugd8SoxVjvRRl]{entangled} for 1 round (Reflex negates). <em>Tremorsense</em> and similar senses are ineffective within the affected area. Creatures with the <em>earth mastery</em> special ability (such as earth elementals) double their bonus on attack and damage rolls so long as both they and their targets are touching the area affected by this spell.</p>"
  },
  "_id": "i29DYm99Rxp3mvhs"
}
