{
  "name": "Speak with Waves",
  "type": "spell",
  "img": "systems/pf1/icons/misc/magic-swirl.png",
  "system": {
    "actions": [
      {
        "_id": "FzaWzTF8QuQ6Scpl",
        "name": "Use",
        "img": "systems/pf1/icons/misc/magic-swirl.png",
        "activation": {
          "cost": 10,
          "type": "minute"
        },
        "unchainedAction": {
          "activation": {
            "cost": 10,
            "type": "minute"
          }
        },
        "duration": {
          "value": "1 minute/level"
        },
        "target": {
          "value": "you"
        },
        "range": {
          "units": "personal"
        },
        "actionType": ""
      }
    ],
    "uses": {
      "autoDeductChargesCost": ""
    },
    "learnedAt": {
      "class": {
        "druid": 6,
        "hunter": 6,
        "shaman": 7
      }
    },
    "level": 6,
    "school": "div",
    "types": "water",
    "components": {
      "verbal": true,
      "somatic": true,
      "divineFocus": 1
    },
    "spellbook": "",
    "sr": false,
    "shortDescription": "<p>This spell functions as @Compendium[pf1.spells.wgm8mm1za909pwch]{stone tell} but allows conversations only with a body of standing or flowing fresh water at least as large as you are. Flowing water can generally speak about events happening upstream but not events happening downstream.</p>"
  },
  "_id": "4SkqICrRfq3BYu2j"
}
