{
  "_id": "7kmea4f1sjusdlbl",
  "name": "Storm of Blades",
  "type": "spell",
  "img": "systems/pf1/icons/misc/magic-swirl.png",
  "system": {
    "actions": [
      {
        "_id": "eecgevxwy26dkods",
        "name": "Use",
        "img": "systems/pf1/icons/misc/magic-swirl.png",
        "activation": {
          "type": "standard"
        },
        "unchainedAction": {
          "activation": {
            "cost": 2,
            "type": "action"
          }
        },
        "duration": {
          "value": "instantaneous"
        },
        "target": {
          "value": "one creature"
        },
        "range": {
          "units": "close"
        },
        "actionType": ""
      }
    ],
    "learnedAt": {
      "class": {
        "sorcerer": 2,
        "wizard": 2,
        "cleric": 3,
        "oracle": 3,
        "magus": 2
      }
    },
    "level": 2,
    "school": "con",
    "subschool": "creation",
    "components": {
      "verbal": true,
      "somatic": true,
      "material": true
    },
    "materials": {
      "value": "a sword"
    },
    "sr": false,
    "shortDescription": "<p>You create floating swords of the type used as the material component for this spell (such as a rapier or scimitar) and magically propel them at your target. You can create one sword for every 2 caster levels that you possess, up to a maximum of five swords at 10th level. You must have line of effect between you and the target, and the target must be within the spell's range. You make a ranged attack roll for each sword (with no penalties for range increments or using melee weapons as ranged weapons); each attack has the same threat range and critical modifier and deals the same damage as a standard sword of the type expended. Swords created by this spell disappear after striking (or missing) their targets.</p>"
  }
}
