{
  "_id": "pncr3vvsa94xq4zt",
  "name": "Stunning Barrier, Greater",
  "type": "spell",
  "img": "systems/pf1/icons/misc/magic-swirl.png",
  "system": {
    "actions": [
      {
        "_id": "cjqzhhfx0z9jlx7i",
        "name": "Use",
        "img": "systems/pf1/icons/misc/magic-swirl.png",
        "activation": {
          "type": "standard"
        },
        "unchainedAction": {
          "activation": {
            "cost": 2,
            "type": "action"
          }
        },
        "duration": {
          "value": "1 round/level or until discharged"
        },
        "target": {
          "value": "you"
        },
        "range": {
          "units": "personal"
        },
        "actionType": "spellsave",
        "save": {
          "type": "will",
          "description": "none and Will negates (see text)"
        }
      }
    ],
    "learnedAt": {
      "class": {
        "sorcerer": 3,
        "wizard": 3,
        "cleric": 3,
        "oracle": 3,
        "paladin": 3,
        "inquisitor": 3,
        "psychic": 3
      }
    },
    "level": 3,
    "school": "abj",
    "components": {
      "verbal": true,
      "somatic": true
    },
    "sr": false,
    "shortDescription": "<p>This spell functions as <i>stunning barrier</i>, except as noted above, and it provides a +2 bonus to AC and on saving throws. It is not discharged until it has stunned a number of creatures equal to your caster level.</p>"
  }
}
