{
  "_id": "bi0kwkoqetglbhdq",
  "name": "Summon Lesser Demon",
  "type": "spell",
  "img": "systems/pf1/icons/misc/magic-swirl.png",
  "system": {
    "actions": [
      {
        "_id": "k225q9mpi6my6v0l",
        "name": "Use",
        "img": "systems/pf1/icons/misc/magic-swirl.png",
        "activation": {
          "type": "round"
        },
        "unchainedAction": {
          "activation": {
            "cost": 3,
            "type": "action"
          }
        },
        "duration": {
          "value": "1 round/level (D)"
        },
        "range": {
          "units": "close"
        },
        "actionType": "other",
        "spellEffect": "one summoned creature"
      }
    ],
    "learnedAt": {
      "class": {
        "sorcerer": 5,
        "wizard": 5,
        "cleric": 5,
        "oracle": 5,
        "summoner": 4,
        "witch": 5,
        "unchained Summoner": 4
      }
    },
    "level": 5,
    "school": "con",
    "subschool": "summoning",
    "types": "chaotic, evil",
    "components": {
      "verbal": true,
      "somatic": true,
      "focus": true,
      "divineFocus": 3
    },
    "materials": {
      "focus": "a tiny bag and a small candle"
    },
    "sr": false,
    "shortDescription": "<p>This spell functions like <i>summon monster</i>, except it allows you to summon a single brimorak (<i>Lords of Chaos</i> 56), one incubus (<i>Bestiary 3</i> 73), one thoxel demon (see page 86), 1d3 schir demons (<i>Bestiary 3</i> 74), or 1d4+1 vermlek demons (<i>Lords of Chaos</i> 54).</p>"
  }
}
