{
  "_id": "j91n23p4tfjixp3s",
  "name": "Summon Monster VIII",
  "type": "spell",
  "img": "systems/pf1/icons/misc/magic-swirl.png",
  "system": {
    "actions": [
      {
        "_id": "u4ew4hfa49bochvq",
        "name": "Use",
        "img": "systems/pf1/icons/misc/magic-swirl.png",
        "activation": {
          "type": "round"
        },
        "unchainedAction": {
          "activation": {
            "cost": 3,
            "type": "action"
          }
        },
        "duration": {
          "value": "1 round/level"
        },
        "range": {
          "units": "close"
        },
        "actionType": "other",
        "spellEffect": "one summoned creature"
      }
    ],
    "learnedAt": {
      "class": {
        "sorcerer": 8,
        "wizard": 8,
        "cleric": 8,
        "oracle": 8,
        "summoner": 6,
        "witch": 8,
        "psychic": 8,
        "unchained Summoner": 6
      },
      "bloodline": {
        "Elemental": 8
      }
    },
    "level": 8,
    "school": "con",
    "subschool": "summoning",
    "components": {
      "verbal": true,
      "somatic": true,
      "focus": true,
      "divineFocus": 3
    },
    "materials": {
      "focus": "a tiny bag and a small candle"
    },
    "sr": false,
    "shortDescription": "<p>This spell functions like <i>summon monster I,</i> except that you can summon one creature from the 8th-level list, 1d3 creatures of the same kind from the 7th-level list, or 1d4+1 creatures of the same kind from a lower-level list.</p>"
  }
}
