{
  "name": "Summon Barghest II",
  "type": "spell",
  "img": "icons/creatures/abilities/mouth-teeth-long-red.webp",
  "system": {
    "actions": [
      {
        "_id": "KSvA8aSL0RAlxYod",
        "name": "Use",
        "img": "icons/creatures/abilities/mouth-teeth-long-red.webp",
        "activation": {
          "type": "round"
        },
        "unchainedAction": {
          "activation": {
            "cost": 3,
            "type": "action"
          }
        },
        "duration": {
          "value": "1 round/level (D)"
        },
        "range": {
          "units": "close"
        },
        "actionType": "other",
        "spellEffect": "one summoned greater barghest or 1d3 summoned barghest"
      }
    ],
    "uses": {
      "autoDeductChargesCost": ""
    },
    "learnedAt": {
      "class": {
        "cleric": 6,
        "oracle": 6,
        "warpriest": 6
      }
    },
    "level": 6,
    "school": "con",
    "subschool": "summoning",
    "types": "evil",
    "components": {
      "verbal": true,
      "somatic": true,
      "divineFocus": 1
    },
    "spellbook": "",
    "sr": false,
    "shortDescription": "<p>This spell functions like @Compendium[pf1.spells.ViSMOM9zfKVQLvCQ]{summon barghest I}, save that it can summon 1 greater barghest or 1d3 normal barghests with 2 growth points each.</p>"
  },
  "_id": "M6rx2faMBFZFzuY9"
}
