{
  "_id": "0khn0u6nd4fat6wb",
  "name": "Symbol of Sleep",
  "type": "spell",
  "img": "systems/pf1/icons/misc/magic-swirl.png",
  "system": {
    "actions": [
      {
        "_id": "va8wl8dk45xj3fb6",
        "name": "Use",
        "img": "systems/pf1/icons/misc/magic-swirl.png",
        "activation": {
          "cost": 10,
          "type": "minute"
        },
        "unchainedAction": {
          "activation": {
            "cost": 10,
            "type": "minute"
          }
        },
        "duration": {
          "value": "see text"
        },
        "range": {
          "value": "0",
          "units": "ft"
        },
        "actionType": "spellsave",
        "save": {
          "type": "will",
          "description": "Will negates"
        },
        "spellEffect": "one symbol"
      }
    ],
    "learnedAt": {
      "class": {
        "sorcerer": 5,
        "wizard": 5,
        "cleric": 5,
        "oracle": 5,
        "witch": 5,
        "mesmerist": 5,
        "occultist": 4
      }
    },
    "level": 5,
    "school": "enc",
    "subschool": "compulsion",
    "types": "mind-affecting",
    "components": {
      "verbal": true,
      "somatic": true,
      "material": true
    },
    "materials": {
      "value": "mercury and phosphorus, plus powdered diamond and opal worth a total of 1,000 gp",
      "gpValue": 1000
    },
    "spellbook": "",
    "preparation": {
      "spontaneousPrepared": false
    },
    "shortDescription": "<p>This spell functions like <i><i>symbol of</i> death</i>, except that all creatures of 10 HD or less within 60 feet of the <i><i>symbol of</i> <i>sleep</i></i> instead fall into a catatonic slumber for 3d6 x 10 minutes. Unlike with the <i>sleep</i> spell, <i>sleep</i>ing creatures cannot be awakened by nonmagical means before this time expires.</p><p>Unlike <i><i>symbol of</i> death</i>, <i><i>symbol of</i> <i>sleep</i></i> has no hit point limit; once triggered, a <i><i>symbol of</i> <i>sleep</i></i> simply remains active for 10 minutes per caster level.</p><p><i>Note:</i> Magic traps such as <i><i>symbol of</i> <i>sleep</i></i> are hard to detect and disable. A rogue (only) can use the Perception skill to find a <i><i>symbol of</i> <i>sleep</i></i> and Disable Device to thwart it. The DC in each case is 25 + spell level, or 30 for <i><i>symbol of</i> <i>sleep</i></i>.</p>"
  }
}
