{
  "name": "Telepathic Silence",
  "type": "spell",
  "img": "icons/magic/control/silhouette-aura-energy.webp",
  "system": {
    "actions": [
      {
        "_id": "XhoynDPSyzbAGP4Q",
        "name": "Use",
        "img": "icons/magic/control/silhouette-aura-energy.webp",
        "activation": {
          "type": "round"
        },
        "unchainedAction": {
          "activation": {
            "cost": 3,
            "type": "action"
          }
        },
        "duration": {
          "value": "1 round/level (D)"
        },
        "range": {
          "units": "long"
        },
        "measureTemplate": {
          "type": "circle",
          "size": "60"
        },
        "actionType": "",
        "spellArea": "60-ft.-radius emanation centered on a point in space"
      }
    ],
    "uses": {
      "autoDeductChargesCost": ""
    },
    "learnedAt": {
      "class": {
        "medium": 4,
        "mesmerist": 4,
        "occultist": 4,
        "psychic": 4,
        "spiritualist": 4
      }
    },
    "level": 4,
    "school": "ill",
    "subschool": "glamer",
    "components": {
      "verbal": true,
      "somatic": true
    },
    "spellbook": "",
    "sr": false,
    "shortDescription": "<p>Creatures within the area cannot send or receive telepathic messages, and anyone in the area casting a spell with a thought component must succeed at a concentration check (DC = 20 + twice the spell’s level; this includes the increased concentration DC for casting spells with a thought component) or lose the spell. Furthermore, the thoughts of creatures within the area cannot be detected, located, or read with thoughtsense, detect thoughts, or similar effects. <em>Telepathic silence</em> does not hinder spells that target a creature’s mind or that do not rely on communication, such as @Compendium[pf1.spells.rvf2gxyy1d4strae]{mind thrust}.</p>"
  },
  "_id": "4cTBeTF32aOcJbVd"
}
