{
  "_id": "9jjocotdsznwkz97",
  "name": "Tomb Legion",
  "type": "spell",
  "img": "systems/pf1/icons/misc/magic-swirl.png",
  "system": {
    "actions": [
      {
        "_id": "qx753rbqv1b2fi6l",
        "name": "Use",
        "img": "systems/pf1/icons/misc/magic-swirl.png",
        "activation": {
          "type": "standard"
        },
        "unchainedAction": {
          "activation": {
            "cost": 2,
            "type": "action"
          }
        },
        "duration": {
          "value": "7 days or 7 months; see text"
        },
        "range": {
          "units": "medium"
        },
        "actionType": "other",
        "spellEffect": "Three or more advanced mummies, no two of which can be more than 30 ft. apart; see text"
      }
    ],
    "learnedAt": {
      "class": {
        "sorcerer": 8,
        "wizard": 8,
        "cleric": 8,
        "oracle": 8
      }
    },
    "level": 8,
    "school": "nec",
    "types": "evil",
    "components": {
      "verbal": true,
      "somatic": true
    },
    "sr": false,
    "shortDescription": "<p>This spell functions like <i>shambler</i>, except that it calls into existence 1d4+2 advanced mummies rather than shambling mounds.</p><p>Though the spell has fallen out of favor among the Risen Guard because the Ruby Prince frowns on the use of undead, this spell is popular among followers of the Whispering Way.</p>"
  }
}
