{
  "_id": "wk33boaietwus1a7",
  "name": "Tripvine",
  "type": "spell",
  "img": "systems/pf1/icons/misc/magic-swirl.png",
  "system": {
    "actions": [
      {
        "_id": "2bazn9l2hgrd888m",
        "name": "Use",
        "img": "systems/pf1/icons/misc/magic-swirl.png",
        "activation": {
          "type": "standard"
        },
        "unchainedAction": {
          "activation": {
            "cost": 2,
            "type": "action"
          }
        },
        "duration": {
          "value": "10 minutes/level"
        },
        "target": {
          "value": "10-foot-long rope or vine"
        },
        "range": {
          "units": "touch"
        },
        "actionType": "spellsave",
        "save": {
          "type": "ref",
          "description": "Reflex negates"
        }
      }
    ],
    "learnedAt": {
      "class": {
        "sorcerer": 1,
        "wizard": 1,
        "druid": 1,
        "bard": 1,
        "hunter": 1
      }
    },
    "school": "trs",
    "components": {
      "verbal": true,
      "somatic": true
    },
    "sr": false,
    "shortDescription": "<p>You animate a rope, vine, or similar object so that it attempts to trip any creature that comes near. The rope attacks anything in a 10-foot-square area you designate. The rope does not provoke an attack of opportunity. Its CMB is equal to your caster level +2. A tripped target that was running, jumping, or charging takes 1d6 points of nonlethal damage. Creatures aware of the tripvine gain a +4 bonus to their CMD against it.</p><p>The Green Faith created this spell, but it is now common.</p>"
  }
}
