{
  "_id": "6ci2v3ucadea8x9x",
  "name": "True Skill",
  "type": "spell",
  "img": "systems/pf1/icons/misc/magic-swirl.png",
  "system": {
    "actions": [
      {
        "_id": "ozriwllh0fsyxcld",
        "name": "Use",
        "img": "systems/pf1/icons/misc/magic-swirl.png",
        "activation": {
          "type": "standard"
        },
        "unchainedAction": {
          "activation": {
            "cost": 2,
            "type": "action"
          }
        },
        "duration": {
          "value": "1 minute/level"
        },
        "target": {
          "value": "you"
        },
        "range": {
          "units": "personal"
        },
        "actionType": ""
      }
    ],
    "learnedAt": {
      "class": {
        "sorcerer": 1,
        "wizard": 1,
        "bard": 1,
        "alchemist": 1,
        "magus": 1,
        "psychic": 1,
        "medium": 1
      }
    },
    "school": "div",
    "components": {
      "verbal": true,
      "somatic": true
    },
    "sr": false,
    "shortDescription": "<p>When faced with an important situation, you grant yourself a magical edge to ensure your success. When casting this spell, select one skill for which you can attempt a skill check. The next time you attempt a skill check using the selected skill (before the spell's duration ends), you gain an insight bonus on the check equal to 1/2 your caster level (minimum 1).</p>"
  }
}
