{
  "_id": "vzl9qpq6vdntgjfy",
  "name": "Unleash Pandemonium",
  "type": "spell",
  "img": "systems/pf1/icons/misc/magic-swirl.png",
  "system": {
    "actions": [
      {
        "_id": "13xw557fd45ab3xe",
        "name": "Use",
        "img": "systems/pf1/icons/misc/magic-swirl.png",
        "activation": {
          "type": "standard"
        },
        "unchainedAction": {
          "activation": {
            "cost": 2,
            "type": "action"
          }
        },
        "duration": {
          "value": "concentration (maximum 1 round/level) +1 round (D)"
        },
        "range": {
          "units": "close"
        },
        "actionType": "spellsave",
        "save": {
          "type": "will",
          "description": "Will partial; see text"
        },
        "spellArea": "30-foot-radius spread"
      }
    ],
    "learnedAt": {
      "class": {
        "cleric": 5,
        "oracle": 5,
        "summoner": 5,
        "witch": 5,
        "unchained Summoner": 5
      }
    },
    "level": 5,
    "school": "con",
    "types": "chaotic",
    "components": {
      "verbal": true,
      "somatic": true
    },
    "sr": false,
    "shortDescription": "<p>You call upon the wild winds of the Abyssal atmosphere, howling with the screams of damned and demented souls in torment. The area is filled with winds of windstorm strength (<i>Core Rulebook</i> 439), blowing in a random direction each round. Creatures within the area of effect are deafened as long as they remain within the area and for 1d4 rounds thereafter; however, they continue to hear the sounds of screams in their minds with painful intensity, causing them to become shaken for as long as they remain deafened. A successful Will save negates the shaken condition but not the deafness.</p>"
  }
}
