{
  "_id": "erwffcjfcmqjd1zp",
  "name": "Vigor",
  "type": "spell",
  "img": "systems/pf1/icons/misc/magic-swirl.png",
  "system": {
    "actions": [
      {
        "_id": "2057vca50lglsw0q",
        "name": "Use",
        "img": "systems/pf1/icons/misc/magic-swirl.png",
        "activation": {
          "type": "standard"
        },
        "unchainedAction": {
          "activation": {
            "cost": 2,
            "type": "action"
          }
        },
        "duration": {
          "value": "1 minute or until discharged"
        },
        "target": {
          "value": "creature touched"
        },
        "range": {
          "units": "touch"
        },
        "actionType": "spellsave",
        "save": {
          "type": "will",
          "description": "Will negates (harmless)"
        }
      }
    ],
    "uses": {
      "autoDeductChargesCost": "0"
    },
    "learnedAt": {
      "class": {
        "cleric": 0,
        "oracle": 0
      }
    },
    "level": 0,
    "school": "trs",
    "components": {
      "verbal": true,
      "somatic": true
    },
    "shortDescription": "<p>This spell infuses the subject with a small surge of strength.</p><p>The creature gets a +1 competence bonus on a single melee damage roll. It must choose to use the bonus before making the roll to which it applies. <b>Range</b>d or spell attacks are unaffected by this spell.</p>"
  }
}
