{
  "_id": "h9k3iukoj2rkqh6t",
  "name": "Vomit Twin",
  "type": "spell",
  "img": "systems/pf1/icons/misc/magic-swirl.png",
  "system": {
    "actions": [
      {
        "_id": "ulk7miemqi81h15k",
        "name": "Use",
        "img": "systems/pf1/icons/misc/magic-swirl.png",
        "activation": {
          "type": "standard"
        },
        "unchainedAction": {
          "activation": {
            "cost": 2,
            "type": "action"
          }
        },
        "duration": {
          "value": "1 round/level"
        },
        "range": {
          "units": "personal"
        },
        "actionType": "other",
        "spellEffect": "creates one ooze duplicate of the caster"
      }
    ],
    "learnedAt": {
      "class": {
        "sorcerer": 4,
        "wizard": 4,
        "alchemist": 3,
        "summoner": 3,
        "magus": 3,
        "psychic": 4,
        "unchained Summoner": 3
      }
    },
    "level": 4,
    "school": "con",
    "subschool": "creation, teleportation",
    "components": {
      "verbal": true,
      "somatic": true
    },
    "sr": false,
    "shortDescription": "<p>Upon casting this spell, you vomit forth a disgusting ooze copy of yourself into a single adjacent square. As long as the twin exists, whenever you take a move action to move, the twin can move as well, although it does not need to follow you and cannot take any other actions. On subsequent rounds, at the start of your turn, you can instantaneously exchange places with your twin, as if using <i>teleport</i>. This is not an action and does not provoke an attack of opportunity.  The twin has a speed of 30 feet and provokes attacks of opportunity from movement as normal. It has an AC equal to 10 + 1/2 your caster level and a number of hit points equal to your caster level. If the twin is reduced to 0 hit points, it is destroyed, although you can create a new one on your turn as a standard action as long as the duration persists. You cannot have more than one vomit twin at a time.</p>"
  }
}
