{
  "_id": "rgrq94b6mte5b024",
  "name": "Wandering Weather",
  "type": "spell",
  "img": "systems/pf1/icons/misc/magic-swirl.png",
  "system": {
    "actions": [
      {
        "_id": "vsuetemd8ugxalvf",
        "name": "Use",
        "img": "systems/pf1/icons/misc/magic-swirl.png",
        "activation": {
          "cost": 10,
          "type": "minute"
        },
        "unchainedAction": {
          "activation": {
            "cost": 10,
            "type": "minute"
          }
        },
        "duration": {
          "value": "4d12 hours; see text"
        },
        "range": {
          "value": "2",
          "units": "mi"
        },
        "actionType": "",
        "spellArea": "2-mile-radius circle, centered on you; see text"
      }
    ],
    "learnedAt": {
      "class": {
        "sorcerer": 8,
        "wizard": 8,
        "cleric": 8,
        "oracle": 8,
        "druid": 8,
        "witch": 8,
        "shaman": 8
      }
    },
    "level": 8,
    "school": "trs",
    "components": {
      "verbal": true,
      "somatic": true
    },
    "sr": false,
    "shortDescription": "<p>This spell functions as <i>control weather</i> except you can opt for the weather to remain centered on you as you move.</p>"
  }
}
