{
  "_id": "42ddkxklxocbodnb",
  "name": "Youthful Appearance",
  "type": "spell",
  "img": "systems/pf1/icons/misc/magic-swirl.png",
  "system": {
    "actions": [
      {
        "_id": "2qrp5s47kzfhxf3m",
        "name": "Use",
        "img": "systems/pf1/icons/misc/magic-swirl.png",
        "activation": {
          "type": "standard"
        },
        "unchainedAction": {
          "activation": {
            "cost": 2,
            "type": "action"
          }
        },
        "duration": {
          "value": "1 hour/level"
        },
        "target": {
          "value": "creature touched"
        },
        "range": {
          "units": "touch"
        },
        "actionType": ""
      }
    ],
    "learnedAt": {
      "class": {
        "sorcerer": 1,
        "wizard": 1,
        "bard": 1,
        "alchemist": 1,
        "witch": 1,
        "psychic": 1,
        "medium": 1,
        "occultist": 1
      }
    },
    "school": "trs",
    "subschool": "polymorph",
    "components": {
      "verbal": true,
      "somatic": true
    },
    "sr": false,
    "shortDescription": "<p>You make your target look like a younger version of itself. You select how much younger it looks (for example, \"10 years\" or \"as a young adult\"). You cannot otherwise change details of the target's appearance other than those directly associated with aging (for example, gray hair returns to its original color). The target cannot appear so much younger that it changes size.</p><p>This spell does not affect any age-based modifications to ability scores or other age-related effects.</p>"
  }
}
