{
  "_id": "fLU25FvuRWMCSxPP",
  "name": "Mesmerist",
  "type": "class",
  "img": "systems/pf1/icons/skills/blue_15.jpg",
  "system": {
    "description": {
      "value": "<p>Experts at charm and deceit, mesmerists compel others to heed their words and bend to their will. Psychic powers, primarily those of <em>enchantment</em> and <em>illusion</em>, give mesmerists the tools they need to manipulate others—usually for their own personal gain. The very gaze of a mesmerist can hypnotize someone into following his whims. Mesmerists frequently form cults of personality around themselves, and they develop skills and contingency plans in case their ploys are discovered.</p>\n<p>They draw their magic from the <em>Astral Plane</em>, and many consider their minds to be conduits to enigmatic spaces others can’t comprehend.</p>\n<p><b>Role:</b> Mesmerists wield power over lesser minds, suppressing foes’ wills to weaken them. Priding themselves on their trickery and inventiveness, they also support their allies—and often themselves—with magical tricks, most of which offer protection. Their limited healing ability primarily provides <em>temporary hit points</em>, so mesmerists aren’t the strongest primary healers, but they can easily remove conditions that typically affect the mind.</p>\n<p><b>Alignment:</b> Any.</p>\n<p><b>Hit Die</b>: d8.</p>\n<p><b>Starting Wealth</b>: 3d6 × 10 gp (average 105 gp.) In addition, each character begins play with an outfit worth 10 gp or less.</p>\n<h2>Class Skills</h2>\n<p>The mesmerist’s class skills are <em>Appraise</em> (<em>Int</em>), <em>Bluff</em> (<em>Cha</em>), <em>Craft</em> (<em>Int</em>), <em>Diplomacy</em> (<em>Cha</em>), <em>Disguise</em> (<em>Cha</em>), <em>Escape Artist</em> (<em>Dex</em>), <em>Intimidate</em> (<em>Cha</em>), <em>Knowledge</em> (arcana) (<em>Int</em>), <em>Knowledge</em> (dungeoneering) (<em>Int</em>), <em>Knowledge</em> (history) (<em>Int</em>), <em>Knowledge</em> (local) (<em>Int</em>), <em>Knowledge</em> (nobility) (<em>Int</em>), <em>Knowledge</em> (religion) (<em>Int</em>), <em>Linguistics</em> (<em>Int</em>), <em>Perception</em> (<em>Wis</em>), <em>Perform</em> (<em>Cha</em>), <em>Profession</em> (<em>Wis</em>), <em>Sense Motive</em> (<em>Wis</em>), <em>Sleight of Hand</em> (<em>Dex</em>), <em>Spellcraft</em> (<em>Int</em>), <em>Stealth</em> (<em>Dex</em>) ,and <em>Use Magic Device</em> (<em>Cha</em>).</p>\n<p><b>Skill Ranks per Level</b>: 6 + <em>Int</em> modifier.</p>"
    },
    "links": {
      "classAssociations": [
        {
          "name": "Consummate Liar",
          "level": 1,
          "_index": 0,
          "uuid": "Compendium.pf1.class-abilities.ou85mTXBHWjreUYw"
        },
        {
          "name": "Hypnotic Stare",
          "level": 1,
          "_index": 1,
          "uuid": "Compendium.pf1.class-abilities.40X1l46RRbJE02qU"
        },
        {
          "name": "Mesmerist Tricks",
          "level": 1,
          "_index": 2,
          "uuid": "Compendium.pf1.class-abilities.JZlCwRBCgOeFxIk7"
        },
        {
          "name": "Painful Stare",
          "level": 1,
          "_index": 3,
          "uuid": "Compendium.pf1.class-abilities.EbVLpbO2masMTMBC"
        },
        {
          "name": "Towering Ego",
          "level": 2,
          "_index": 4,
          "uuid": "Compendium.pf1.class-abilities.7bJF48eC3lZpL1LG"
        },
        {
          "name": "Bold Stare",
          "level": 3,
          "_index": 5,
          "uuid": "Compendium.pf1.class-abilities.m1uPDPwBd5mm6COj"
        },
        {
          "name": "Touch Treatment",
          "level": 3,
          "_index": 6,
          "uuid": "Compendium.pf1.class-abilities.4Tls63kS3Gq9MH7X"
        },
        {
          "name": "Manifold Tricks",
          "level": 5,
          "_index": 7,
          "uuid": "Compendium.pf1.class-abilities.k5jZbHNa0BdrcSGn"
        },
        {
          "name": "Mental Potency",
          "level": 5,
          "_index": 8,
          "uuid": "Compendium.pf1.class-abilities.tX50itDqdNfe1qpj"
        },
        {
          "name": "Glib Lie",
          "level": 11,
          "_index": 9,
          "uuid": "Compendium.pf1.class-abilities.ATsERP3UJdSOvi14"
        },
        {
          "name": "Masterful Tricks",
          "level": 12,
          "_index": 10,
          "uuid": "Compendium.pf1.class-abilities.4IIOGeT5qafH4HRa"
        },
        {
          "name": "Rule Minds",
          "level": 20,
          "_index": 11,
          "uuid": "Compendium.pf1.class-abilities.BeXGJBlieLrwpJps"
        }
      ]
    },
    "tag": "mesmerist",
    "useCustomTag": true,
    "armorProf": {
      "value": ["lgt"]
    },
    "weaponProf": {
      "value": ["sim"],
      "custom": "Hand Crossbow;Sap;Sword Cane;Whip"
    },
    "bab": "med",
    "skillsPerLevel": 6,
    "savingThrows": {
      "ref": {
        "value": "high"
      },
      "will": {
        "value": "high"
      }
    },
    "classSkills": {
      "apr": true,
      "art": true,
      "blf": true,
      "crf": true,
      "dip": true,
      "dis": true,
      "esc": true,
      "int": true,
      "kar": true,
      "kdu": true,
      "khi": true,
      "klo": true,
      "kno": true,
      "kre": true,
      "lin": true,
      "lor": true,
      "per": true,
      "prf": true,
      "pro": true,
      "sen": true,
      "slt": true,
      "spl": true,
      "ste": true,
      "umd": true
    },
    "casting": {
      "type": "spontaneous",
      "progression": "med",
      "ability": "cha",
      "spells": "psychic"
    }
  }
}
